lora.c:60:6:initLora	16	static
lora.c:77:6:initReceive	8	static
lora.c:82:7:receiveString	232	static
lora.c:133:6:sendString	16	static
lora.c:160:6:payload2string	48	static
lora.c:196:6:setting2string	48	static
lora.c:212:6:receiveSettings	88	static
