EESchema Schematic File Version 4
LIBS:FLAB_power_supply-cache
EELAYER 30 0
EELAYER END
$Descr A4 11693 8268
encoding utf-8
Sheet 1 1
Title ""
Date ""
Rev ""
Comp ""
Comment1 ""
Comment2 ""
Comment3 ""
Comment4 ""
$EndDescr
$Comp
L Device:R R17
U 1 1 5DB36BE4
P 3900 5400
F 0 "R17" H 3830 5354 50  0000 R CNN
F 1 "68k" H 3830 5445 50  0000 R CNN
F 2 "Resistor_SMD:R_0603_REFLOW" V 3830 5400 50  0001 C CNN
F 3 "~" H 3900 5400 50  0001 C CNN
	1    3900 5400
	-1   0    0    1   
$EndComp
$Comp
L Device:R R18
U 1 1 5DB36DB9
P 3900 6100
F 0 "R18" H 3830 6054 50  0000 R CNN
F 1 "33k" H 3830 6145 50  0000 R CNN
F 2 "Resistor_SMD:R_0603_REFLOW" V 3830 6100 50  0001 C CNN
F 3 "~" H 3900 6100 50  0001 C CNN
	1    3900 6100
	-1   0    0    1   
$EndComp
$Comp
L power:GND #PWR011
U 1 1 5DB374D7
P 3900 6500
F 0 "#PWR011" H 3900 6250 50  0001 C CNN
F 1 "GND" H 3905 6327 50  0000 C CNN
F 2 "" H 3900 6500 50  0001 C CNN
F 3 "" H 3900 6500 50  0001 C CNN
	1    3900 6500
	1    0    0    -1  
$EndComp
Connection ~ 3900 5850
Wire Wire Line
	3900 5850 3900 5950
Wire Wire Line
	3900 6250 3900 6500
Text GLabel 4975 4700 2    50   Input ~ 0
VBAT
Connection ~ 2075 4700
Wire Wire Line
	2075 4700 2075 4625
$Comp
L power:VCC #PWR05
U 1 1 5DB34B61
P 2075 4625
F 0 "#PWR05" H 2075 4475 50  0001 C CNN
F 1 "VCC" H 2092 4798 50  0000 C CNN
F 2 "" H 2075 4625 50  0001 C CNN
F 3 "" H 2075 4625 50  0001 C CNN
	1    2075 4625
	1    0    0    -1  
$EndComp
Wire Wire Line
	2075 4700 2600 4700
$Comp
L Device:R R12
U 1 1 5DB2FE23
P 2750 4700
F 0 "R12" V 2543 4700 50  0000 C CNN
F 1 "WSHP2818R0500FEB" V 2634 4700 50  0000 C CNN
F 2 "Resistor_SMD:R_2816_7142Metric" V 2680 4700 50  0001 C CNN
F 3 "~" H 2750 4700 50  0001 C CNN
	1    2750 4700
	0    1    1    0   
$EndComp
Text GLabel 1225 5750 0    50   Input ~ 0
ALERT
$Comp
L Device:R R3
U 1 1 5DB4F306
P 1450 5250
F 0 "R3" H 1380 5204 50  0000 R CNN
F 1 "33k" H 1400 5300 50  0000 R CNN
F 2 "Resistor_SMD:R_0603_REFLOW" V 1380 5250 50  0001 C CNN
F 3 "~" H 1450 5250 50  0001 C CNN
	1    1450 5250
	-1   0    0    1   
$EndComp
$Comp
L Device:R R16
U 1 1 5DB54B3F
P 3675 5750
F 0 "R16" V 3600 5775 50  0000 C CNN
F 1 "560k" V 3675 5750 50  0000 C CNN
F 2 "Resistor_SMD:R_0603_REFLOW" V 3605 5750 50  0001 C CNN
F 3 "~" H 3675 5750 50  0001 C CNN
	1    3675 5750
	0    -1   -1   0   
$EndComp
Wire Wire Line
	3475 5850 3900 5850
Wire Wire Line
	3475 5750 3525 5750
Wire Wire Line
	3475 5650 3650 5650
Wire Wire Line
	3825 5650 3825 5750
$Comp
L Device:C C1
U 1 1 5DB5A7F6
P 1775 4950
F 0 "C1" H 1575 5000 50  0000 L CNN
F 1 "100n" H 1500 4925 50  0000 L CNN
F 2 "Capacitor_SMD:C_0603_REFLOW" H 1813 4800 50  0001 C CNN
F 3 "~" H 1775 4950 50  0001 C CNN
	1    1775 4950
	1    0    0    -1  
$EndComp
$Comp
L power:GND #PWR03
U 1 1 5DB5F11F
P 1775 5150
F 0 "#PWR03" H 1775 4900 50  0001 C CNN
F 1 "GND" H 1780 4977 50  0000 C CNN
F 2 "" H 1775 5150 50  0001 C CNN
F 3 "" H 1775 5150 50  0001 C CNN
	1    1775 5150
	1    0    0    -1  
$EndComp
$Comp
L power:GND #PWR07
U 1 1 5DB6198E
P 2775 6475
F 0 "#PWR07" H 2775 6225 50  0001 C CNN
F 1 "GND" H 2780 6302 50  0000 C CNN
F 2 "" H 2775 6475 50  0001 C CNN
F 3 "" H 2775 6475 50  0001 C CNN
	1    2775 6475
	1    0    0    -1  
$EndComp
Wire Wire Line
	2775 6450 2775 6475
$Comp
L Device:R R9
U 1 1 5DB6365D
P 2075 4950
F 0 "R9" H 1975 4900 50  0000 C CNN
F 1 "0" H 2075 4950 50  0000 C CNN
F 2 "Resistor_SMD:R_0603_REFLOW" V 2005 4950 50  0001 C CNN
F 3 "~" H 2075 4950 50  0001 C CNN
	1    2075 4950
	-1   0    0    1   
$EndComp
$Comp
L Device:R R14
U 1 1 5DB63C6E
P 3475 4950
F 0 "R14" V 3682 4950 50  0000 C CNN
F 1 "0" V 3591 4950 50  0000 C CNN
F 2 "Resistor_SMD:R_0603_REFLOW" V 3405 4950 50  0001 C CNN
F 3 "~" H 3475 4950 50  0001 C CNN
	1    3475 4950
	-1   0    0    1   
$EndComp
Wire Wire Line
	2900 4700 3475 4700
Wire Wire Line
	2075 4800 2075 4700
Connection ~ 3475 4700
$Comp
L Device:C C4
U 1 1 5DB6646A
P 2775 5150
F 0 "C4" V 3027 5150 50  0000 C CNN
F 1 "DNP" V 2936 5150 50  0000 C CNN
F 2 "Capacitor_SMD:C_0603_REFLOW" H 2813 5000 50  0001 C CNN
F 3 "~" H 2775 5150 50  0001 C CNN
	1    2775 5150
	0    -1   -1   0   
$EndComp
Wire Wire Line
	2075 5100 2075 5150
Wire Wire Line
	3475 5100 3475 5150
Wire Wire Line
	3900 5550 3900 5850
Wire Wire Line
	3475 4700 3475 4800
Wire Wire Line
	2925 5150 3475 5150
Connection ~ 3475 5150
Wire Wire Line
	3475 5150 3475 5550
Wire Wire Line
	2625 5150 2225 5150
Connection ~ 2075 5150
Wire Wire Line
	2075 5150 2075 5550
$Comp
L Device:R R20
U 1 1 5DB8B684
P 4675 1575
F 0 "R20" H 4605 1529 50  0000 R CNN
F 1 "330" H 4605 1620 50  0000 R CNN
F 2 "Resistor_SMD:R_0603_REFLOW" V 4605 1575 50  0001 C CNN
F 3 "~" H 4675 1575 50  0001 C CNN
	1    4675 1575
	-1   0    0    1   
$EndComp
$Comp
L Device:R R22
U 1 1 5DB9FF44
P 5025 1575
F 0 "R22" H 4955 1529 50  0000 R CNN
F 1 "330" H 4955 1620 50  0000 R CNN
F 2 "Resistor_SMD:R_0603_REFLOW" V 4955 1575 50  0001 C CNN
F 3 "~" H 5025 1575 50  0001 C CNN
	1    5025 1575
	-1   0    0    1   
$EndComp
$Comp
L Device:C C6
U 1 1 5DBB31D6
P 4675 2050
F 0 "C6" H 4790 2096 50  0000 L CNN
F 1 "100n" H 4790 2005 50  0000 L CNN
F 2 "Capacitor_SMD:C_0603_REFLOW" H 4713 1900 50  0001 C CNN
F 3 "~" H 4675 2050 50  0001 C CNN
	1    4675 2050
	1    0    0    -1  
$EndComp
Wire Wire Line
	4675 1725 4675 1900
$Comp
L Device:C C8
U 1 1 5DBB7B0A
P 5025 2050
F 0 "C8" H 5140 2096 50  0000 L CNN
F 1 "100n" H 5140 2005 50  0000 L CNN
F 2 "Capacitor_SMD:C_0603_REFLOW" H 5063 1900 50  0001 C CNN
F 3 "~" H 5025 2050 50  0001 C CNN
	1    5025 2050
	1    0    0    -1  
$EndComp
Wire Wire Line
	5025 1725 5025 1825
Wire Wire Line
	4425 1725 4575 1725
Connection ~ 4675 1725
Wire Wire Line
	4425 1825 4900 1825
Connection ~ 5025 1825
Wire Wire Line
	5025 1825 5025 1900
$Comp
L Device:C C5
U 1 1 5DBBBA9C
P 3325 2100
F 0 "C5" H 3210 2054 50  0000 R CNN
F 1 "10n" H 3210 2145 50  0000 R CNN
F 2 "Capacitor_SMD:C_0603_REFLOW" H 3363 1950 50  0001 C CNN
F 3 "~" H 3325 2100 50  0001 C CNN
	1    3325 2100
	-1   0    0    1   
$EndComp
$Comp
L Device:R R13
U 1 1 5DBBD56D
P 3025 2100
F 0 "R13" H 2955 2054 50  0000 R CNN
F 1 "330" H 2955 2145 50  0000 R CNN
F 2 "Resistor_SMD:R_0603_REFLOW" V 2955 2100 50  0001 C CNN
F 3 "~" H 3025 2100 50  0001 C CNN
	1    3025 2100
	-1   0    0    1   
$EndComp
Wire Wire Line
	2700 1725 2700 1775
Wire Wire Line
	2175 1625 2300 1625
Wire Wire Line
	2175 1625 2175 2050
Wire Wire Line
	3325 1825 3325 1950
Wire Wire Line
	1975 2350 1950 2350
Wire Wire Line
	4675 1325 4675 1350
$Comp
L power:VCC #PWR013
U 1 1 5DBD1002
P 4675 1325
F 0 "#PWR013" H 4675 1175 50  0001 C CNN
F 1 "VCC" H 4692 1498 50  0000 C CNN
F 2 "" H 4675 1325 50  0001 C CNN
F 3 "" H 4675 1325 50  0001 C CNN
	1    4675 1325
	1    0    0    -1  
$EndComp
Wire Wire Line
	5025 1000 5025 1425
Connection ~ 4675 1350
Wire Wire Line
	4675 1350 4675 1425
Wire Wire Line
	2900 2350 2950 2350
Wire Wire Line
	3025 2350 3025 2250
Wire Wire Line
	3025 1950 3025 1825
Connection ~ 3325 1825
Wire Wire Line
	1950 2350 1950 2650
Wire Wire Line
	1950 2650 3325 2650
Wire Wire Line
	4675 2200 4675 2650
Connection ~ 1950 2350
Wire Wire Line
	4675 2650 5025 2650
Wire Wire Line
	5025 2200 5025 2650
Connection ~ 4675 2650
$Comp
L power:GND #PWR08
U 1 1 5DC10048
P 3025 2425
F 0 "#PWR08" H 3025 2175 50  0001 C CNN
F 1 "GND" H 3030 2252 50  0000 C CNN
F 2 "" H 3025 2425 50  0001 C CNN
F 3 "" H 3025 2425 50  0001 C CNN
	1    3025 2425
	1    0    0    -1  
$EndComp
Wire Wire Line
	3025 2350 3025 2425
Connection ~ 3025 2350
Wire Wire Line
	3325 2250 3325 2650
Connection ~ 3325 2650
Wire Wire Line
	3325 2650 4500 2650
Wire Wire Line
	4425 1625 4500 1625
Wire Wire Line
	4500 1625 4500 2650
$Comp
L Device:Q_NMOS_DGS Q4
U 1 1 5DC2FAB3
P 4500 4800
F 0 "Q4" V 4751 4800 50  0000 C CNN
F 1 "R6047ENZ1C9 " V 4825 4775 50  0000 C CNN
F 2 "Package_TO_SOT_THT:TO-247-3_Vertical" H 4700 4900 50  0001 C CNN
F 3 "~" H 4500 4800 50  0001 C CNN
	1    4500 4800
	0    -1   -1   0   
$EndComp
Wire Wire Line
	4700 4700 4800 4700
Wire Wire Line
	4550 5475 4500 5475
Text Notes 675  4400 0    150  ~ 0
Kortluitbeveiliging
Text Notes 700  850  0    150  ~ 0
Batterij beveiliging
Text Notes 6000 900  0    150  ~ 0
I/O\n
Text GLabel 4550 5475 2    50   Input ~ 0
ALERT
$Comp
L power:+3V3 #PWR010
U 1 1 5DC9F971
P 3900 5150
F 0 "#PWR010" H 3900 5000 50  0001 C CNN
F 1 "+3V3" H 3915 5323 50  0000 C CNN
F 2 "" H 3900 5150 50  0001 C CNN
F 3 "" H 3900 5150 50  0001 C CNN
	1    3900 5150
	1    0    0    -1  
$EndComp
Wire Wire Line
	3900 5150 3900 5250
$Comp
L Regulator_Linear:SPX3819M5-L-5-0 U1
U 1 1 5DBFDFB1
P 1525 3500
F 0 "U1" H 1500 3875 50  0000 C CNN
F 1 "SPX3819M5-L-5-0" H 1525 3800 50  0000 C CNN
F 2 "Package_TO_SOT_SMD:SOT-23-5" H 1525 3825 50  0001 C CNN
F 3 "https://www.exar.com/content/document.ashx?id=22106&languageid=1033&type=Datasheet&partnumber=SPX3819&filename=SPX3819.pdf&part=SPX3819" H 1525 3500 50  0001 C CNN
	1    1525 3500
	1    0    0    -1  
$EndComp
$Comp
L power:VCC #PWR01
U 1 1 5DC016B0
P 775 3350
F 0 "#PWR01" H 775 3200 50  0001 C CNN
F 1 "VCC" H 792 3523 50  0000 C CNN
F 2 "" H 775 3350 50  0001 C CNN
F 3 "" H 775 3350 50  0001 C CNN
	1    775  3350
	1    0    0    -1  
$EndComp
Wire Wire Line
	1225 3400 1125 3400
Wire Wire Line
	1225 3500 1125 3500
Connection ~ 1125 3400
$Comp
L Device:C C2
U 1 1 5DC0A80A
P 2275 3725
F 0 "C2" H 2390 3771 50  0000 L CNN
F 1 "100n" H 2390 3680 50  0000 L CNN
F 2 "Capacitor_SMD:C_0603_REFLOW" H 2313 3575 50  0001 C CNN
F 3 "~" H 2275 3725 50  0001 C CNN
	1    2275 3725
	1    0    0    -1  
$EndComp
$Comp
L power:GND #PWR02
U 1 1 5DC0FE5C
P 1725 3950
F 0 "#PWR02" H 1725 3700 50  0001 C CNN
F 1 "GND" H 1730 3777 50  0000 C CNN
F 2 "" H 1725 3950 50  0001 C CNN
F 3 "" H 1725 3950 50  0001 C CNN
	1    1725 3950
	1    0    0    -1  
$EndComp
Wire Wire Line
	2275 3875 2275 3950
Wire Wire Line
	1525 3800 1525 3950
Wire Wire Line
	1525 3950 1725 3950
$Comp
L power:+5V #PWR06
U 1 1 5DC179BE
P 2650 3250
F 0 "#PWR06" H 2650 3100 50  0001 C CNN
F 1 "+5V" H 2665 3423 50  0000 C CNN
F 2 "" H 2650 3250 50  0001 C CNN
F 3 "" H 2650 3250 50  0001 C CNN
	1    2650 3250
	1    0    0    -1  
$EndComp
Wire Wire Line
	2650 3400 2300 3400
$Comp
L Device:C C3
U 1 1 5DC211F2
P 2650 3725
F 0 "C3" H 2765 3771 50  0000 L CNN
F 1 "1u" H 2765 3680 50  0000 L CNN
F 2 "Capacitor_SMD:C_0603_REFLOW" H 2688 3575 50  0001 C CNN
F 3 "~" H 2650 3725 50  0001 C CNN
	1    2650 3725
	1    0    0    -1  
$EndComp
Wire Wire Line
	2275 3950 2650 3950
Wire Wire Line
	2650 3950 2650 3875
Connection ~ 2275 3950
Wire Wire Line
	2650 3575 2650 3400
Connection ~ 2650 3400
$Comp
L power:VCC #PWR09
U 1 1 5DC30061
P 3425 3350
F 0 "#PWR09" H 3425 3200 50  0001 C CNN
F 1 "VCC" H 3442 3523 50  0000 C CNN
F 2 "" H 3425 3350 50  0001 C CNN
F 3 "" H 3425 3350 50  0001 C CNN
	1    3425 3350
	1    0    0    -1  
$EndComp
Wire Wire Line
	3850 3400 3750 3400
Wire Wire Line
	3850 3500 3750 3500
Connection ~ 3750 3400
$Comp
L Device:C C7
U 1 1 5DC3006C
P 4925 3725
F 0 "C7" H 5040 3771 50  0000 L CNN
F 1 "100n" H 5040 3680 50  0000 L CNN
F 2 "Capacitor_SMD:C_0603_REFLOW" H 4963 3575 50  0001 C CNN
F 3 "~" H 4925 3725 50  0001 C CNN
	1    4925 3725
	1    0    0    -1  
$EndComp
$Comp
L power:GND #PWR012
U 1 1 5DC30074
P 4350 3950
F 0 "#PWR012" H 4350 3700 50  0001 C CNN
F 1 "GND" H 4355 3777 50  0000 C CNN
F 2 "" H 4350 3950 50  0001 C CNN
F 3 "" H 4350 3950 50  0001 C CNN
	1    4350 3950
	1    0    0    -1  
$EndComp
Wire Wire Line
	4925 3875 4925 3950
Wire Wire Line
	4150 3800 4150 3950
Wire Wire Line
	4150 3950 4350 3950
$Comp
L Device:C C9
U 1 1 5DC30086
P 5300 3725
F 0 "C9" H 5415 3771 50  0000 L CNN
F 1 "1u" H 5415 3680 50  0000 L CNN
F 2 "Capacitor_SMD:C_0603_REFLOW" H 5338 3575 50  0001 C CNN
F 3 "~" H 5300 3725 50  0001 C CNN
	1    5300 3725
	1    0    0    -1  
$EndComp
Wire Wire Line
	4925 3950 5300 3950
Wire Wire Line
	5300 3950 5300 3875
Connection ~ 4925 3950
Wire Wire Line
	5300 3575 5300 3400
$Comp
L Regulator_Linear:SPX3819M5-L-3-3 U2
U 1 1 5DBFF03C
P 4150 3500
F 0 "U2" H 4150 3900 50  0000 C CNN
F 1 "SPX3819M5-L-3-3" H 4150 3825 50  0000 C CNN
F 2 "Package_TO_SOT_SMD:SOT-23-5" H 4150 3825 50  0001 C CNN
F 3 "https://www.exar.com/content/document.ashx?id=22106&languageid=1033&type=Datasheet&partnumber=SPX3819&filename=SPX3819.pdf&part=SPX3819" H 4150 3500 50  0001 C CNN
	1    4150 3500
	1    0    0    -1  
$EndComp
$Comp
L power:+3V3 #PWR014
U 1 1 5DC42473
P 5300 3275
F 0 "#PWR014" H 5300 3125 50  0001 C CNN
F 1 "+3V3" H 5325 3425 50  0000 C CNN
F 2 "" H 5300 3275 50  0001 C CNN
F 3 "" H 5300 3275 50  0001 C CNN
	1    5300 3275
	1    0    0    -1  
$EndComp
Connection ~ 5300 3400
$Comp
L power:+3V3 #PWR04
U 1 1 5DC50B4A
P 1950 5300
F 0 "#PWR04" H 1950 5150 50  0001 C CNN
F 1 "+3V3" H 1965 5473 50  0000 C CNN
F 2 "" H 1950 5300 50  0001 C CNN
F 3 "" H 1950 5300 50  0001 C CNN
	1    1950 5300
	1    0    0    -1  
$EndComp
Wire Wire Line
	2075 5650 1950 5650
Wire Wire Line
	1950 5650 1950 5625
Text Notes 675  3025 0    150  ~ 0
Spanningsregelaar 5V en 3V3\n
$Comp
L Connector:Screw_Terminal_01x03 J1
U 1 1 5DC0ED1E
P 775 1625
F 0 "J1" H 775 1400 50  0000 C CNN
F 1 "Screw_Terminal_01x03" V 875 1625 50  0000 C CNN
F 2 "TerminalBlock:TerminalBlock_bornier-3_P5.08mm" H 775 1625 50  0001 C CNN
F 3 "~" H 775 1625 50  0001 C CNN
	1    775  1625
	-1   0    0    1   
$EndComp
Wire Wire Line
	975  1625 1350 1625
Wire Wire Line
	1350 1625 1350 1000
Wire Wire Line
	1350 1000 5025 1000
Wire Wire Line
	975  1725 1150 1725
Wire Wire Line
	1150 1725 1150 2350
Wire Wire Line
	975  1525 1150 1525
Wire Wire Line
	1150 1525 1150 1350
Text Label 975  1525 0    50   ~ 0
LiPO+
Text Label 975  1625 0    50   ~ 0
LiPO_mid
Text Label 975  1725 0    50   ~ 0
LiPO-
Wire Wire Line
	1150 1350 1425 1350
Wire Wire Line
	1650 1650 1650 1725
Connection ~ 1650 2350
Wire Wire Line
	1650 2350 1850 2350
Wire Wire Line
	2500 2350 2450 2350
Wire Wire Line
	1150 2350 1650 2350
$Comp
L Connector:TestPoint TP19
U 1 1 5DCD2388
P 4900 1825
F 0 "TP19" H 4700 1900 50  0000 L CNN
F 1 "TestPoint" H 4150 2275 50  0000 L CNN
F 2 "TestPoint:TestPoint_Pad_D2.0mm_(pogo)" H 5100 1825 50  0001 C CNN
F 3 "~" H 5100 1825 50  0001 C CNN
	1    4900 1825
	1    0    0    -1  
$EndComp
Connection ~ 4900 1825
Wire Wire Line
	4900 1825 5025 1825
$Comp
L Connector:TestPoint TP17
U 1 1 5DCDBA84
P 4575 1725
F 0 "TP17" H 4500 1950 50  0000 L CNN
F 1 "TestPoint" H 4150 2075 50  0000 L CNN
F 2 "TestPoint:TestPoint_Pad_D2.0mm_(pogo)" H 4775 1725 50  0001 C CNN
F 3 "~" H 4775 1725 50  0001 C CNN
	1    4575 1725
	1    0    0    -1  
$EndComp
Connection ~ 4575 1725
Wire Wire Line
	4575 1725 4675 1725
$Comp
L Connector:TestPoint TP12
U 1 1 5DCDC175
P 3275 1625
F 0 "TP12" H 3050 1750 50  0000 L CNN
F 1 "TestPoint" H 4150 1875 50  0000 L CNN
F 2 "TestPoint:TestPoint_Pad_D2.0mm_(pogo)" H 3475 1625 50  0001 C CNN
F 3 "~" H 3475 1625 50  0001 C CNN
	1    3275 1625
	1    0    0    -1  
$EndComp
Connection ~ 3275 1625
Wire Wire Line
	3275 1625 3325 1625
$Comp
L Connector:TestPoint TP11
U 1 1 5DCDC390
P 3150 1725
F 0 "TP11" H 2925 1875 50  0000 L CNN
F 1 "TestPoint" H 4150 2075 50  0000 L CNN
F 2 "TestPoint:TestPoint_Pad_D2.0mm_(pogo)" H 3350 1725 50  0001 C CNN
F 3 "~" H 3350 1725 50  0001 C CNN
	1    3150 1725
	1    0    0    -1  
$EndComp
$Comp
L Connector:TestPoint TP10
U 1 1 5DCDC626
P 3025 1825
F 0 "TP10" H 2800 1975 50  0000 L CNN
F 1 "TestPoint" H 4150 2275 50  0000 L CNN
F 2 "TestPoint:TestPoint_Pad_D2.0mm_(pogo)" H 3225 1825 50  0001 C CNN
F 3 "~" H 3225 1825 50  0001 C CNN
	1    3025 1825
	1    0    0    -1  
$EndComp
$Comp
L Connector:TestPoint TP8
U 1 1 5DCDC893
P 2450 2350
F 0 "TP8" H 2400 2550 50  0000 L CNN
F 1 "TestPoint" H 2300 2225 50  0000 L CNN
F 2 "TestPoint:TestPoint_Pad_D2.0mm_(pogo)" H 2650 2350 50  0001 C CNN
F 3 "~" H 2650 2350 50  0001 C CNN
	1    2450 2350
	1    0    0    -1  
$EndComp
Connection ~ 2450 2350
Wire Wire Line
	2450 2350 2375 2350
$Comp
L Connector:TestPoint TP9
U 1 1 5DCDCC0B
P 2950 2350
F 0 "TP9" H 2800 2550 50  0000 L CNN
F 1 "TestPoint" H 3050 2350 50  0000 L CNN
F 2 "TestPoint:TestPoint_Pad_D2.0mm_(pogo)" H 3150 2350 50  0001 C CNN
F 3 "~" H 3150 2350 50  0001 C CNN
	1    2950 2350
	1    0    0    -1  
$EndComp
Connection ~ 2950 2350
Wire Wire Line
	2950 2350 3025 2350
$Comp
L Connector:TestPoint TP3
U 1 1 5DCDD0ED
P 1850 2350
F 0 "TP3" H 1908 2468 50  0000 L CNN
F 1 "TestPoint" H 1550 2275 50  0000 L CNN
F 2 "TestPoint:TestPoint_Pad_D2.0mm_(pogo)" H 2050 2350 50  0001 C CNN
F 3 "~" H 2050 2350 50  0001 C CNN
	1    1850 2350
	1    0    0    -1  
$EndComp
Connection ~ 1850 2350
Wire Wire Line
	1850 2350 1950 2350
$Comp
L Connector:TestPoint TP4
U 1 1 5DCDD3E0
P 2050 1300
F 0 "TP4" H 2000 1500 50  0000 L CNN
F 1 "TestPoint" H 2125 1425 50  0000 L CNN
F 2 "TestPoint:TestPoint_Pad_D2.0mm_(pogo)" H 2250 1300 50  0001 C CNN
F 3 "~" H 2250 1300 50  0001 C CNN
	1    2050 1300
	1    0    0    -1  
$EndComp
$Comp
L Connector:TestPoint TP2
U 1 1 5DCDD6FA
P 1425 1350
F 0 "TP2" H 1375 1550 50  0000 L CNN
F 1 "TestPoint" H 975 1475 50  0000 L CNN
F 2 "TestPoint:TestPoint_Pad_D2.0mm_(pogo)" H 1625 1350 50  0001 C CNN
F 3 "~" H 1625 1350 50  0001 C CNN
	1    1425 1350
	1    0    0    -1  
$EndComp
Connection ~ 1425 1350
Wire Wire Line
	1425 1350 1450 1350
$Comp
L Connector:TestPoint TP1
U 1 1 5DCDDAB4
P 1125 3400
F 0 "TP1" H 1175 3525 50  0000 L CNN
F 1 "TestPoint" H 725 3700 50  0000 L CNN
F 2 "TestPoint:TestPoint_Pad_D2.0mm_(pogo)" H 1325 3400 50  0001 C CNN
F 3 "~" H 1325 3400 50  0001 C CNN
	1    1125 3400
	1    0    0    -1  
$EndComp
$Comp
L Connector:TestPoint TP6
U 1 1 5DCDE3E5
P 2300 3325
F 0 "TP6" H 2250 3525 50  0000 L CNN
F 1 "TestPoint" H 2300 3400 50  0000 L CNN
F 2 "TestPoint:TestPoint_Pad_D2.0mm_(pogo)" H 2500 3325 50  0001 C CNN
F 3 "~" H 2500 3325 50  0001 C CNN
	1    2300 3325
	1    0    0    -1  
$EndComp
Connection ~ 2300 3400
$Comp
L Connector:TestPoint TP7
U 1 1 5DCDE6DD
P 2350 3625
F 0 "TP7" H 2408 3743 50  0000 L CNN
F 1 "TestPoint" H 2375 3675 50  0000 L CNN
F 2 "TestPoint:TestPoint_Pad_D2.0mm_(pogo)" H 2550 3625 50  0001 C CNN
F 3 "~" H 2550 3625 50  0001 C CNN
	1    2350 3625
	1    0    0    -1  
$EndComp
Wire Wire Line
	2350 3625 2275 3625
Wire Wire Line
	2275 3500 2275 3575
Connection ~ 2275 3575
Wire Wire Line
	2275 3575 2275 3625
$Comp
L Connector:TestPoint TP14
U 1 1 5DCE4EE5
P 3750 3400
F 0 "TP14" H 3800 3525 50  0000 L CNN
F 1 "TestPoint" H 3375 3700 50  0000 L CNN
F 2 "TestPoint:TestPoint_Pad_D2.0mm_(pogo)" H 3950 3400 50  0001 C CNN
F 3 "~" H 3950 3400 50  0001 C CNN
	1    3750 3400
	1    0    0    -1  
$EndComp
$Comp
L Connector:TestPoint TP20
U 1 1 5DCE5255
P 4950 3325
F 0 "TP20" H 4900 3525 50  0000 L CNN
F 1 "TestPoint" H 4800 3600 50  0000 L CNN
F 2 "TestPoint:TestPoint_Pad_D2.0mm_(pogo)" H 5150 3325 50  0001 C CNN
F 3 "~" H 5150 3325 50  0001 C CNN
	1    4950 3325
	1    0    0    -1  
$EndComp
$Comp
L Connector:TestPoint TP21
U 1 1 5DCE54C7
P 5025 3600
F 0 "TP21" H 5083 3718 50  0000 L CNN
F 1 "TestPoint" H 5025 3625 50  0000 L CNN
F 2 "TestPoint:TestPoint_Pad_D2.0mm_(pogo)" H 5225 3600 50  0001 C CNN
F 3 "~" H 5225 3600 50  0001 C CNN
	1    5025 3600
	1    0    0    -1  
$EndComp
Wire Wire Line
	5025 3625 4925 3625
Wire Wire Line
	4925 3500 4925 3575
Connection ~ 4925 3575
Wire Wire Line
	4925 3575 4925 3625
$Comp
L Connector:TestPoint TP18
U 1 1 5DCEBA70
P 4800 4700
F 0 "TP18" H 4800 4925 50  0000 L CNN
F 1 "TestPoint" H 4850 4825 50  0000 L CNN
F 2 "TestPoint:TestPoint_Pad_D2.0mm_(pogo)" H 5000 4700 50  0001 C CNN
F 3 "~" H 5000 4700 50  0001 C CNN
	1    4800 4700
	1    0    0    -1  
$EndComp
Connection ~ 4800 4700
Wire Wire Line
	4800 4700 4975 4700
$Comp
L Connector:TestPoint TP16
U 1 1 5DCECD0A
P 4300 5425
F 0 "TP16" H 4200 5625 50  0000 L CNN
F 1 "TestPoint" H 4075 5700 50  0000 L CNN
F 2 "TestPoint:TestPoint_Pad_D2.0mm_(pogo)" H 4500 5425 50  0001 C CNN
F 3 "~" H 4500 5425 50  0001 C CNN
	1    4300 5425
	1    0    0    -1  
$EndComp
Connection ~ 4500 5475
$Comp
L Connector:TestPoint TP13
U 1 1 5DCF360C
P 3650 5650
F 0 "TP13" H 3575 5850 50  0000 L CNN
F 1 "TestPoint" H 3500 5925 50  0000 L CNN
F 2 "TestPoint:TestPoint_Pad_D2.0mm_(pogo)" H 3850 5650 50  0001 C CNN
F 3 "~" H 3850 5650 50  0001 C CNN
	1    3650 5650
	1    0    0    -1  
$EndComp
$Comp
L Connector:TestPoint TP15
U 1 1 5DCF3E28
P 4000 5850
F 0 "TP15" H 4058 5968 50  0000 L CNN
F 1 "TestPoint" H 4058 5877 50  0000 L CNN
F 2 "TestPoint:TestPoint_Pad_D2.0mm_(pogo)" H 4200 5850 50  0001 C CNN
F 3 "~" H 4200 5850 50  0001 C CNN
	1    4000 5850
	1    0    0    -1  
$EndComp
Wire Wire Line
	3900 5850 4000 5850
$Comp
L Connector:TestPoint TP5
U 1 1 5DD019D0
P 2225 5150
F 0 "TP5" H 2283 5268 50  0000 L CNN
F 1 "TestPoint" H 2283 5177 50  0000 L CNN
F 2 "TestPoint:TestPoint_Pad_D2.0mm_(pogo)" H 2425 5150 50  0001 C CNN
F 3 "~" H 2425 5150 50  0001 C CNN
	1    2225 5150
	1    0    0    -1  
$EndComp
Connection ~ 2225 5150
Wire Wire Line
	2225 5150 2075 5150
Wire Wire Line
	2050 1300 2050 1350
Wire Wire Line
	1850 1350 2050 1350
Connection ~ 2050 1350
Wire Wire Line
	2050 1350 4675 1350
Connection ~ 3025 1825
Connection ~ 3150 1725
Wire Wire Line
	3150 1725 3325 1725
Wire Wire Line
	2700 1725 3150 1725
Connection ~ 4500 2650
Wire Wire Line
	3025 1825 3325 1825
Wire Wire Line
	4500 2650 4675 2650
Wire Wire Line
	5025 3600 5025 3625
Connection ~ 3650 5650
Wire Wire Line
	3650 5650 3825 5650
Wire Wire Line
	2075 5750 2000 5750
Text GLabel 1225 5850 0    50   Input ~ 0
RESET
$Comp
L Device:R R10
U 1 1 5DD8790E
P 2450 1625
F 0 "R10" V 2525 1625 50  0000 C CNN
F 1 "0" V 2450 1625 50  0000 C CNN
F 2 "Resistor_SMD:R_0603_REFLOW" V 2380 1625 50  0001 C CNN
F 3 "~" H 2450 1625 50  0001 C CNN
	1    2450 1625
	0    -1   -1   0   
$EndComp
Wire Wire Line
	2600 1625 3275 1625
$Comp
L Device:R R11
U 1 1 5DD8B096
P 2700 1925
F 0 "R11" V 2625 1950 50  0000 C CNN
F 1 "0" V 2700 1925 50  0000 C CNN
F 2 "Resistor_SMD:R_0603_REFLOW" V 2630 1925 50  0001 C CNN
F 3 "~" H 2700 1925 50  0001 C CNN
	1    2700 1925
	1    0    0    -1  
$EndComp
Wire Wire Line
	2700 2050 2700 2075
$Comp
L Device:R R4
U 1 1 5DD926DB
P 1650 1875
F 0 "R4" V 1575 1900 50  0000 C CNN
F 1 "0" V 1650 1875 50  0000 C CNN
F 2 "Resistor_SMD:R_0603_REFLOW" V 1580 1875 50  0001 C CNN
F 3 "~" H 1650 1875 50  0001 C CNN
	1    1650 1875
	1    0    0    -1  
$EndComp
Wire Wire Line
	1650 2025 1650 2350
$Comp
L Device:R R1
U 1 1 5DD92B8B
P 975 3500
F 0 "R1" V 900 3525 50  0000 C CNN
F 1 "0" V 975 3500 50  0000 C CNN
F 2 "Resistor_SMD:R_0603_REFLOW" V 905 3500 50  0001 C CNN
F 3 "~" H 975 3500 50  0001 C CNN
	1    975  3500
	0    -1   -1   0   
$EndComp
Wire Wire Line
	825  3500 775  3500
Wire Wire Line
	775  3500 775  3400
Wire Wire Line
	775  3400 1125 3400
Connection ~ 775  3400
$Comp
L Device:R R15
U 1 1 5DDA279B
P 3600 3500
F 0 "R15" V 3525 3525 50  0000 C CNN
F 1 "0" V 3600 3500 50  0000 C CNN
F 2 "Resistor_SMD:R_0603_REFLOW" V 3530 3500 50  0001 C CNN
F 3 "~" H 3600 3500 50  0001 C CNN
	1    3600 3500
	0    -1   -1   0   
$EndComp
Wire Wire Line
	3450 3500 3425 3500
Wire Wire Line
	3425 3500 3425 3400
Wire Wire Line
	3425 3400 3750 3400
Connection ~ 3425 3400
Wire Wire Line
	1825 3400 2300 3400
Wire Wire Line
	1825 3500 1900 3500
Wire Wire Line
	1725 3950 2275 3950
Connection ~ 1725 3950
$Comp
L Device:R R8
U 1 1 5DDF340E
P 2050 3500
F 0 "R8" V 1975 3525 50  0000 C CNN
F 1 "DNP" V 2050 3500 50  0000 C CNN
F 2 "Resistor_SMD:R_0603_REFLOW" V 1980 3500 50  0001 C CNN
F 3 "~" H 2050 3500 50  0001 C CNN
	1    2050 3500
	0    -1   -1   0   
$EndComp
Wire Wire Line
	2200 3500 2275 3500
Wire Wire Line
	4450 3500 4550 3500
Wire Wire Line
	4350 3950 4925 3950
Connection ~ 4350 3950
$Comp
L Device:R R21
U 1 1 5DE1D36B
P 4700 3500
F 0 "R21" V 4625 3525 50  0000 C CNN
F 1 "DNP" V 4700 3500 50  0000 C CNN
F 2 "Resistor_SMD:R_0603_REFLOW" V 4630 3500 50  0001 C CNN
F 3 "~" H 4700 3500 50  0001 C CNN
	1    4700 3500
	0    -1   -1   0   
$EndComp
Wire Wire Line
	4850 3500 4925 3500
Text GLabel 4125 5650 2    50   Input ~ 0
ADC
Wire Wire Line
	4125 5650 3825 5650
Connection ~ 3825 5650
Wire Wire Line
	3475 4700 4300 4700
Wire Wire Line
	4500 5000 4500 5075
$Comp
L Device:R R19
U 1 1 5DE4CA0A
P 4500 5225
F 0 "R19" H 4400 5175 50  0000 C CNN
F 1 "0" H 4500 5225 50  0000 C CNN
F 2 "Resistor_SMD:R_0603_REFLOW" V 4430 5225 50  0001 C CNN
F 3 "~" H 4500 5225 50  0001 C CNN
	1    4500 5225
	-1   0    0    1   
$EndComp
Wire Wire Line
	4500 5375 4500 5475
Wire Wire Line
	4300 5475 4300 5425
Wire Wire Line
	4300 5475 4500 5475
Wire Wire Line
	1225 5850 1275 5850
$Comp
L Device:R R2
U 1 1 5DE6C48B
P 1275 5250
F 0 "R2" H 1175 5250 50  0000 C CNN
F 1 "DNP" V 1275 5250 50  0000 C CNN
F 2 "Resistor_SMD:R_0603_REFLOW" V 1205 5250 50  0001 C CNN
F 3 "~" H 1275 5250 50  0001 C CNN
	1    1275 5250
	1    0    0    -1  
$EndComp
Wire Wire Line
	1450 5400 1450 5750
Connection ~ 1450 5750
Wire Wire Line
	1450 5750 1225 5750
Wire Wire Line
	1450 5100 1450 4700
Wire Wire Line
	1275 5100 1275 4700
Wire Wire Line
	1275 4700 1450 4700
Connection ~ 1450 4700
Wire Wire Line
	1275 5400 1275 5850
Connection ~ 1275 5850
Wire Wire Line
	1275 5850 1700 5850
Wire Wire Line
	1450 5750 1700 5750
Wire Wire Line
	1775 5100 1775 5150
Wire Wire Line
	1450 4700 1775 4700
Wire Wire Line
	1775 4800 1775 4700
Connection ~ 1775 4700
Wire Wire Line
	1775 4700 2075 4700
$Comp
L Device:R R7
U 1 1 5DE9DAA3
P 1950 5475
F 0 "R7" H 2050 5475 50  0000 C CNN
F 1 "0" H 1950 5475 50  0000 C CNN
F 2 "Resistor_SMD:R_0603_REFLOW" V 1880 5475 50  0001 C CNN
F 3 "~" H 1950 5475 50  0001 C CNN
	1    1950 5475
	-1   0    0    1   
$EndComp
Wire Wire Line
	1950 5325 1950 5300
Wire Wire Line
	2650 3250 2650 3400
Wire Wire Line
	5300 3275 5300 3400
Wire Wire Line
	4450 3400 4950 3400
Wire Wire Line
	4950 3325 4950 3400
Connection ~ 4950 3400
Wire Wire Line
	4950 3400 5300 3400
Wire Wire Line
	2300 3325 2300 3400
Wire Wire Line
	775  3350 775  3400
Wire Wire Line
	3425 3350 3425 3400
$Comp
L Device:R R6
U 1 1 5DF06AE1
P 1850 5850
F 0 "R6" V 1750 5875 50  0000 C CNN
F 1 "0" V 1850 5850 50  0000 C CNN
F 2 "Resistor_SMD:R_0603_REFLOW" V 1780 5850 50  0001 C CNN
F 3 "~" H 1850 5850 50  0001 C CNN
	1    1850 5850
	0    -1   -1   0   
$EndComp
Wire Wire Line
	2000 5850 2075 5850
$Comp
L Device:R R5
U 1 1 5DD27992
P 1850 5750
F 0 "R5" V 1925 5775 50  0000 C CNN
F 1 "0" V 1850 5750 50  0000 C CNN
F 2 "Resistor_SMD:R_0603_REFLOW" V 1780 5750 50  0001 C CNN
F 3 "~" H 1850 5750 50  0001 C CNN
	1    1850 5750
	0    -1   -1   0   
$EndComp
$Comp
L Device:LED D3
U 1 1 5DF26A53
P 6900 5375
F 0 "D3" V 6939 5258 50  0000 R CNN
F 1 "LED" V 6848 5258 50  0000 R CNN
F 2 "LED_SMD:LED_0805_2012Metric" H 6900 5375 50  0001 C CNN
F 3 "~" H 6900 5375 50  0001 C CNN
	1    6900 5375
	0    -1   -1   0   
$EndComp
$Comp
L power:GND #PWR021
U 1 1 5DF2862D
P 6900 5575
F 0 "#PWR021" H 6900 5325 50  0001 C CNN
F 1 "GND" H 6905 5402 50  0000 C CNN
F 2 "" H 6900 5575 50  0001 C CNN
F 3 "" H 6900 5575 50  0001 C CNN
	1    6900 5575
	1    0    0    -1  
$EndComp
Wire Wire Line
	6900 5525 6900 5575
$Comp
L Device:LED D1
U 1 1 5DF6AFE1
P 6150 5375
F 0 "D1" V 6189 5258 50  0000 R CNN
F 1 "LED" V 6098 5258 50  0000 R CNN
F 2 "LED_SMD:LED_0805_2012Metric" H 6150 5375 50  0001 C CNN
F 3 "~" H 6150 5375 50  0001 C CNN
	1    6150 5375
	0    -1   -1   0   
$EndComp
Wire Notes Line
	625  2750 5875 2750
$Comp
L Device:R R23
U 1 1 5DFCDE33
P 6150 5050
F 0 "R23" V 6075 5075 50  0000 C CNN
F 1 "2k2" V 6150 5050 50  0000 C CNN
F 2 "Resistor_SMD:R_0603_REFLOW" V 6080 5050 50  0001 C CNN
F 3 "~" H 6150 5050 50  0001 C CNN
	1    6150 5050
	1    0    0    -1  
$EndComp
$Comp
L power:+3V3 #PWR015
U 1 1 5DFD8FDF
P 6150 4875
F 0 "#PWR015" H 6150 4725 50  0001 C CNN
F 1 "+3V3" H 6175 5025 50  0000 C CNN
F 2 "" H 6150 4875 50  0001 C CNN
F 3 "" H 6150 4875 50  0001 C CNN
	1    6150 4875
	1    0    0    -1  
$EndComp
$Comp
L power:GND #PWR016
U 1 1 5DFD937F
P 6150 5575
F 0 "#PWR016" H 6150 5325 50  0001 C CNN
F 1 "GND" H 6155 5402 50  0000 C CNN
F 2 "" H 6150 5575 50  0001 C CNN
F 3 "" H 6150 5575 50  0001 C CNN
	1    6150 5575
	1    0    0    -1  
$EndComp
Wire Wire Line
	6150 5525 6150 5575
$Comp
L Device:LED D2
U 1 1 5E00FFC9
P 6525 5375
F 0 "D2" V 6564 5258 50  0000 R CNN
F 1 "LED" V 6473 5258 50  0000 R CNN
F 2 "LED_SMD:LED_0805_2012Metric" H 6525 5375 50  0001 C CNN
F 3 "~" H 6525 5375 50  0001 C CNN
	1    6525 5375
	0    -1   -1   0   
$EndComp
$Comp
L Device:R R24
U 1 1 5E00FFCF
P 6525 5050
F 0 "R24" V 6450 5075 50  0000 C CNN
F 1 "3k3" V 6525 5050 50  0000 C CNN
F 2 "Resistor_SMD:R_0603_REFLOW" V 6455 5050 50  0001 C CNN
F 3 "~" H 6525 5050 50  0001 C CNN
	1    6525 5050
	1    0    0    -1  
$EndComp
$Comp
L power:GND #PWR020
U 1 1 5E00FFDB
P 6525 5575
F 0 "#PWR020" H 6525 5325 50  0001 C CNN
F 1 "GND" H 6530 5402 50  0000 C CNN
F 2 "" H 6525 5575 50  0001 C CNN
F 3 "" H 6525 5575 50  0001 C CNN
	1    6525 5575
	1    0    0    -1  
$EndComp
Wire Wire Line
	6525 5525 6525 5575
$Comp
L power:+5V #PWR019
U 1 1 5E018D59
P 6525 4875
F 0 "#PWR019" H 6525 4725 50  0001 C CNN
F 1 "+5V" H 6540 5048 50  0000 C CNN
F 2 "" H 6525 4875 50  0001 C CNN
F 3 "" H 6525 4875 50  0001 C CNN
	1    6525 4875
	1    0    0    -1  
$EndComp
$Comp
L Connector_Generic:Conn_01x03 J2
U 1 1 5E08E268
P 7100 1150
F 0 "J2" H 7050 1350 50  0000 L CNN
F 1 "Conn_01x03" H 6700 950 50  0000 L CNN
F 2 "JST:JST_XH_B04B_3P" H 7100 1150 50  0001 C CNN
F 3 "~" H 7100 1150 50  0001 C CNN
	1    7100 1150
	1    0    0    -1  
$EndComp
$Comp
L Connector_Generic:Conn_01x03 J3
U 1 1 5E08E26E
P 7100 1625
F 0 "J3" H 7050 1825 50  0000 L CNN
F 1 "Conn_01x03" H 6725 1425 50  0000 L CNN
F 2 "JST:JST_XH_B04B_3P" H 7100 1625 50  0001 C CNN
F 3 "~" H 7100 1625 50  0001 C CNN
	1    7100 1625
	1    0    0    -1  
$EndComp
$Comp
L Connector_Generic:Conn_01x03 J6
U 1 1 5E097623
P 8925 1650
F 0 "J6" H 8875 1850 50  0000 L CNN
F 1 "Conn_01x03" H 8550 1450 50  0000 L CNN
F 2 "JST:JST_XH_B04B_3P" H 8925 1650 50  0001 C CNN
F 3 "~" H 8925 1650 50  0001 C CNN
	1    8925 1650
	1    0    0    -1  
$EndComp
$Comp
L power:GND #PWR017
U 1 1 5E0A00B4
P 6500 1250
F 0 "#PWR017" H 6500 1000 50  0001 C CNN
F 1 "GND" H 6505 1077 50  0000 C CNN
F 2 "" H 6500 1250 50  0001 C CNN
F 3 "" H 6500 1250 50  0001 C CNN
	1    6500 1250
	1    0    0    -1  
$EndComp
Text GLabel 6500 1150 0    50   Input ~ 0
ESC_VCC_L
Text GLabel 6500 1050 0    50   Input ~ 0
ESC_PWM_L
Wire Wire Line
	6900 1050 6500 1050
Wire Wire Line
	6900 1150 6500 1150
Wire Wire Line
	6500 1250 6900 1250
$Comp
L power:GND #PWR018
U 1 1 5E0BEDB2
P 6500 1725
F 0 "#PWR018" H 6500 1475 50  0001 C CNN
F 1 "GND" H 6505 1552 50  0000 C CNN
F 2 "" H 6500 1725 50  0001 C CNN
F 3 "" H 6500 1725 50  0001 C CNN
	1    6500 1725
	1    0    0    -1  
$EndComp
Text GLabel 6500 1625 0    50   Input ~ 0
ESC_VCC_R
Text GLabel 6500 1525 0    50   Input ~ 0
ESC_PWM_R
Wire Wire Line
	6900 1525 6500 1525
Wire Wire Line
	6900 1625 6500 1625
Wire Wire Line
	6500 1725 6900 1725
Text GLabel 8325 1550 0    50   Input ~ 0
SERVO_PWM
Wire Wire Line
	8725 1550 8325 1550
Text GLabel 7400 3675 2    50   Input ~ 0
ESC_VCC_L
Text GLabel 7400 4075 2    50   Input ~ 0
ESC_VCC_R
Text GLabel 8325 1650 0    50   Input ~ 0
SERVO_VCC
Wire Wire Line
	8725 1650 8325 1650
Text GLabel 6450 3875 0    50   Input ~ 0
SERVO_VCC
Wire Wire Line
	6850 3875 6450 3875
$Comp
L power:GND #PWR027
U 1 1 5E128913
P 8325 1750
F 0 "#PWR027" H 8325 1500 50  0001 C CNN
F 1 "GND" H 8330 1577 50  0000 C CNN
F 2 "" H 8325 1750 50  0001 C CNN
F 3 "" H 8325 1750 50  0001 C CNN
	1    8325 1750
	1    0    0    -1  
$EndComp
Wire Wire Line
	8325 1750 8725 1750
Wire Notes Line
	625  600  625  6750
$Comp
L Connector_Generic:Conn_01x03 J8
U 1 1 5DF234F0
P 8925 2700
F 0 "J8" H 8875 2900 50  0000 L CNN
F 1 "Conn_01x03" H 8550 2500 50  0000 L CNN
F 2 "JST:JST_XH_B04B_3P" H 8925 2700 50  0001 C CNN
F 3 "~" H 8925 2700 50  0001 C CNN
	1    8925 2700
	1    0    0    -1  
$EndComp
$Comp
L Connector_Generic:Conn_01x03 J7
U 1 1 5DF22198
P 8925 2225
F 0 "J7" H 8875 2425 50  0000 L CNN
F 1 "Conn_01x03" H 8525 2025 50  0000 L CNN
F 2 "JST:JST_XH_B04B_3P" H 8925 2225 50  0001 C CNN
F 3 "~" H 8925 2225 50  0001 C CNN
	1    8925 2225
	1    0    0    -1  
$EndComp
Wire Wire Line
	8725 2325 8500 2325
Text GLabel 8500 2325 0    50   Input ~ 0
ADC
Text GLabel 8575 2225 0    50   Input ~ 0
RESET
Text GLabel 8575 2125 0    50   Input ~ 0
ALERT
Wire Wire Line
	8725 2225 8575 2225
Wire Wire Line
	8575 2125 8725 2125
Text Label 7000 2200 0    50   ~ 0
ESC1
Wire Wire Line
	8575 2700 8725 2700
Wire Wire Line
	8725 2800 8575 2800
Wire Wire Line
	8725 2600 8575 2600
$Comp
L power:+5V #PWR028
U 1 1 5DD22C3A
P 8575 2600
F 0 "#PWR028" H 8575 2450 50  0001 C CNN
F 1 "+5V" V 8575 2800 50  0000 C CNN
F 2 "" H 8575 2600 50  0001 C CNN
F 3 "" H 8575 2600 50  0001 C CNN
	1    8575 2600
	0    -1   -1   0   
$EndComp
$Comp
L power:+3V3 #PWR029
U 1 1 5DC5760A
P 8575 2700
F 0 "#PWR029" H 8575 2550 50  0001 C CNN
F 1 "+3V3" V 8575 2925 50  0000 C CNN
F 2 "" H 8575 2700 50  0001 C CNN
F 3 "" H 8575 2700 50  0001 C CNN
	1    8575 2700
	0    -1   -1   0   
$EndComp
$Comp
L power:GND #PWR030
U 1 1 5DC580BD
P 8575 2800
F 0 "#PWR030" H 8575 2550 50  0001 C CNN
F 1 "GND" V 8575 2600 50  0000 C CNN
F 2 "" H 8575 2800 50  0001 C CNN
F 3 "" H 8575 2800 50  0001 C CNN
	1    8575 2800
	0    1    1    0   
$EndComp
$Comp
L power:GND #PWR022
U 1 1 5DBF8ED6
P 7100 2825
F 0 "#PWR022" H 7100 2575 50  0001 C CNN
F 1 "GND" H 7105 2652 50  0000 C CNN
F 2 "" H 7100 2825 50  0001 C CNN
F 3 "" H 7100 2825 50  0001 C CNN
	1    7100 2825
	1    0    0    -1  
$EndComp
$Comp
L Connector:Screw_Terminal_01x06 J4
U 1 1 5DBF657C
P 7400 2400
F 0 "J4" H 7350 2700 50  0000 L CNN
F 1 "Screw_Terminal_01x06" V 7525 1850 50  0000 L CNN
F 2 "TerminalBlock:TerminalBlock_bornier-6_P5.08mm" H 7400 2400 50  0001 C CNN
F 3 "~" H 7400 2400 50  0001 C CNN
	1    7400 2400
	1    0    0    -1  
$EndComp
Text GLabel 6225 2200 0    50   Input ~ 0
VBAT
Wire Notes Line
	5875 600  5875 6750
Wire Notes Line
	9150 3225 5875 3225
Wire Notes Line
	625  600  9150 600 
Text Notes 5925 3475 0    150  ~ 0
Vcc Servo Selectie\n
Text GLabel 6900 4875 1    50   Input ~ 0
ALERT
Wire Wire Line
	7000 3675 7400 3675
Wire Wire Line
	7000 4075 7400 4075
Text GLabel 7250 4875 1    50   Input ~ 0
ESC_VCC_L
Text GLabel 7600 4850 1    50   Input ~ 0
ESC_VCC_R
$Comp
L Device:R R25
U 1 1 5E34C3F8
P 6900 5050
F 0 "R25" V 6825 5075 50  0000 C CNN
F 1 "2k2" V 6900 5050 50  0000 C CNN
F 2 "Resistor_SMD:R_0603_REFLOW" V 6830 5050 50  0001 C CNN
F 3 "~" H 6900 5050 50  0001 C CNN
	1    6900 5050
	1    0    0    -1  
$EndComp
$Comp
L Device:LED D4
U 1 1 5E377112
P 7250 5375
F 0 "D4" V 7289 5258 50  0000 R CNN
F 1 "LED" V 7198 5258 50  0000 R CNN
F 2 "LED_SMD:LED_0805_2012Metric" H 7250 5375 50  0001 C CNN
F 3 "~" H 7250 5375 50  0001 C CNN
	1    7250 5375
	0    -1   -1   0   
$EndComp
$Comp
L Device:R R26
U 1 1 5E377118
P 7250 5050
F 0 "R26" V 7175 5075 50  0000 C CNN
F 1 "3k9" V 7250 5050 50  0000 C CNN
F 2 "Resistor_SMD:R_0603_REFLOW" V 7180 5050 50  0001 C CNN
F 3 "~" H 7250 5050 50  0001 C CNN
	1    7250 5050
	1    0    0    -1  
$EndComp
$Comp
L power:GND #PWR023
U 1 1 5E377124
P 7250 5575
F 0 "#PWR023" H 7250 5325 50  0001 C CNN
F 1 "GND" H 7255 5402 50  0000 C CNN
F 2 "" H 7250 5575 50  0001 C CNN
F 3 "" H 7250 5575 50  0001 C CNN
	1    7250 5575
	1    0    0    -1  
$EndComp
Wire Wire Line
	7250 5525 7250 5575
$Comp
L Device:LED D5
U 1 1 5E37712B
P 7600 5375
F 0 "D5" V 7639 5258 50  0000 R CNN
F 1 "LED" V 7548 5258 50  0000 R CNN
F 2 "LED_SMD:LED_0805_2012Metric" H 7600 5375 50  0001 C CNN
F 3 "~" H 7600 5375 50  0001 C CNN
	1    7600 5375
	0    -1   -1   0   
$EndComp
$Comp
L Device:R R27
U 1 1 5E377131
P 7600 5050
F 0 "R27" V 7525 5075 50  0000 C CNN
F 1 "3k9" V 7600 5050 50  0000 C CNN
F 2 "Resistor_SMD:R_0603_REFLOW" V 7530 5050 50  0001 C CNN
F 3 "~" H 7600 5050 50  0001 C CNN
	1    7600 5050
	1    0    0    -1  
$EndComp
$Comp
L power:GND #PWR024
U 1 1 5E377137
P 7600 5575
F 0 "#PWR024" H 7600 5325 50  0001 C CNN
F 1 "GND" H 7605 5402 50  0000 C CNN
F 2 "" H 7600 5575 50  0001 C CNN
F 3 "" H 7600 5575 50  0001 C CNN
	1    7600 5575
	1    0    0    -1  
$EndComp
Wire Wire Line
	7600 5525 7600 5575
Wire Notes Line
	625  4175 9150 4175
Text GLabel 2100 1625 0    50   Input ~ 0
OD
Text GLabel 2650 1725 0    50   Input ~ 0
OC
Wire Wire Line
	2700 1725 2650 1725
Connection ~ 2700 1725
Wire Wire Line
	2175 1625 2100 1625
Connection ~ 2175 1625
$Comp
L Device:LED D6
U 1 1 5E3D9008
P 7925 5375
F 0 "D6" V 7964 5258 50  0000 R CNN
F 1 "LED" V 7873 5258 50  0000 R CNN
F 2 "LED_SMD:LED_0805_2012Metric" H 7925 5375 50  0001 C CNN
F 3 "~" H 7925 5375 50  0001 C CNN
	1    7925 5375
	0    -1   -1   0   
$EndComp
$Comp
L Device:R R28
U 1 1 5E3D900E
P 7925 5050
F 0 "R28" V 7850 5075 50  0000 C CNN
F 1 "4k7" V 7925 5050 50  0000 C CNN
F 2 "Resistor_SMD:R_0603_REFLOW" V 7855 5050 50  0001 C CNN
F 3 "~" H 7925 5050 50  0001 C CNN
	1    7925 5050
	1    0    0    -1  
$EndComp
$Comp
L power:GND #PWR025
U 1 1 5E3D9014
P 7925 5575
F 0 "#PWR025" H 7925 5325 50  0001 C CNN
F 1 "GND" H 7930 5402 50  0000 C CNN
F 2 "" H 7925 5575 50  0001 C CNN
F 3 "" H 7925 5575 50  0001 C CNN
	1    7925 5575
	1    0    0    -1  
$EndComp
Wire Wire Line
	7925 5525 7925 5575
$Comp
L Device:LED D7
U 1 1 5E3D901B
P 8275 5375
F 0 "D7" V 8314 5258 50  0000 R CNN
F 1 "LED" V 8223 5258 50  0000 R CNN
F 2 "LED_SMD:LED_0805_2012Metric" H 8275 5375 50  0001 C CNN
F 3 "~" H 8275 5375 50  0001 C CNN
	1    8275 5375
	0    -1   -1   0   
$EndComp
$Comp
L Device:R R29
U 1 1 5E3D9021
P 8275 5050
F 0 "R29" V 8200 5075 50  0000 C CNN
F 1 "4k7" V 8275 5050 50  0000 C CNN
F 2 "Resistor_SMD:R_0603_REFLOW" V 8205 5050 50  0001 C CNN
F 3 "~" H 8275 5050 50  0001 C CNN
	1    8275 5050
	1    0    0    -1  
$EndComp
$Comp
L power:GND #PWR026
U 1 1 5E3D9027
P 8275 5575
F 0 "#PWR026" H 8275 5325 50  0001 C CNN
F 1 "GND" H 8280 5402 50  0000 C CNN
F 2 "" H 8275 5575 50  0001 C CNN
F 3 "" H 8275 5575 50  0001 C CNN
	1    8275 5575
	1    0    0    -1  
$EndComp
Wire Wire Line
	8275 5525 8275 5575
Text GLabel 8275 4875 1    50   Input ~ 0
OC
Text GLabel 7925 4875 1    50   Input ~ 0
OD
Wire Notes Line
	9150 5825 5875 5825
Text Notes 5925 4425 0    150  ~ 0
LED Bank
$Comp
L Jumper:SolderJumper_3_Open JP1
U 1 1 5E40C1D6
P 7000 3875
F 0 "JP1" V 6954 3943 50  0000 L CNN
F 1 "SolderJumper_3_Open" V 7045 3943 50  0000 L CNN
F 2 "Jumper:SolderJumper-3_P1.3mm_Open_Pad1.0x1.5mm" H 7000 3875 50  0001 C CNN
F 3 "~" H 7000 3875 50  0001 C CNN
	1    7000 3875
	0    1    1    0   
$EndComp
Wire Wire Line
	7925 4875 7925 4900
Wire Wire Line
	8275 4875 8275 4900
Wire Wire Line
	7600 4850 7600 4900
Wire Wire Line
	7250 4875 7250 4900
Wire Wire Line
	6900 4875 6900 4900
Wire Wire Line
	6525 4875 6525 4900
Wire Wire Line
	6150 4875 6150 4900
Wire Wire Line
	6150 5200 6150 5225
Wire Wire Line
	6525 5200 6525 5225
Wire Wire Line
	6900 5200 6900 5225
Wire Wire Line
	7250 5200 7250 5225
Wire Wire Line
	7600 5200 7600 5225
Wire Wire Line
	7925 5200 7925 5225
Wire Wire Line
	8275 5200 8275 5225
$Comp
L Device:Q_PMOS_GDS Q1
U 1 1 5DCCFB73
P 1650 1450
F 0 "Q1" V 1950 1450 50  0000 C CNN
F 1 "IRF4905LPBF " V 1875 1575 50  0000 C CNN
F 2 "Package_TO_SOT_THT:TO-262-3_Vertical" H 1850 1550 50  0001 C CNN
F 3 "~" H 1650 1450 50  0001 C CNN
	1    1650 1450
	0    1    -1   0   
$EndComp
$Comp
L FLAB_power_supply-rescue:INA381A1IDSGT-SamacSys_Parts IC1
U 1 1 5DB2EE59
P 2075 5550
F 0 "IC1" H 2775 5815 50  0000 C CNN
F 1 "INA381A1IDSGT" H 2775 5724 50  0000 C CNN
F 2 "FLAB_IC's:SON50P200X200X80-9N" H 3325 5650 50  0001 L CNN
F 3 "http://www.ti.com/lit/ds/symlink/ina381.pdf" H 3325 5550 50  0001 L CNN
F 4 "Current Sense Amplifiers Current Sense Amplifier With Integrated Over-Current Comparator 8-WSON -40 to 125" H 3325 5450 50  0001 L CNN "Description"
F 5 "0.8" H 3325 5350 50  0001 L CNN "Height"
F 6 "595-INA381A1IDSGT" H 3325 5250 50  0001 L CNN "Mouser Part Number"
F 7 "https://www.mouser.com/Search/Refine.aspx?Keyword=595-INA381A1IDSGT" H 3325 5150 50  0001 L CNN "Mouser Price/Stock"
F 8 "Texas Instruments" H 3325 5050 50  0001 L CNN "Manufacturer_Name"
F 9 "INA381A1IDSGT" H 3325 4950 50  0001 L CNN "Manufacturer_Part_Number"
	1    2075 5550
	1    0    0    -1  
$EndComp
$Comp
L Device:Q_NMOS_GDS Q3
U 1 1 5DBBEBE3
P 2700 2250
F 0 "Q3" V 2951 2250 50  0000 C CNN
F 1 "R6047ENZ1C9 " V 2525 2000 50  0000 C CNN
F 2 "Package_TO_SOT_THT:TO-247-3_Vertical" H 2900 2350 50  0001 C CNN
F 3 "~" H 2700 2250 50  0001 C CNN
	1    2700 2250
	0    1    1    0   
$EndComp
$Comp
L Device:Q_NMOS_GDS Q2
U 1 1 5DBBFF85
P 2175 2250
F 0 "Q2" V 2426 2250 50  0000 C CNN
F 1 "R6047ENZ1C9 " V 2000 2000 50  0000 C CNN
F 2 "Package_TO_SOT_THT:TO-247-3_Vertical" H 2375 2350 50  0001 C CNN
F 3 "~" H 2175 2250 50  0001 C CNN
	1    2175 2250
	0    1    1    0   
$EndComp
$Comp
L FLAB_power_supply-rescue:R5460N233AF-TR-FE-SamacSys_Parts IC2
U 1 1 5DB2F670
P 3325 1625
F 0 "IC2" H 3575 1850 50  0000 C CNN
F 1 "R5460N233AF-TR-FE" H 3925 1775 50  0000 C CNN
F 2 "FLAB_IC's:SOT95P280X130-6N" H 4275 1725 50  0001 L CNN
F 3 "https://nz.mouser.com/datasheet/2/792/r5460-e-1085730.pdf" H 4275 1625 50  0001 L CNN
F 4 "Battery Management 2-Cell Li-ion Protection IC" H 4275 1525 50  0001 L CNN "Description"
F 5 "1.3" H 4275 1425 50  0001 L CNN "Height"
F 6 "848-R5460N233AFTRFE" H 4275 1325 50  0001 L CNN "Mouser Part Number"
F 7 "" H 4275 1225 50  0001 L CNN "Mouser Price/Stock"
F 8 "Ricoh Electronics" H 4275 1125 50  0001 L CNN "Manufacturer_Name"
F 9 "R5460N233AF-TR-FE" H 4275 1025 50  0001 L CNN "Manufacturer_Part_Number"
	1    3325 1625
	1    0    0    -1  
$EndComp
Wire Wire Line
	6225 2200 6975 2200
Wire Wire Line
	7200 2300 6975 2300
Wire Wire Line
	6975 2300 6975 2200
Connection ~ 6975 2200
Wire Wire Line
	6975 2200 7200 2200
Wire Wire Line
	6975 2400 6975 2300
Connection ~ 6975 2300
Wire Wire Line
	7200 2700 7100 2700
Wire Wire Line
	7100 2700 7100 2825
Wire Wire Line
	7200 2600 7100 2600
Wire Wire Line
	7100 2600 7100 2700
Connection ~ 7100 2700
Wire Wire Line
	7200 2500 7100 2500
Wire Wire Line
	7100 2500 7100 2600
Connection ~ 7100 2600
Wire Wire Line
	6975 2400 7200 2400
Text Label 7000 2300 0    50   ~ 0
ESC2
Text Label 7000 2400 0    50   ~ 0
ESC3
Wire Wire Line
	8725 1275 8325 1275
Wire Wire Line
	8725 1175 8325 1175
Wire Wire Line
	8725 1075 8325 1075
$Comp
L Connector_Generic:Conn_01x03 J5
U 1 1 5E09761D
P 8925 1175
F 0 "J5" H 8875 1375 50  0000 L CNN
F 1 "Conn_01x03" H 8525 975 50  0000 L CNN
F 2 "JST:JST_XH_B04B_3P" H 8925 1175 50  0001 C CNN
F 3 "~" H 8925 1175 50  0001 C CNN
	1    8925 1175
	1    0    0    -1  
$EndComp
Text GLabel 8325 1075 0    50   Input ~ 0
ESC_PWM_L
Text GLabel 8325 1175 0    50   Input ~ 0
SERVO_PWM
Text GLabel 8325 1275 0    50   Input ~ 0
ESC_PWM_R
$Comp
L Connector:TestPoint TP22
U 1 1 5DDB8992
P 1425 1625
F 0 "TP22" H 1375 1825 50  0000 L CNN
F 1 "TestPoint" H 975 1750 50  0000 L CNN
F 2 "TestPoint:TestPoint_Pad_D2.0mm_(pogo)" H 1625 1625 50  0001 C CNN
F 3 "~" H 1625 1625 50  0001 C CNN
	1    1425 1625
	1    0    0    -1  
$EndComp
Wire Wire Line
	1425 1625 1350 1625
Connection ~ 1350 1625
$Comp
L Mechanical:Fiducial FID1
U 1 1 5DF9B4FF
P 6000 5950
F 0 "FID1" H 6085 5996 50  0000 L CNN
F 1 "Fiducial" H 6085 5905 50  0000 L CNN
F 2 "Fiducial:Fiducial_DUAL_0.5mm_Mask1.5mm" H 6000 5950 50  0001 C CNN
F 3 "~" H 6000 5950 50  0001 C CNN
	1    6000 5950
	1    0    0    -1  
$EndComp
$Comp
L Mechanical:MountingHole H1
U 1 1 5DF9DC3C
P 6500 5950
F 0 "H1" H 6600 5996 50  0000 L CNN
F 1 "MountingHole" H 6600 5905 50  0000 L CNN
F 2 "MountingHoleM2,5:MountingHoleM2,5" H 6500 5950 50  0001 C CNN
F 3 "~" H 6500 5950 50  0001 C CNN
	1    6500 5950
	1    0    0    -1  
$EndComp
$Comp
L Mechanical:MountingHole H2
U 1 1 5DFFA005
P 6500 6125
F 0 "H2" H 6600 6171 50  0000 L CNN
F 1 "MountingHole" H 6600 6080 50  0000 L CNN
F 2 "MountingHoleM2,5:MountingHoleM2,5" H 6500 6125 50  0001 C CNN
F 3 "~" H 6500 6125 50  0001 C CNN
	1    6500 6125
	1    0    0    -1  
$EndComp
$Comp
L Mechanical:MountingHole H3
U 1 1 5E004C5B
P 6500 6300
F 0 "H3" H 6600 6346 50  0000 L CNN
F 1 "MountingHole" H 6600 6255 50  0000 L CNN
F 2 "MountingHoleM2,5:MountingHoleM2,5" H 6500 6300 50  0001 C CNN
F 3 "~" H 6500 6300 50  0001 C CNN
	1    6500 6300
	1    0    0    -1  
$EndComp
$Comp
L Mechanical:MountingHole H4
U 1 1 5E00F7BA
P 6500 6475
F 0 "H4" H 6600 6521 50  0000 L CNN
F 1 "MountingHole" H 6600 6430 50  0000 L CNN
F 2 "MountingHoleM2,5:MountingHoleM2,5" H 6500 6475 50  0001 C CNN
F 3 "~" H 6500 6475 50  0001 C CNN
	1    6500 6475
	1    0    0    -1  
$EndComp
$Comp
L Mechanical:Fiducial FID2
U 1 1 5E01BD56
P 6000 6125
F 0 "FID2" H 6085 6171 50  0000 L CNN
F 1 "Fiducial" H 6085 6080 50  0000 L CNN
F 2 "Fiducial:Fiducial_DUAL_0.5mm_Mask1.5mm" H 6000 6125 50  0001 C CNN
F 3 "~" H 6000 6125 50  0001 C CNN
	1    6000 6125
	1    0    0    -1  
$EndComp
$Comp
L Mechanical:Fiducial FID3
U 1 1 5E0268C5
P 6000 6300
F 0 "FID3" H 6085 6346 50  0000 L CNN
F 1 "Fiducial" H 6085 6255 50  0000 L CNN
F 2 "Fiducial:Fiducial_DUAL_0.5mm_Mask1.5mm" H 6000 6300 50  0001 C CNN
F 3 "~" H 6000 6300 50  0001 C CNN
	1    6000 6300
	1    0    0    -1  
$EndComp
Wire Notes Line
	625  6750 9150 6750
Wire Notes Line
	9150 600  9150 6750
$EndSCHEMATC
