stm32f4xx_hal_msp.c:64:6:HAL_MspInit	16	static
stm32f4xx_hal_msp.c:86:6:HAL_SPI_MspInit	48	static
stm32f4xx_hal_msp.c:126:6:HAL_SPI_MspDeInit	16	static
stm32f4xx_hal_msp.c:158:6:HAL_UART_MspInit	56	static
stm32f4xx_hal_msp.c:218:6:HAL_UART_MspDeInit	16	static
