lora.c:61:6:initLora	16	static
lora.c:78:6:initReceive	8	static
lora.c:83:7:receiveString	472	static
lora.c:134:6:sendString	16	static
lora.c:164:6:payload2string	48	static
lora.c:217:6:setting2string	48	static
lora.c:235:6:receiveSettings	88	static
