(module Banana_Jack_2Pin (layer F.Cu) (tedit 5D6A6F0F)
  (descr "Dual banana socket, footprint - 2 x 6mm drills")
  (tags "banana socket")
  (fp_text reference REF** (at 1.45 -6.65) (layer F.SilkS)
    (effects (font (size 0.8 0.8) (thickness 0.15)))
  )
  (fp_text value Banana_Jack_2Pin (at 14.985 6.29) (layer F.Fab)
    (effects (font (size 1 1) (thickness 0.15)))
  )
  (fp_text user %R (at 14.985 0) (layer F.Fab)
    (effects (font (size 1 1) (thickness 0.15)))
  )
  (fp_line (start 19.1 -5.5) (end 0 -5.5) (layer F.CrtYd) (width 0.05))
  (fp_line (start 0 5.5) (end 19.1 5.5) (layer F.CrtYd) (width 0.05))
  (fp_line (start 0 5.25) (end 19.1 5.25) (layer F.SilkS) (width 0.12))
  (fp_line (start 19.1 -5.25) (end 0 -5.25) (layer F.SilkS) (width 0.12))
  (fp_circle (center 19.1 0) (end 21.1 0) (layer F.Fab) (width 0.1))
  (fp_circle (center 0 0) (end 2 0) (layer F.Fab) (width 0.1))
  (fp_circle (center 0 0) (end 4.75 0) (layer F.Fab) (width 0.1))
  (fp_circle (center 19.1 0) (end 23.85 0) (layer F.Fab) (width 0.1))
  (fp_arc (start 0 0) (end 0 5.5) (angle 180) (layer F.CrtYd) (width 0.05))
  (fp_arc (start 19.1 0) (end 19.1 -5.5) (angle 180) (layer F.CrtYd) (width 0.05))
  (fp_arc (start 19.1 0) (end 19.1 -5.25) (angle 180) (layer F.SilkS) (width 0.12))
  (fp_arc (start 0 0) (end 0 5.25) (angle 180) (layer F.SilkS) (width 0.12))
  (fp_poly (pts (xy 10 5.2) (xy 10 -5.2) (xy 19.5 -5.2) (xy 19.5 5.2)) (layer F.SilkS) (width 0.1))
  (pad 1 thru_hole circle (at 0 0) (size 10.16 10.16) (drill 6.1) (layers *.Cu *.Mask))
  (pad 2 thru_hole circle (at 19.05 0) (size 10.16 10.16) (drill 6.1) (layers *.Cu *.Mask))
  (model "${KISYS3DMOD}/Connector.3dshapes/2-way Banana Plug Jack.step"
    (offset (xyz 138 7.9 -11.9))
    (scale (xyz 0.8 0.8 0.8))
    (rotate (xyz 90 0 180))
  )
)
