(module Pulse_W3011 (layer F.Cu) (tedit 5D24440B)
  (descr "Pulse RF Antenna, 4mm Clearance")
  (tags "antenna rf")
  (attr smd)
  (fp_text reference REF** (at 0 -3) (layer F.SilkS)
    (effects (font (size 1 1) (thickness 0.15)))
  )
  (fp_text value Pulse_W3011 (at 0 3) (layer F.Fab)
    (effects (font (size 1 1) (thickness 0.15)))
  )
  (fp_line (start 0.925 1.6) (end 0.925 -1.125) (layer F.SilkS) (width 0.12))
  (fp_line (start -0.925 1.6) (end -0.925 -1.95) (layer F.SilkS) (width 0.12))
  (fp_text user "on all layers" (at -2.2 0 90) (layer Cmts.User)
    (effects (font (size 0.3 0.3) (thickness 0.03)))
  )
  (fp_text user "No copper" (at -2.7 0 90) (layer Cmts.User)
    (effects (font (size 0.3 0.3) (thickness 0.03)))
  )
  (fp_text user %R (at 0.05 -0.05) (layer F.Fab)
    (effects (font (size 0.3 0.3) (thickness 0.03)))
  )
  (fp_line (start -3.2 -2) (end 1.05 2) (layer Dwgs.User) (width 0.05))
  (fp_line (start 1.05 -2) (end -3.2 2) (layer Dwgs.User) (width 0.05))
  (fp_line (start -3.2 2) (end 1.05 2) (layer Dwgs.User) (width 0.05))
  (fp_line (start -3.2 -2) (end -3.2 2) (layer Dwgs.User) (width 0.05))
  (fp_line (start 1.05 -2) (end -3.2 -2) (layer Dwgs.User) (width 0.05))
  (fp_line (start 1.05 2) (end 1.05 -2) (layer Dwgs.User) (width 0.05))
  (fp_line (start 1.3 -2.5) (end 1.3 2.5) (layer F.CrtYd) (width 0.05))
  (fp_line (start -1.33 2.5) (end 1.3 2.5) (layer F.CrtYd) (width 0.05))
  (fp_line (start -1.33 -2.5) (end -1.33 2.5) (layer F.CrtYd) (width 0.05))
  (fp_line (start -1.33 -2.5) (end 1.3 -2.5) (layer F.CrtYd) (width 0.05))
  (fp_line (start -0.8 -1.6) (end 0.8 -1.6) (layer F.Fab) (width 0.1))
  (fp_line (start 0.8 1.6) (end 0.8 -1.6) (layer F.Fab) (width 0.1))
  (fp_line (start -0.8 1.6) (end -0.8 -1.6) (layer F.Fab) (width 0.1))
  (fp_line (start -0.8 1.6) (end 0.8 1.6) (layer F.Fab) (width 0.1))
  (pad 2 smd trapezoid (at 0.5 -1.6 90) (size 0.8 0.65) (layers F.Cu F.Paste F.Mask))
  (pad 1 smd trapezoid (at -0.5 -1.6 90) (size 0.8 0.65) (layers F.Cu F.Paste F.Mask))
  (pad 2 smd trapezoid (at 0 1.6 90) (size 0.8 1.6) (layers F.Cu F.Paste F.Mask))
  (model ${KISYS3DMOD}/E-GPS/SR4L002_Lucida.STEP
    (offset (xyz -0.85 2.1 0.4))
    (scale (xyz 0.12 0.2 0.12))
    (rotate (xyz 0 0 90))
  )
)
