PCBNEW-LibModule-V1  2019-11-03 16:23:54
# encoding utf-8
Units mm
$INDEX
CAM-M8Q
$EndINDEX
$MODULE CAM-M8Q
Po 0 0 0 15 5dbeff1a 00000000 ~~
Li CAM-M8Q
Cd CAM-M8Q
Kw Integrated Circuit
Sc 0
At SMD
AR 
Op 0 0 0
T0 6.33306 0.14395 1.27 1.27 0 0.254 N V 21 N "IC**"
T1 6.33306 0.14395 1.27 1.27 0 0.254 N I 21 N "CAM-M8Q"
DS -0.4 -4.8 13.6 -4.8 0.254 24
DS 13.6 -4.8 13.6 4.8 0.254 24
DS 13.6 4.8 -0.4 4.8 0.254 24
DS -0.4 4.8 -0.4 -4.8 0.254 24
DS 13.6 -4.8 13.6 4.8 0.254 21
DS -0.4 4.8 -0.4 2.7 0.254 21
DS -0.4 -4.8 -0.4 -2.7 0.254 21
DC 0.378 5.514 0.279 5.514 0.254 21
$PAD
Po 0.4 4.4
Sh "1" R 0.7 1.5 0 0 0
At SMD N 00888000
Ne 0 ""
$EndPAD
$PAD
Po 1.4 4.4
Sh "2" R 0.7 1.5 0 0 0
At SMD N 00888000
Ne 0 ""
$EndPAD
$PAD
Po 2.4 4.4
Sh "3" R 0.7 1.5 0 0 0
At SMD N 00888000
Ne 0 ""
$EndPAD
$PAD
Po 3.4 4.4
Sh "4" R 0.7 1.5 0 0 0
At SMD N 00888000
Ne 0 ""
$EndPAD
$PAD
Po 4.4 4.4
Sh "5" R 0.7 1.5 0 0 0
At SMD N 00888000
Ne 0 ""
$EndPAD
$PAD
Po 5.4 4.4
Sh "6" R 0.7 1.5 0 0 0
At SMD N 00888000
Ne 0 ""
$EndPAD
$PAD
Po 6.4 4.4
Sh "7" R 0.7 1.5 0 0 0
At SMD N 00888000
Ne 0 ""
$EndPAD
$PAD
Po 7.4 4.4
Sh "8" R 0.7 1.5 0 0 0
At SMD N 00888000
Ne 0 ""
$EndPAD
$PAD
Po 8.4 4.4
Sh "9" R 0.7 1.5 0 0 0
At SMD N 00888000
Ne 0 ""
$EndPAD
$PAD
Po 9.4 4.4
Sh "10" R 0.7 1.5 0 0 0
At SMD N 00888000
Ne 0 ""
$EndPAD
$PAD
Po 10.4 4.4
Sh "11" R 0.7 1.5 0 0 0
At SMD N 00888000
Ne 0 ""
$EndPAD
$PAD
Po 11.4 4.4
Sh "12" R 0.7 1.5 0 0 0
At SMD N 00888000
Ne 0 ""
$EndPAD
$PAD
Po 12.55 4.4
Sh "13" R 1 1.5 0 0 0
At SMD N 00888000
Ne 0 ""
$EndPAD
$PAD
Po 12.55 -4.4
Sh "14" R 1 1.5 0 0 0
At SMD N 00888000
Ne 0 ""
$EndPAD
$PAD
Po 11.4 -4.4
Sh "15" R 0.7 1.5 0 0 0
At SMD N 00888000
Ne 0 ""
$EndPAD
$PAD
Po 10.4 -4.4
Sh "16" R 0.7 1.5 0 0 0
At SMD N 00888000
Ne 0 ""
$EndPAD
$PAD
Po 9.4 -4.4
Sh "17" R 0.7 1.5 0 0 0
At SMD N 00888000
Ne 0 ""
$EndPAD
$PAD
Po 8.4 -4.4
Sh "18" R 0.7 1.5 0 0 0
At SMD N 00888000
Ne 0 ""
$EndPAD
$PAD
Po 7.4 -4.4
Sh "19" R 0.7 1.5 0 0 0
At SMD N 00888000
Ne 0 ""
$EndPAD
$PAD
Po 6.4 -4.4
Sh "20" R 0.7 1.5 0 0 0
At SMD N 00888000
Ne 0 ""
$EndPAD
$PAD
Po 5.4 -4.4
Sh "21" R 0.7 1.5 0 0 0
At SMD N 00888000
Ne 0 ""
$EndPAD
$PAD
Po 4.4 -4.4
Sh "22" R 0.7 1.5 0 0 0
At SMD N 00888000
Ne 0 ""
$EndPAD
$PAD
Po 3.4 -4.4
Sh "23" R 0.7 1.5 0 0 0
At SMD N 00888000
Ne 0 ""
$EndPAD
$PAD
Po 2.4 -4.4
Sh "24" R 0.7 1.5 0 0 0
At SMD N 00888000
Ne 0 ""
$EndPAD
$PAD
Po 1.4 -4.4
Sh "25" R 0.7 1.5 0 0 0
At SMD N 00888000
Ne 0 ""
$EndPAD
$PAD
Po 0.4 -4.4
Sh "26" R 0.7 1.5 0 0 0
At SMD N 00888000
Ne 0 ""
$EndPAD
$PAD
Po 0 -2
Sh "27" R 0.7 1.5 0 0 900
At SMD N 00888000
Ne 0 ""
$EndPAD
$PAD
Po 0 -1
Sh "28" R 0.7 1.5 0 0 900
At SMD N 00888000
Ne 0 ""
$EndPAD
$PAD
Po 0 0
Sh "29" R 0.7 1.5 0 0 900
At SMD N 00888000
Ne 0 ""
$EndPAD
$PAD
Po 0 1
Sh "30" R 0.7 1.5 0 0 900
At SMD N 00888000
Ne 0 ""
$EndPAD
$PAD
Po 0 2
Sh "31" R 0.7 1.5 0 0 900
At SMD N 00888000
Ne 0 ""
$EndPAD
$EndMODULE CAM-M8Q
$EndLIBRARY
