stm32f4xx_it.c:70:6:NMI_Handler	4	static
stm32f4xx_it.c:82:6:HardFault_Handler	4	static
stm32f4xx_it.c:95:6:MemManage_Handler	4	static
stm32f4xx_it.c:108:6:BusFault_Handler	4	static
stm32f4xx_it.c:121:6:UsageFault_Handler	4	static
stm32f4xx_it.c:134:6:SVC_Handler	4	static
stm32f4xx_it.c:146:6:DebugMon_Handler	4	static
stm32f4xx_it.c:158:6:PendSV_Handler	4	static
stm32f4xx_it.c:170:6:SysTick_Handler	8	static
stm32f4xx_it.c:190:6:EXTI2_IRQHandler	24	static
stm32f4xx_it.c:222:6:TIM1_TRG_COM_TIM11_IRQHandler	24	static
stm32f4xx_it.c:259:6:EXTI15_10_IRQHandler	24	static
