(module JST_GH_SM04B-GHS-TB_1x04-1MP_P1.25mm_Horizontal (layer F.Cu) (tedit 5CDE7E1E)
  (descr "JST GH series connector, SM03B-GHS-TB (http://www.jst-mfg.com/product/pdf/eng/eGH.pdf), generated with kicad-footprint-generator")
  (tags "connector JST GH top entry")
  (attr smd)
  (fp_text reference REF** (at -3.6 -3.7) (layer F.SilkS)
    (effects (font (size 0.8 0.8) (thickness 0.1)))
  )
  (fp_text value JST_GH_1x04_P1.25mm_Horizontal (at 0 4.8) (layer F.Fab)
    (effects (font (size 1 1) (thickness 0.15)))
  )
  (fp_line (start 5.4 3.8) (end 5.4 0.8) (layer F.SilkS) (width 0.12))
  (fp_line (start 3.76 3.8) (end 5.4 3.8) (layer F.SilkS) (width 0.12))
  (fp_line (start -5.4 0.81) (end -5.4 3.8) (layer F.SilkS) (width 0.12))
  (fp_line (start -3.76 3.8) (end -5.4 3.8) (layer F.SilkS) (width 0.12))
  (fp_text user %R (at 0 0) (layer F.Fab)
    (effects (font (size 1 1) (thickness 0.15)))
  )
  (fp_line (start -1.25 -0.892893) (end -0.75 -1.6) (layer F.Fab) (width 0.1))
  (fp_line (start -1.75 -1.6) (end -1.25 -0.892893) (layer F.Fab) (width 0.1))
  (fp_line (start 5.2 -3.2) (end -5.2 -3.2) (layer F.CrtYd) (width 0.05))
  (fp_line (start 5.2 3.2) (end 5.2 -3.2) (layer F.CrtYd) (width 0.05))
  (fp_line (start -5.2 3.2) (end 5.2 3.2) (layer F.CrtYd) (width 0.05))
  (fp_line (start -5.2 -3.2) (end -5.2 3.2) (layer F.CrtYd) (width 0.05))
  (fp_line (start 3.5 -1.6) (end 3.5 2.45) (layer F.Fab) (width 0.1))
  (fp_line (start -3.5 -1.6) (end -3.5 2.45) (layer F.Fab) (width 0.1))
  (fp_line (start -3.5 2.45) (end 3.5 2.45) (layer F.Fab) (width 0.1))
  (fp_line (start -2.34 2.56) (end 2.34 2.56) (layer F.SilkS) (width 0.3))
  (fp_line (start 5 -1.71) (end 2.61 -1.71) (layer F.SilkS) (width 0.12))
  (fp_line (start 5 -0.26) (end 5 -1.7) (layer F.SilkS) (width 0.12))
  (fp_line (start -5 -1.71) (end -2.71 -1.71) (layer F.SilkS) (width 0.12))
  (fp_line (start -5 -0.25) (end -5 -1.7) (layer F.SilkS) (width 0.12))
  (fp_line (start -3.5 -1.6) (end 3.5 -1.6) (layer F.Fab) (width 0.1))
  (pad MP smd roundrect (at 4.2 1.35) (size 1.9 2.7) (layers F.Cu F.Paste F.Mask) (roundrect_rratio 0.25))
  (pad MP smd roundrect (at -4.2 1.35) (size 1.9 2.7) (layers F.Cu F.Paste F.Mask) (roundrect_rratio 0.25))
  (pad 3 smd roundrect (at 0.625 -1.5) (size 0.6 2.6) (layers F.Cu F.Paste F.Mask) (roundrect_rratio 0.25))
  (pad 2 smd roundrect (at -0.625 -1.5) (size 0.6 2.6) (layers F.Cu F.Paste F.Mask) (roundrect_rratio 0.25))
  (pad 1 smd roundrect (at -1.9 -1.5) (size 0.6 2.6) (layers F.Cu F.Paste F.Mask) (roundrect_rratio 0.25))
  (pad 4 smd roundrect (at 1.9 -1.5) (size 0.6 2.6) (layers F.Cu F.Paste F.Mask) (roundrect_rratio 0.25))
  (model ${KISYS3DMOD}/Connector_JST.3dshapes/JST_GH_SM03B-GHS-TB_1x03-1MP_P1.25mm_Horizontal.wrl
    (at (xyz 0 0 0))
    (scale (xyz 1 1 1))
    (rotate (xyz 0 0 0))
  )
)
