(module Fuse_0805_2012Metric (layer F.Cu) (tedit 5D6A69C8)
  (descr "Fuse SMD 0805 (2012 Metric), square (rectangular) end terminal, IPC_7351 nominal, (Body size source: https://docs.google.com/spreadsheets/d/1BsfQQcO9C6DZCsRaXUlFlo91Tg2WpOkGARC1WS5S8t0/edit?usp=sharing), generated with kicad-footprint-generator")
  (tags resistor)
  (attr smd)
  (fp_text reference REF** (at -0.125 -1.65) (layer F.SilkS)
    (effects (font (size 0.8 0.8) (thickness 0.15)))
  )
  (fp_text value Fuse_0805_2012Metric (at 0 1.65) (layer F.Fab)
    (effects (font (size 1 1) (thickness 0.15)))
  )
  (fp_line (start -1 0.6) (end -1 -0.6) (layer F.Fab) (width 0.1))
  (fp_line (start -1 -0.6) (end 1 -0.6) (layer F.Fab) (width 0.1))
  (fp_line (start 1 -0.6) (end 1 0.6) (layer F.Fab) (width 0.1))
  (fp_line (start 1 0.6) (end -1 0.6) (layer F.Fab) (width 0.1))
  (fp_line (start -0.225 0.025) (end 0.292156 0.025) (layer F.SilkS) (width 0.12))
  (fp_line (start -0.225 0.95) (end 0.292156 0.95) (layer F.SilkS) (width 0.12))
  (fp_line (start -1.68 0.95) (end -1.68 -0.95) (layer F.CrtYd) (width 0.05))
  (fp_line (start -1.68 -0.95) (end 1.68 -0.95) (layer F.CrtYd) (width 0.05))
  (fp_line (start 1.68 -0.95) (end 1.68 0.95) (layer F.CrtYd) (width 0.05))
  (fp_line (start 1.68 0.95) (end -1.68 0.95) (layer F.CrtYd) (width 0.05))
  (fp_text user %R (at 0 0) (layer F.Fab)
    (effects (font (size 0.5 0.5) (thickness 0.08)))
  )
  (fp_line (start -1.675 -0.95) (end -1.675 0.95) (layer F.SilkS) (width 0.15))
  (fp_line (start -1.675 0.95) (end 1.675 0.95) (layer F.SilkS) (width 0.15))
  (fp_line (start 1.675 0.95) (end 1.675 -0.95) (layer F.SilkS) (width 0.15))
  (fp_line (start 1.675 -0.95) (end -1.675 -0.95) (layer F.SilkS) (width 0.15))
  (pad 1 smd rect (at -0.9375 0) (size 0.975 1.4) (layers F.Cu F.Paste F.Mask))
  (pad 2 smd rect (at 0.9375 0) (size 0.975 1.4) (layers F.Cu F.Paste F.Mask))
  (model ${KISYS3DMOD}/Resistor_SMD.3dshapes/R_Shunt_Ohmite_LVK12.wrl
    (at (xyz 0 0 0))
    (scale (xyz 1 1 1))
    (rotate (xyz 0 0 90))
  )
)
