(module Strain_Gauge_Rechts (layer F.Cu) (tedit 5CE2D322)
  (fp_text reference G*** (at 0 0) (layer F.SilkS) hide
    (effects (font (size 1.524 1.524) (thickness 0.3)))
  )
  (fp_text value LOGO (at 0.75 0) (layer F.SilkS) hide
    (effects (font (size 1.524 1.524) (thickness 0.3)))
  )
  (fp_poly (pts (xy -7.933927 -3.494894) (xy -7.798115 -3.488433) (xy -7.678526 -3.473444) (xy -7.571727 -3.449254)
    (xy -7.474286 -3.41519) (xy -7.432931 -3.396631) (xy -7.354214 -3.351191) (xy -7.288417 -3.29759)
    (xy -7.238786 -3.238734) (xy -7.219978 -3.206055) (xy -7.205429 -3.160393) (xy -7.197474 -3.101798)
    (xy -7.196441 -3.037557) (xy -7.202657 -2.974954) (xy -7.208351 -2.947473) (xy -7.227818 -2.90008)
    (xy -7.258975 -2.85644) (xy -7.296686 -2.822464) (xy -7.332127 -2.804996) (xy -7.365346 -2.797069)
    (xy -7.390843 -2.796238) (xy -7.417033 -2.80369) (xy -7.452332 -2.820615) (xy -7.455959 -2.822495)
    (xy -7.505326 -2.85154) (xy -7.563294 -2.891185) (xy -7.6273 -2.939151) (xy -7.694777 -2.993157)
    (xy -7.763163 -3.050922) (xy -7.829892 -3.110167) (xy -7.8924 -3.168611) (xy -7.948122 -3.223975)
    (xy -7.994495 -3.273976) (xy -8.028952 -3.316336) (xy -8.04893 -3.348774) (xy -8.049613 -3.350357)
    (xy -8.061939 -3.395153) (xy -8.062938 -3.438416) (xy -8.052591 -3.472581) (xy -8.049919 -3.476646)
    (xy -8.040487 -3.48602) (xy -8.0259 -3.491773) (xy -8.00167 -3.494612) (xy -7.963308 -3.495243)
    (xy -7.933927 -3.494894)) (layer F.Fab) (width 0.01))
  (fp_poly (pts (xy -14.321558 -3.450577) (xy -14.205173 -3.432222) (xy -14.096956 -3.402901) (xy -13.999969 -3.363391)
    (xy -13.917271 -3.314472) (xy -13.867956 -3.273532) (xy -13.816347 -3.209545) (xy -13.776762 -3.131743)
    (xy -13.750327 -3.044456) (xy -13.73817 -2.952017) (xy -13.741419 -2.858757) (xy -13.748694 -2.815379)
    (xy -13.766959 -2.759001) (xy -13.793918 -2.721798) (xy -13.830352 -2.703314) (xy -13.877044 -2.703092)
    (xy -13.920397 -2.715048) (xy -13.966748 -2.736165) (xy -14.02517 -2.769235) (xy -14.093118 -2.812275)
    (xy -14.168046 -2.8633) (xy -14.247408 -2.92033) (xy -14.328659 -2.981379) (xy -14.409253 -3.044466)
    (xy -14.486643 -3.107608) (xy -14.558285 -3.168821) (xy -14.621632 -3.226122) (xy -14.674138 -3.277529)
    (xy -14.713259 -3.321058) (xy -14.732413 -3.347557) (xy -14.744456 -3.376122) (xy -14.741385 -3.399232)
    (xy -14.721965 -3.417658) (xy -14.684961 -3.432175) (xy -14.629135 -3.443555) (xy -14.566596 -3.451275)
    (xy -14.443053 -3.457188) (xy -14.321558 -3.450577)) (layer F.Fab) (width 0.01))
  (fp_poly (pts (xy -2.000291 -3.234973) (xy -1.932686 -3.22868) (xy -1.797183 -3.201447) (xy -1.663764 -3.155613)
    (xy -1.563569 -3.108688) (xy -1.468259 -3.053927) (xy -1.392186 -2.997957) (xy -1.333438 -2.938632)
    (xy -1.290107 -2.873807) (xy -1.260281 -2.801335) (xy -1.248331 -2.754537) (xy -1.244105 -2.721885)
    (xy -1.241491 -2.676044) (xy -1.240407 -2.622076) (xy -1.240773 -2.565045) (xy -1.242508 -2.510017)
    (xy -1.245531 -2.462055) (xy -1.249761 -2.426223) (xy -1.253841 -2.409963) (xy -1.274918 -2.385739)
    (xy -1.310612 -2.369177) (xy -1.355568 -2.360931) (xy -1.404429 -2.361659) (xy -1.451839 -2.372016)
    (xy -1.476532 -2.382679) (xy -1.525359 -2.413218) (xy -1.585788 -2.458258) (xy -1.655868 -2.516042)
    (xy -1.733647 -2.584814) (xy -1.817174 -2.662815) (xy -1.904498 -2.748288) (xy -1.993667 -2.839478)
    (xy -2.049654 -2.898792) (xy -2.11812 -2.973387) (xy -2.172192 -3.034764) (xy -2.212877 -3.084226)
    (xy -2.241182 -3.123074) (xy -2.258113 -3.152613) (xy -2.264676 -3.174145) (xy -2.264834 -3.177355)
    (xy -2.254852 -3.196073) (xy -2.227012 -3.211796) (xy -2.184476 -3.224036) (xy -2.130404 -3.232304)
    (xy -2.067955 -3.236113) (xy -2.000291 -3.234973)) (layer F.Fab) (width 0.01))
  (fp_poly (pts (xy -6.337123 -1.697823) (xy -6.321711 -1.69775) (xy -6.255139 -1.697057) (xy -6.204453 -1.695382)
    (xy -6.164372 -1.692128) (xy -6.129621 -1.686702) (xy -6.094919 -1.67851) (xy -6.058959 -1.668156)
    (xy -5.996453 -1.64654) (xy -5.923349 -1.616872) (xy -5.845718 -1.582007) (xy -5.769632 -1.544801)
    (xy -5.701165 -1.508107) (xy -5.646388 -1.474783) (xy -5.643348 -1.472734) (xy -5.557121 -1.404939)
    (xy -5.490424 -1.332112) (xy -5.446015 -1.259447) (xy -5.431765 -1.227925) (xy -5.422406 -1.201325)
    (xy -5.416921 -1.173689) (xy -5.41429 -1.139058) (xy -5.413497 -1.091472) (xy -5.413466 -1.068917)
    (xy -5.415609 -0.996656) (xy -5.422818 -0.941512) (xy -5.436352 -0.899783) (xy -5.45747 -0.867765)
    (xy -5.487432 -0.841755) (xy -5.49167 -0.838869) (xy -5.530148 -0.819437) (xy -5.56815 -0.814862)
    (xy -5.609638 -0.82573) (xy -5.658574 -0.852624) (xy -5.678945 -0.866459) (xy -5.725274 -0.901118)
    (xy -5.783586 -0.947867) (xy -5.851233 -1.004324) (xy -5.92557 -1.068109) (xy -6.003948 -1.13684)
    (xy -6.083722 -1.208137) (xy -6.162246 -1.279619) (xy -6.236871 -1.348904) (xy -6.304952 -1.413613)
    (xy -6.363842 -1.471363) (xy -6.410894 -1.519775) (xy -6.435746 -1.547268) (xy -6.472189 -1.590361)
    (xy -6.495986 -1.62112) (xy -6.508818 -1.642791) (xy -6.512367 -1.658617) (xy -6.508318 -1.671845)
    (xy -6.503864 -1.678642) (xy -6.496642 -1.686203) (xy -6.485636 -1.691553) (xy -6.467512 -1.69504)
    (xy -6.43894 -1.697014) (xy -6.396587 -1.697825) (xy -6.337123 -1.697823)) (layer F.Fab) (width 0.01))
  (fp_poly (pts (xy -5.647217 -2.784418) (xy -5.569508 -2.767025) (xy -5.492932 -2.738445) (xy -5.444134 -2.715006)
    (xy -5.379051 -2.678131) (xy -5.317145 -2.636783) (xy -5.260435 -2.592995) (xy -5.210942 -2.548801)
    (xy -5.170687 -2.506233) (xy -5.141688 -2.467326) (xy -5.125968 -2.434112) (xy -5.125545 -2.408626)
    (xy -5.131134 -2.399967) (xy -5.147323 -2.391575) (xy -5.178041 -2.384785) (xy -5.224114 -2.379576)
    (xy -5.286371 -2.375926) (xy -5.365639 -2.373811) (xy -5.462746 -2.37321) (xy -5.578519 -2.374099)
    (xy -5.713787 -2.376457) (xy -5.863167 -2.380092) (xy -5.969631 -2.382738) (xy -6.074886 -2.384924)
    (xy -6.175935 -2.386615) (xy -6.26978 -2.38778) (xy -6.353425 -2.388386) (xy -6.423873 -2.388401)
    (xy -6.478126 -2.387792) (xy -6.503459 -2.387038) (xy -6.599785 -2.382762) (xy -6.694007 -2.378308)
    (xy -6.783686 -2.373813) (xy -6.866386 -2.369415) (xy -6.939668 -2.365252) (xy -7.001094 -2.36146)
    (xy -7.048227 -2.358177) (xy -7.078629 -2.355542) (xy -7.089325 -2.353973) (xy -7.093036 -2.345294)
    (xy -7.081272 -2.325692) (xy -7.064346 -2.30574) (xy -7.016877 -2.238392) (xy -6.980925 -2.154028)
    (xy -6.956348 -2.052267) (xy -6.947727 -1.989667) (xy -6.946843 -1.959327) (xy -6.948412 -1.912203)
    (xy -6.952179 -1.852504) (xy -6.957887 -1.784439) (xy -6.963862 -1.725083) (xy -6.972161 -1.636263)
    (xy -6.979801 -1.530347) (xy -6.986547 -1.411403) (xy -6.992165 -1.283496) (xy -6.995929 -1.168958)
    (xy -6.999647 -1.047541) (xy -7.003605 -0.94524) (xy -7.007965 -0.860005) (xy -7.012892 -0.789785)
    (xy -7.018549 -0.732531) (xy -7.0251 -0.686192) (xy -7.03271 -0.648718) (xy -7.039456 -0.624417)
    (xy -7.057892 -0.582928) (xy -7.080901 -0.557384) (xy -7.101802 -0.550333) (xy -7.125965 -0.559884)
    (xy -7.154182 -0.586192) (xy -7.184419 -0.625742) (xy -7.214644 -0.675017) (xy -7.242825 -0.730503)
    (xy -7.26693 -0.788683) (xy -7.284926 -0.846041) (xy -7.292111 -0.879563) (xy -7.29701 -0.925053)
    (xy -7.299844 -0.990084) (xy -7.300637 -1.073134) (xy -7.299412 -1.172682) (xy -7.296192 -1.287205)
    (xy -7.291 -1.415181) (xy -7.283861 -1.555089) (xy -7.280993 -1.605118) (xy -7.276344 -1.694398)
    (xy -7.274066 -1.766355) (xy -7.274148 -1.824698) (xy -7.276579 -1.873138) (xy -7.280141 -1.906743)
    (xy -7.285991 -1.942864) (xy -7.295255 -1.990885) (xy -7.306982 -2.04671) (xy -7.320215 -2.106243)
    (xy -7.334001 -2.165386) (xy -7.347386 -2.220043) (xy -7.359415 -2.266118) (xy -7.369135 -2.299515)
    (xy -7.375454 -2.315921) (xy -7.386787 -2.318851) (xy -7.41576 -2.318632) (xy -7.463148 -2.315206)
    (xy -7.529723 -2.308513) (xy -7.616261 -2.298495) (xy -7.636147 -2.296073) (xy -7.708264 -2.287126)
    (xy -7.774331 -2.278739) (xy -7.831131 -2.271335) (xy -7.875447 -2.265337) (xy -7.904063 -2.26117)
    (xy -7.912735 -2.25964) (xy -7.918796 -2.257924) (xy -7.923983 -2.254704) (xy -7.928443 -2.248308)
    (xy -7.932324 -2.237061) (xy -7.935774 -2.219289) (xy -7.93894 -2.19332) (xy -7.94197 -2.15748)
    (xy -7.945012 -2.110094) (xy -7.948212 -2.04949) (xy -7.95172 -1.973994) (xy -7.955682 -1.881931)
    (xy -7.960246 -1.77163) (xy -7.964091 -1.677458) (xy -7.971786 -1.495372) (xy -7.979225 -1.333461)
    (xy -7.986478 -1.190735) (xy -7.993616 -1.066207) (xy -8.00071 -0.958886) (xy -8.007831 -0.867785)
    (xy -8.015049 -0.791912) (xy -8.022434 -0.730281) (xy -8.030058 -0.681901) (xy -8.037716 -0.64682)
    (xy -8.053434 -0.597351) (xy -8.071799 -0.555284) (xy -8.090568 -0.524916) (xy -8.107498 -0.51055)
    (xy -8.108984 -0.510163) (xy -8.124886 -0.515695) (xy -8.147057 -0.533289) (xy -8.158387 -0.545106)
    (xy -8.188685 -0.58664) (xy -8.220824 -0.642433) (xy -8.251741 -0.706152) (xy -8.278371 -0.771465)
    (xy -8.29765 -0.832041) (xy -8.298093 -0.833759) (xy -8.311154 -0.899375) (xy -8.317099 -0.969196)
    (xy -8.315991 -1.047884) (xy -8.307894 -1.1401) (xy -8.30285 -1.180779) (xy -8.297029 -1.23468)
    (xy -8.291271 -1.306222) (xy -8.285731 -1.391881) (xy -8.280564 -1.488132) (xy -8.275927 -1.591449)
    (xy -8.271973 -1.698307) (xy -8.268859 -1.805182) (xy -8.266739 -1.908549) (xy -8.265769 -2.004882)
    (xy -8.265725 -2.023798) (xy -8.265584 -2.211388) (xy -8.294688 -2.206227) (xy -8.314896 -2.202848)
    (xy -8.351694 -2.196886) (xy -8.40076 -2.189035) (xy -8.457774 -2.179986) (xy -8.493125 -2.174409)
    (xy -8.551902 -2.164872) (xy -8.626255 -2.152369) (xy -8.710955 -2.137807) (xy -8.800768 -2.122089)
    (xy -8.890463 -2.106121) (xy -8.948209 -2.095675) (xy -9.074442 -2.072764) (xy -9.181509 -2.053551)
    (xy -9.271033 -2.03777) (xy -9.34464 -2.025156) (xy -9.403953 -2.015441) (xy -9.450599 -2.008359)
    (xy -9.486201 -2.003645) (xy -9.512385 -2.001031) (xy -9.530309 -2.00025) (xy -9.581819 -2.009595)
    (xy -9.639501 -2.036665) (xy -9.700553 -2.080018) (xy -9.723208 -2.099689) (xy -9.769515 -2.146694)
    (xy -9.797954 -2.187672) (xy -9.810068 -2.22503) (xy -9.81075 -2.236151) (xy -9.806896 -2.25432)
    (xy -9.793692 -2.267703) (xy -9.768677 -2.276935) (xy -9.729391 -2.28265) (xy -9.673373 -2.285484)
    (xy -9.617107 -2.286102) (xy -9.571645 -2.286509) (xy -9.526223 -2.287812) (xy -9.478956 -2.290236)
    (xy -9.427963 -2.294005) (xy -9.371359 -2.299342) (xy -9.307262 -2.306473) (xy -9.233788 -2.315622)
    (xy -9.149055 -2.327012) (xy -9.051179 -2.340869) (xy -8.938278 -2.357416) (xy -8.808468 -2.376878)
    (xy -8.659866 -2.399478) (xy -8.641297 -2.402318) (xy -8.329757 -2.449831) (xy -8.038595 -2.493925)
    (xy -7.767309 -2.53467) (xy -7.515402 -2.572133) (xy -7.282372 -2.606384) (xy -7.06772 -2.637492)
    (xy -6.870945 -2.665527) (xy -6.691548 -2.690556) (xy -6.52903 -2.71265) (xy -6.382889 -2.731877)
    (xy -6.252626 -2.748307) (xy -6.137742 -2.762007) (xy -6.037736 -2.773049) (xy -5.952109 -2.781499)
    (xy -5.880359 -2.787429) (xy -5.830889 -2.790489) (xy -5.732273 -2.791835) (xy -5.647217 -2.784418)) (layer F.Fab) (width 0.01))
  (fp_poly (pts (xy -9.026953 -1.674464) (xy -9.012795 -1.652085) (xy -8.997707 -1.618176) (xy -8.983739 -1.577252)
    (xy -8.97418 -1.539875) (xy -8.96579 -1.483409) (xy -8.961117 -1.414895) (xy -8.960095 -1.34095)
    (xy -8.962657 -1.26819) (xy -8.968739 -1.203233) (xy -8.978033 -1.153583) (xy -9.004017 -1.077669)
    (xy -9.041809 -0.995017) (xy -9.08759 -0.913169) (xy -9.135464 -0.842422) (xy -9.168609 -0.801069)
    (xy -9.21094 -0.752271) (xy -9.259235 -0.699346) (xy -9.310277 -0.645614) (xy -9.360844 -0.594393)
    (xy -9.407717 -0.549002) (xy -9.447677 -0.512761) (xy -9.477504 -0.488987) (xy -9.479943 -0.487332)
    (xy -9.518443 -0.464707) (xy -9.546152 -0.456453) (xy -9.56727 -0.461994) (xy -9.580231 -0.473604)
    (xy -9.599 -0.503088) (xy -9.612308 -0.543764) (xy -9.620688 -0.598427) (xy -9.624674 -0.669868)
    (xy -9.625178 -0.709083) (xy -9.624342 -0.775203) (xy -9.620406 -0.830847) (xy -9.61183 -0.879625)
    (xy -9.59707 -0.925144) (xy -9.574586 -0.971013) (xy -9.542835 -1.02084) (xy -9.500276 -1.078233)
    (xy -9.445367 -1.1468) (xy -9.430278 -1.1652) (xy -9.396722 -1.207084) (xy -9.354244 -1.261756)
    (xy -9.30622 -1.324773) (xy -9.256026 -1.391696) (xy -9.20704 -1.458084) (xy -9.194195 -1.475703)
    (xy -9.152437 -1.53276) (xy -9.114506 -1.583843) (xy -9.08225 -1.626526) (xy -9.057514 -1.658382)
    (xy -9.042146 -1.676984) (xy -9.038132 -1.680797) (xy -9.026953 -1.674464)) (layer F.Fab) (width 0.01))
  (fp_poly (pts (xy -14.397159 -1.105021) (xy -14.353384 -1.082672) (xy -14.341424 -1.074886) (xy -14.242099 -0.999044)
    (xy -14.146797 -0.90926) (xy -14.060914 -0.81119) (xy -13.989841 -0.710489) (xy -13.982666 -0.698669)
    (xy -13.933327 -0.600294) (xy -13.895079 -0.491733) (xy -13.869119 -0.378573) (xy -13.856643 -0.266404)
    (xy -13.858847 -0.160816) (xy -13.862002 -0.134925) (xy -13.875079 -0.071364) (xy -13.894405 -0.011223)
    (xy -13.918165 0.042081) (xy -13.944544 0.085129) (xy -13.971728 0.114507) (xy -13.997901 0.126796)
    (xy -14.0011 0.12696) (xy -14.020799 0.121675) (xy -14.047273 0.108786) (xy -14.050881 0.106643)
    (xy -14.079837 0.082084) (xy -14.114813 0.041231) (xy -14.153513 -0.012743) (xy -14.193642 -0.076665)
    (xy -14.228308 -0.138614) (xy -14.259172 -0.202762) (xy -14.289997 -0.277629) (xy -14.320193 -0.360718)
    (xy -14.349172 -0.449531) (xy -14.376343 -0.541572) (xy -14.401119 -0.634343) (xy -14.422909 -0.725346)
    (xy -14.441126 -0.812085) (xy -14.45518 -0.892062) (xy -14.464483 -0.962781) (xy -14.468444 -1.021743)
    (xy -14.466475 -1.066451) (xy -14.457988 -1.094409) (xy -14.454717 -1.09855) (xy -14.43052 -1.110227)
    (xy -14.397159 -1.105021)) (layer F.Fab) (width 0.01))
  (fp_poly (pts (xy 13.499004 -0.526821) (xy 13.557941 -0.523351) (xy 13.606227 -0.517374) (xy 13.652722 -0.50721)
    (xy 13.706289 -0.491181) (xy 13.731875 -0.482685) (xy 13.806743 -0.455735) (xy 13.866119 -0.429948)
    (xy 13.91528 -0.402412) (xy 13.959506 -0.370214) (xy 13.998866 -0.335399) (xy 14.06561 -0.258033)
    (xy 14.115193 -0.168726) (xy 14.146955 -0.068789) (xy 14.154731 -0.024632) (xy 14.15619 0.042957)
    (xy 14.144594 0.115662) (xy 14.12198 0.187371) (xy 14.090382 0.251969) (xy 14.051835 0.303346)
    (xy 14.042551 0.312333) (xy 14.010265 0.337865) (xy 13.98367 0.347344) (xy 13.955751 0.341648)
    (xy 13.927666 0.326705) (xy 13.891536 0.299597) (xy 13.84495 0.256132) (xy 13.789129 0.197608)
    (xy 13.72529 0.125325) (xy 13.654653 0.040581) (xy 13.627285 0.006636) (xy 13.537745 -0.106984)
    (xy 13.462832 -0.205583) (xy 13.402432 -0.289332) (xy 13.356432 -0.358397) (xy 13.324718 -0.41295)
    (xy 13.307175 -0.453158) (xy 13.30325 -0.473976) (xy 13.3112 -0.497244) (xy 13.335724 -0.513795)
    (xy 13.377832 -0.523902) (xy 13.438536 -0.527839) (xy 13.499004 -0.526821)) (layer F.Fab) (width 0.01))
  (fp_poly (pts (xy -15.345244 -0.624778) (xy -15.29108 -0.60085) (xy -15.282526 -0.596611) (xy -15.205949 -0.549279)
    (xy -15.129637 -0.485316) (xy -15.057997 -0.408849) (xy -15.001676 -0.333532) (xy -14.94943 -0.247972)
    (xy -14.899121 -0.152436) (xy -14.852636 -0.051558) (xy -14.811864 0.050032) (xy -14.778693 0.147701)
    (xy -14.755012 0.236819) (xy -14.74431 0.297693) (xy -14.73948 0.376234) (xy -14.74287 0.458938)
    (xy -14.753564 0.54171) (xy -14.770646 0.620458) (xy -14.793199 0.691089) (xy -14.820307 0.74951)
    (xy -14.851054 0.791628) (xy -14.855905 0.79627) (xy -14.884775 0.812759) (xy -14.920479 0.821265)
    (xy -14.951878 0.819278) (xy -14.95425 0.818445) (xy -14.985746 0.798947) (xy -15.017747 0.764274)
    (xy -15.050645 0.713584) (xy -15.084835 0.646033) (xy -15.120709 0.560779) (xy -15.15866 0.456977)
    (xy -15.199082 0.333786) (xy -15.234382 0.21759) (xy -15.258569 0.133603) (xy -15.283902 0.042056)
    (xy -15.309509 -0.053586) (xy -15.334518 -0.149855) (xy -15.358056 -0.243286) (xy -15.37925 -0.330412)
    (xy -15.397227 -0.407766) (xy -15.411116 -0.471883) (xy -15.420043 -0.519295) (xy -15.420329 -0.521072)
    (xy -15.42627 -0.574411) (xy -15.423274 -0.610605) (xy -15.409799 -0.630501) (xy -15.384303 -0.634944)
    (xy -15.345244 -0.624778)) (layer F.Fab) (width 0.01))
  (fp_poly (pts (xy 12.593083 -2.427553) (xy 12.644564 -2.409073) (xy 12.705573 -2.380772) (xy 12.772895 -2.344692)
    (xy 12.843318 -2.302878) (xy 12.913627 -2.257373) (xy 12.980608 -2.210221) (xy 13.041048 -2.163466)
    (xy 13.091733 -2.119151) (xy 13.12945 -2.07932) (xy 13.144081 -2.059135) (xy 13.158305 -2.034284)
    (xy 13.161731 -2.016812) (xy 13.154893 -1.99622) (xy 13.148013 -1.981924) (xy 13.129006 -1.954521)
    (xy 13.098954 -1.922875) (xy 13.069077 -1.89751) (xy 13.029191 -1.86128) (xy 12.993014 -1.814628)
    (xy 12.959248 -1.755134) (xy 12.926597 -1.68038) (xy 12.893764 -1.587947) (xy 12.880193 -1.545167)
    (xy 12.843405 -1.426351) (xy 12.811713 -1.325027) (xy 12.784176 -1.238397) (xy 12.759858 -1.163664)
    (xy 12.737818 -1.098032) (xy 12.71712 -1.038701) (xy 12.696823 -0.982877) (xy 12.67599 -0.927761)
    (xy 12.654696 -0.873125) (xy 12.624217 -0.798887) (xy 12.58724 -0.713572) (xy 12.547186 -0.624799)
    (xy 12.507477 -0.540189) (xy 12.479944 -0.483975) (xy 12.380312 -0.285325) (xy 12.40802 -0.251142)
    (xy 12.426452 -0.228635) (xy 12.454201 -0.195032) (xy 12.487008 -0.155478) (xy 12.510708 -0.127)
    (xy 12.5456 -0.083092) (xy 12.586883 -0.027974) (xy 12.629661 0.031653) (xy 12.669039 0.089092)
    (xy 12.673126 0.09525) (xy 12.769671 0.248045) (xy 12.849456 0.389118) (xy 12.912809 0.519245)
    (xy 12.960055 0.639199) (xy 12.991519 0.749753) (xy 13.007529 0.851683) (xy 13.009766 0.894292)
    (xy 13.005667 0.965366) (xy 12.990026 1.019341) (xy 12.962192 1.057263) (xy 12.921517 1.080182)
    (xy 12.890185 1.087234) (xy 12.870968 1.089291) (xy 12.855435 1.087891) (xy 12.839853 1.080649)
    (xy 12.820486 1.065185) (xy 12.793599 1.039115) (xy 12.758582 1.003272) (xy 12.723341 0.964802)
    (xy 12.679778 0.91389) (xy 12.631842 0.855344) (xy 12.58348 0.793969) (xy 12.545406 0.743734)
    (xy 12.458972 0.627281) (xy 12.384271 0.526736) (xy 12.320455 0.440983) (xy 12.266678 0.368905)
    (xy 12.222093 0.309388) (xy 12.185854 0.261315) (xy 12.157113 0.223571) (xy 12.135023 0.195039)
    (xy 12.118739 0.174604) (xy 12.107412 0.16115) (xy 12.100197 0.153562) (xy 12.096247 0.150723)
    (xy 12.095348 0.150682) (xy 12.086798 0.159651) (xy 12.067831 0.182741) (xy 12.040693 0.217115)
    (xy 12.007634 0.259934) (xy 11.979966 0.296333) (xy 11.901944 0.398027) (xy 11.828483 0.490015)
    (xy 11.755931 0.576462) (xy 11.680637 0.661533) (xy 11.598949 0.74939) (xy 11.507217 0.844199)
    (xy 11.441055 0.910944) (xy 11.328746 1.020106) (xy 11.211985 1.12747) (xy 11.09334 1.230972)
    (xy 10.975378 1.328545) (xy 10.860666 1.418127) (xy 10.751773 1.497651) (xy 10.651266 1.565052)
    (xy 10.561712 1.618268) (xy 10.561042 1.618633) (xy 10.512366 1.643797) (xy 10.478833 1.657377)
    (xy 10.458123 1.659746) (xy 10.447915 1.651278) (xy 10.44575 1.637197) (xy 10.450947 1.612725)
    (xy 10.467038 1.580033) (xy 10.494767 1.538174) (xy 10.534879 1.486204) (xy 10.58812 1.423175)
    (xy 10.655235 1.348142) (xy 10.736968 1.260159) (xy 10.771973 1.223179) (xy 10.9855 0.988628)
    (xy 11.199525 0.733637) (xy 11.414284 0.457919) (xy 11.510443 0.328083) (xy 11.55649 0.264293)
    (xy 11.603912 0.197381) (xy 11.651118 0.129713) (xy 11.696514 0.063655) (xy 11.738509 0.001574)
    (xy 11.77551 -0.054164) (xy 11.805925 -0.101192) (xy 11.82816 -0.137144) (xy 11.840624 -0.159654)
    (xy 11.84275 -0.165699) (xy 11.836259 -0.177057) (xy 11.817905 -0.202531) (xy 11.789362 -0.239966)
    (xy 11.752307 -0.287207) (xy 11.708415 -0.3421) (xy 11.659361 -0.40249) (xy 11.644674 -0.420401)
    (xy 11.540902 -0.546723) (xy 11.449594 -0.657949) (xy 11.369747 -0.755317) (xy 11.30036 -0.840063)
    (xy 11.240429 -0.913423) (xy 11.188952 -0.976632) (xy 11.144928 -1.030927) (xy 11.107353 -1.077544)
    (xy 11.075225 -1.117718) (xy 11.047542 -1.152687) (xy 11.023302 -1.183686) (xy 11.001501 -1.211952)
    (xy 10.981889 -1.237728) (xy 10.949065 -1.282148) (xy 10.921447 -1.321455) (xy 10.901349 -1.352202)
    (xy 10.891089 -1.370942) (xy 10.89025 -1.374104) (xy 10.899112 -1.384009) (xy 10.923662 -1.385073)
    (xy 10.960838 -1.378286) (xy 11.007584 -1.364638) (xy 11.06084 -1.345119) (xy 11.117547 -1.32072)
    (xy 11.174647 -1.292429) (xy 11.217872 -1.268069) (xy 11.26717 -1.236351) (xy 11.329585 -1.192745)
    (xy 11.402395 -1.139398) (xy 11.482877 -1.078463) (xy 11.56831 -1.01209) (xy 11.655971 -0.942428)
    (xy 11.743137 -0.871629) (xy 11.827086 -0.801842) (xy 11.905095 -0.735218) (xy 11.974442 -0.673907)
    (xy 12.001992 -0.648721) (xy 12.031945 -0.622142) (xy 12.056588 -0.602379) (xy 12.071424 -0.592988)
    (xy 12.072879 -0.592667) (xy 12.082689 -0.602201) (xy 12.09821 -0.628901) (xy 12.118279 -0.669916)
    (xy 12.141731 -0.722391) (xy 12.167402 -0.783475) (xy 12.19413 -0.850315) (xy 12.220749 -0.920059)
    (xy 12.246096 -0.989853) (xy 12.269006 -1.056846) (xy 12.288317 -1.118184) (xy 12.290949 -1.127125)
    (xy 12.305194 -1.178255) (xy 12.322512 -1.243906) (xy 12.34198 -1.320242) (xy 12.362673 -1.403426)
    (xy 12.383668 -1.489625) (xy 12.404042 -1.575001) (xy 12.42287 -1.65572) (xy 12.439229 -1.727945)
    (xy 12.452196 -1.787842) (xy 12.460847 -1.831574) (xy 12.461577 -1.8357) (xy 12.470089 -1.889504)
    (xy 12.471685 -1.925443) (xy 12.463606 -1.946402) (xy 12.443093 -1.955272) (xy 12.407386 -1.954938)
    (xy 12.353978 -1.948325) (xy 12.315136 -1.941648) (xy 12.260575 -1.930499) (xy 12.195009 -1.915936)
    (xy 12.123152 -1.899011) (xy 12.049717 -1.880781) (xy 12.03325 -1.876553) (xy 11.890733 -1.839702)
    (xy 11.7672 -1.807791) (xy 11.661123 -1.780526) (xy 11.570975 -1.757614) (xy 11.495232 -1.738761)
    (xy 11.432365 -1.723674) (xy 11.380849 -1.712058) (xy 11.339157 -1.703621) (xy 11.305763 -1.698067)
    (xy 11.27914 -1.695105) (xy 11.257761 -1.694439) (xy 11.240101 -1.695777) (xy 11.224632 -1.698825)
    (xy 11.209829 -1.703288) (xy 11.194164 -1.708874) (xy 11.182854 -1.712947) (xy 11.140218 -1.73105)
    (xy 11.089442 -1.757145) (xy 11.036565 -1.787645) (xy 10.987628 -1.818965) (xy 10.94867 -1.847519)
    (xy 10.93334 -1.861086) (xy 10.916893 -1.878956) (xy 10.914795 -1.889548) (xy 10.925874 -1.899979)
    (xy 10.926832 -1.900681) (xy 10.948896 -1.910659) (xy 10.981575 -1.919084) (xy 10.994866 -1.921256)
    (xy 11.030015 -1.926827) (xy 11.082361 -1.936265) (xy 11.148433 -1.948855) (xy 11.224763 -1.963883)
    (xy 11.307883 -1.980634) (xy 11.394322 -1.998395) (xy 11.480612 -2.016451) (xy 11.563283 -2.034089)
    (xy 11.638867 -2.050593) (xy 11.703895 -2.065251) (xy 11.754897 -2.077347) (xy 11.763375 -2.079463)
    (xy 11.901075 -2.11603) (xy 12.019556 -2.151534) (xy 12.120686 -2.186758) (xy 12.206331 -2.222482)
    (xy 12.278359 -2.25949) (xy 12.338637 -2.298564) (xy 12.389032 -2.340486) (xy 12.391055 -2.342411)
    (xy 12.433081 -2.381565) (xy 12.465084 -2.407799) (xy 12.491528 -2.423624) (xy 12.51688 -2.431548)
    (xy 12.545607 -2.434081) (xy 12.554343 -2.434167) (xy 12.593083 -2.427553)) (layer F.Fab) (width 0.01))
  (fp_poly (pts (xy -1.809036 -1.634119) (xy -1.786974 -1.628201) (xy -1.748563 -1.612151) (xy -1.699971 -1.585148)
    (xy -1.646434 -1.550745) (xy -1.59319 -1.512493) (xy -1.545474 -1.473943) (xy -1.510306 -1.44057)
    (xy -1.47916 -1.401451) (xy -1.462938 -1.364408) (xy -1.462146 -1.326629) (xy -1.477293 -1.285302)
    (xy -1.508887 -1.237616) (xy -1.557141 -1.181079) (xy -1.597734 -1.131608) (xy -1.632316 -1.077187)
    (xy -1.662138 -1.014695) (xy -1.688452 -0.941009) (xy -1.712509 -0.853007) (xy -1.735561 -0.747569)
    (xy -1.739997 -0.724958) (xy -1.752135 -0.65614) (xy -1.764765 -0.573602) (xy -1.777656 -0.479803)
    (xy -1.790577 -0.377198) (xy -1.803296 -0.268246) (xy -1.815581 -0.155402) (xy -1.827201 -0.041123)
    (xy -1.837925 0.072133) (xy -1.84752 0.181909) (xy -1.855756 0.285749) (xy -1.862401 0.381197)
    (xy -1.867222 0.465794) (xy -1.86999 0.537084) (xy -1.870471 0.592611) (xy -1.868435 0.629917)
    (xy -1.867993 0.633166) (xy -1.860996 0.679831) (xy -1.822144 0.673854) (xy -1.792767 0.665284)
    (xy -1.74703 0.646491) (xy -1.686615 0.618322) (xy -1.613204 0.581624) (xy -1.528478 0.537243)
    (xy -1.434119 0.486026) (xy -1.331807 0.428821) (xy -1.30175 0.411724) (xy -1.163075 0.33355)
    (xy -1.041491 0.267124) (xy -0.937044 0.212466) (xy -0.849778 0.169594) (xy -0.77974 0.138528)
    (xy -0.726975 0.119286) (xy -0.691528 0.111887) (xy -0.673444 0.11635) (xy -0.67277 0.132693)
    (xy -0.686382 0.156594) (xy -0.708698 0.183292) (xy -0.745356 0.221497) (xy -0.794317 0.269317)
    (xy -0.853539 0.324856) (xy -0.920982 0.386223) (xy -0.994605 0.451522) (xy -1.072367 0.51886)
    (xy -1.124148 0.562812) (xy -1.267682 0.684093) (xy -1.395668 0.793244) (xy -1.509163 0.891262)
    (xy -1.609222 0.979146) (xy -1.6969 1.057895) (xy -1.773252 1.128508) (xy -1.839334 1.191982)
    (xy -1.896201 1.249316) (xy -1.944908 1.30151) (xy -1.986512 1.349561) (xy -2.022067 1.394468)
    (xy -2.052629 1.43723) (xy -2.059987 1.448272) (xy -2.117856 1.531991) (xy -2.168616 1.595995)
    (xy -2.212426 1.640449) (xy -2.249444 1.665517) (xy -2.275417 1.671713) (xy -2.295843 1.667394)
    (xy -2.323069 1.657498) (xy -2.323683 1.657231) (xy -2.357527 1.634694) (xy -2.396227 1.596218)
    (xy -2.437084 1.545638) (xy -2.477399 1.486787) (xy -2.514472 1.423499) (xy -2.545605 1.359609)
    (xy -2.561342 1.319671) (xy -2.579257 1.252903) (xy -2.581358 1.194828) (xy -2.567217 1.139599)
    (xy -2.544871 1.095134) (xy -2.520304 1.056868) (xy -2.487929 1.010756) (xy -2.45363 0.965089)
    (xy -2.443671 0.9525) (xy -2.370069 0.845655) (xy -2.314308 0.731549) (xy -2.277967 0.613478)
    (xy -2.27531 0.600825) (xy -2.270031 0.56889) (xy -2.263181 0.518709) (xy -2.255083 0.453116)
    (xy -2.246061 0.374948) (xy -2.236438 0.287039) (xy -2.226537 0.192224) (xy -2.216682 0.09334)
    (xy -2.212791 0.052917) (xy -2.195895 -0.126113) (xy -2.181245 -0.285169) (xy -2.168784 -0.425315)
    (xy -2.158454 -0.54762) (xy -2.1502 -0.653149) (xy -2.143962 -0.742969) (xy -2.139685 -0.818146)
    (xy -2.137312 -0.879746) (xy -2.136784 -0.928835) (xy -2.138046 -0.966481) (xy -2.14104 -0.993748)
    (xy -2.145709 -1.011704) (xy -2.151996 -1.021415) (xy -2.155166 -1.023315) (xy -2.177892 -1.023934)
    (xy -2.217842 -1.01579) (xy -2.273237 -0.999451) (xy -2.342303 -0.975483) (xy -2.423262 -0.944454)
    (xy -2.497667 -0.913975) (xy -2.624919 -0.861091) (xy -2.73484 -0.816817) (xy -2.82918 -0.780592)
    (xy -2.909685 -0.751858) (xy -2.978105 -0.730058) (xy -3.036188 -0.714632) (xy -3.085682 -0.705022)
    (xy -3.128335 -0.70067) (xy -3.164604 -0.700929) (xy -3.242226 -0.716423) (xy -3.321004 -0.75239)
    (xy -3.399853 -0.808255) (xy -3.444573 -0.84894) (xy -3.489131 -0.895853) (xy -3.518678 -0.935054)
    (xy -3.532453 -0.967318) (xy -3.529694 -0.993417) (xy -3.509644 -1.014127) (xy -3.47154 -1.030221)
    (xy -3.414624 -1.042471) (xy -3.338134 -1.051653) (xy -3.241311 -1.05854) (xy -3.2385 -1.058697)
    (xy -3.121753 -1.068346) (xy -3.008444 -1.084729) (xy -2.894325 -1.108877) (xy -2.775146 -1.141822)
    (xy -2.646659 -1.184595) (xy -2.513542 -1.234707) (xy -2.407594 -1.27824) (xy -2.317488 -1.319818)
    (xy -2.238431 -1.362208) (xy -2.165633 -1.408178) (xy -2.094303 -1.460496) (xy -2.026709 -1.515884)
    (xy -1.984496 -1.549931) (xy -1.941178 -1.581622) (xy -1.903344 -1.606267) (xy -1.887515 -1.614993)
    (xy -1.854798 -1.630037) (xy -1.83163 -1.636019) (xy -1.809036 -1.634119)) (layer F.Fab) (width 0.01))
  (fp_poly (pts (xy -12.873897 -1.533813) (xy -12.798697 -1.510013) (xy -12.721533 -1.475991) (xy -12.634236 -1.430127)
    (xy -12.561065 -1.384692) (xy -12.503368 -1.340797) (xy -12.462494 -1.299555) (xy -12.439792 -1.262078)
    (xy -12.435417 -1.239961) (xy -12.439957 -1.208987) (xy -12.453424 -1.159544) (xy -12.475584 -1.092243)
    (xy -12.506208 -1.007699) (xy -12.545063 -0.906524) (xy -12.591918 -0.789332) (xy -12.646541 -0.656736)
    (xy -12.708701 -0.50935) (xy -12.731005 -0.457157) (xy -12.83083 -0.230376) (xy -12.934234 -0.007897)
    (xy -13.042919 0.213563) (xy -13.158592 0.437288) (xy -13.282954 0.666563) (xy -13.41771 0.904672)
    (xy -13.564564 1.1549) (xy -13.585429 1.189821) (xy -13.624678 1.255611) (xy -13.65997 1.315208)
    (xy -13.689947 1.366286) (xy -13.713256 1.40652) (xy -13.728538 1.433583) (xy -13.734438 1.44515)
    (xy -13.734443 1.445397) (xy -13.723677 1.444857) (xy -13.694831 1.442062) (xy -13.650837 1.437331)
    (xy -13.594624 1.430986) (xy -13.529123 1.423349) (xy -13.483167 1.417869) (xy -13.358599 1.403256)
    (xy -13.226987 1.388479) (xy -13.092509 1.373967) (xy -12.959346 1.360147) (xy -12.831679 1.347446)
    (xy -12.713688 1.336292) (xy -12.609554 1.327113) (xy -12.546542 1.322047) (xy -12.419884 1.315591)
    (xy -12.310372 1.317608) (xy -12.215355 1.329085) (xy -12.132178 1.351014) (xy -12.058188 1.384383)
    (xy -11.990733 1.430182) (xy -11.92716 1.4894) (xy -11.864814 1.563028) (xy -11.850767 1.58157)
    (xy -11.80396 1.647241) (xy -11.771665 1.69947) (xy -11.753336 1.739688) (xy -11.748427 1.769329)
    (xy -11.756392 1.789826) (xy -11.767971 1.798794) (xy -11.791541 1.80479) (xy -11.832996 1.808261)
    (xy -11.889211 1.809243) (xy -11.957059 1.807773) (xy -12.033415 1.803887) (xy -12.115153 1.797621)
    (xy -12.149667 1.794355) (xy -12.275236 1.783196) (xy -12.40831 1.774187) (xy -12.551033 1.767266)
    (xy -12.70555 1.76237) (xy -12.874006 1.759436) (xy -13.058545 1.758402) (xy -13.261312 1.759207)
    (xy -13.334005 1.759879) (xy -13.443055 1.761237) (xy -13.550223 1.762978) (xy -13.652731 1.765032)
    (xy -13.7478 1.767324) (xy -13.832652 1.769782) (xy -13.904509 1.772333) (xy -13.960591 1.774904)
    (xy -13.996459 1.777275) (xy -14.157775 1.793224) (xy -14.331655 1.814298) (xy -14.519479 1.840707)
    (xy -14.722625 1.872665) (xy -14.942472 1.910383) (xy -15.180398 1.954073) (xy -15.317791 1.9804)
    (xy -15.43097 2.002079) (xy -15.525724 2.019416) (xy -15.604301 2.032599) (xy -15.668952 2.041815)
    (xy -15.721928 2.047253) (xy -15.765478 2.049099) (xy -15.801853 2.047543) (xy -15.833303 2.042771)
    (xy -15.862077 2.034971) (xy -15.882573 2.027517) (xy -15.958087 1.995303) (xy -16.031199 1.959783)
    (xy -16.09936 1.922599) (xy -16.16002 1.885394) (xy -16.210629 1.84981) (xy -16.248637 1.817492)
    (xy -16.271495 1.79008) (xy -16.277167 1.773305) (xy -16.276726 1.767205) (xy -16.273875 1.762149)
    (xy -16.266327 1.757723) (xy -16.251794 1.753512) (xy -16.227986 1.749104) (xy -16.192616 1.744084)
    (xy -16.143395 1.738038) (xy -16.078034 1.730553) (xy -15.994246 1.721216) (xy -15.980834 1.719728)
    (xy -15.911379 1.711891) (xy -15.823536 1.701761) (xy -15.719922 1.689655) (xy -15.603154 1.675885)
    (xy -15.475849 1.660769) (xy -15.340625 1.644619) (xy -15.200098 1.627751) (xy -15.056886 1.61048)
    (xy -14.913607 1.59312) (xy -14.772876 1.575986) (xy -14.637312 1.559393) (xy -14.509532 1.543655)
    (xy -14.392152 1.529088) (xy -14.307271 1.51846) (xy -14.2309 1.508884) (xy -14.161444 1.500235)
    (xy -14.101656 1.492853) (xy -14.054291 1.487075) (xy -14.022102 1.483239) (xy -14.007843 1.481684)
    (xy -14.007477 1.481667) (xy -14.001088 1.472487) (xy -13.986788 1.446498) (xy -13.965718 1.406026)
    (xy -13.939016 1.353395) (xy -13.907823 1.290931) (xy -13.873278 1.220959) (xy -13.83652 1.145806)
    (xy -13.798689 1.067795) (xy -13.760926 0.989252) (xy -13.724369 0.912503) (xy -13.690157 0.839873)
    (xy -13.659432 0.773688) (xy -13.644412 0.740833) (xy -13.498527 0.406113) (xy -13.369739 0.08203)
    (xy -13.257619 -0.232646) (xy -13.161737 -0.539145) (xy -13.081662 -0.838695) (xy -13.059754 -0.931333)
    (xy -13.034723 -1.049026) (xy -13.01789 -1.148342) (xy -13.009198 -1.230398) (xy -13.008591 -1.296308)
    (xy -13.016012 -1.347188) (xy -13.031407 -1.384152) (xy -13.036575 -1.391452) (xy -13.056394 -1.429675)
    (xy -13.058682 -1.468027) (xy -13.043627 -1.501281) (xy -13.032302 -1.512371) (xy -12.989572 -1.53486)
    (xy -12.937146 -1.542051) (xy -12.873897 -1.533813)) (layer F.Fab) (width 0.01))
  (fp_poly (pts (xy 4.630208 0.566923) (xy 4.707493 0.572136) (xy 4.77511 0.587875) (xy 4.836951 0.616165)
    (xy 4.896906 0.659034) (xy 4.958868 0.718508) (xy 4.992092 0.755423) (xy 5.055291 0.841742)
    (xy 5.103821 0.939064) (xy 5.134632 1.031875) (xy 5.14564 1.087031) (xy 5.15363 1.1566)
    (xy 5.15854 1.235166) (xy 5.160308 1.317315) (xy 5.158873 1.397634) (xy 5.154172 1.470709)
    (xy 5.146143 1.531126) (xy 5.140631 1.55575) (xy 5.115218 1.630732) (xy 5.078569 1.714023)
    (xy 5.034079 1.798636) (xy 4.98514 1.877582) (xy 4.982261 1.881805) (xy 4.94237 1.934035)
    (xy 4.88885 1.995407) (xy 4.825174 2.062594) (xy 4.754815 2.132266) (xy 4.681248 2.201096)
    (xy 4.607945 2.265754) (xy 4.53838 2.322913) (xy 4.476027 2.369244) (xy 4.467542 2.375033)
    (xy 4.414271 2.403774) (xy 4.368995 2.412921) (xy 4.331718 2.402475) (xy 4.316897 2.390731)
    (xy 4.300691 2.365747) (xy 4.300936 2.336923) (xy 4.31094 2.306119) (xy 4.329927 2.275493)
    (xy 4.360504 2.241985) (xy 4.405281 2.202533) (xy 4.437276 2.176901) (xy 4.554195 2.074885)
    (xy 4.654646 1.965264) (xy 4.737322 1.84976) (xy 4.800917 1.730096) (xy 4.827575 1.662297)
    (xy 4.844545 1.600249) (xy 4.855649 1.532508) (xy 4.861141 1.462378) (xy 4.861278 1.393167)
    (xy 4.856313 1.328178) (xy 4.846504 1.270719) (xy 4.832104 1.224093) (xy 4.81337 1.191608)
    (xy 4.790556 1.176568) (xy 4.790042 1.176464) (xy 4.771323 1.179067) (xy 4.740691 1.189417)
    (xy 4.705949 1.204727) (xy 4.658789 1.224296) (xy 4.605838 1.241138) (xy 4.572184 1.248939)
    (xy 4.486942 1.256816) (xy 4.41361 1.247411) (xy 4.351394 1.220371) (xy 4.299498 1.175344)
    (xy 4.257127 1.111976) (xy 4.255205 1.108242) (xy 4.236308 1.068697) (xy 4.225271 1.03658)
    (xy 4.219998 1.002871) (xy 4.218396 0.958555) (xy 4.218338 0.949492) (xy 4.219517 0.899164)
    (xy 4.224602 0.861231) (xy 4.235184 0.827051) (xy 4.245037 0.804308) (xy 4.288513 0.734555)
    (xy 4.349531 0.672127) (xy 4.424905 0.620053) (xy 4.455522 0.604147) (xy 4.496131 0.585596)
    (xy 4.527969 0.57438) (xy 4.559298 0.568739) (xy 4.598376 0.566912) (xy 4.630208 0.566923)) (layer F.Fab) (width 0.01))
  (fp_poly (pts (xy -6.889971 -0.445558) (xy -6.860978 -0.433314) (xy -6.821876 -0.414219) (xy -6.754403 -0.378393)
    (xy -6.686002 -0.338063) (xy -6.619193 -0.295119) (xy -6.556497 -0.25145) (xy -6.500436 -0.208945)
    (xy -6.453531 -0.169495) (xy -6.418302 -0.134987) (xy -6.397273 -0.107313) (xy -6.392334 -0.092319)
    (xy -6.401732 -0.068026) (xy -6.42805 -0.0386) (xy -6.468469 -0.006558) (xy -6.520175 0.025585)
    (xy -6.530651 0.031287) (xy -6.613965 0.085605) (xy -6.684947 0.154083) (xy -6.746717 0.239748)
    (xy -6.748334 0.242406) (xy -6.781161 0.293996) (xy -6.824743 0.358599) (xy -6.876664 0.432946)
    (xy -6.934508 0.513769) (xy -6.995858 0.597798) (xy -7.058299 0.681767) (xy -7.119414 0.762404)
    (xy -7.176786 0.836443) (xy -7.228 0.900614) (xy -7.270638 0.951648) (xy -7.283075 0.965786)
    (xy -7.308306 0.994989) (xy -7.326141 1.017672) (xy -7.333449 1.029794) (xy -7.333312 1.030663)
    (xy -7.317901 1.040932) (xy -7.285709 1.059521) (xy -7.2389 1.085315) (xy -7.17964 1.1172)
    (xy -7.110096 1.154061) (xy -7.032432 1.194783) (xy -6.948815 1.238252) (xy -6.861409 1.283352)
    (xy -6.772381 1.32897) (xy -6.683897 1.373989) (xy -6.598122 1.417297) (xy -6.517221 1.457777)
    (xy -6.44336 1.494315) (xy -6.378706 1.525797) (xy -6.325423 1.551107) (xy -6.296146 1.564513)
    (xy -6.156733 1.624107) (xy -6.014273 1.679323) (xy -5.866034 1.730987) (xy -5.709285 1.779922)
    (xy -5.541296 1.826951) (xy -5.359333 1.8729) (xy -5.160667 1.918591) (xy -5.027084 1.947325)
    (xy -4.8769 1.979489) (xy -4.74709 2.008604) (xy -4.637106 2.034819) (xy -4.546399 2.05828)
    (xy -4.474419 2.079135) (xy -4.420616 2.097532) (xy -4.384443 2.113617) (xy -4.368612 2.124199)
    (xy -4.356475 2.14306) (xy -4.360433 2.159185) (xy -4.382207 2.18242) (xy -4.422861 2.208142)
    (xy -4.480345 2.235681) (xy -4.55261 2.264371) (xy -4.637605 2.293541) (xy -4.73328 2.322523)
    (xy -4.837586 2.35065) (xy -4.948471 2.377252) (xy -5.063887 2.40166) (xy -5.157092 2.418983)
    (xy -5.2384 2.431086) (xy -5.326926 2.440704) (xy -5.418636 2.447705) (xy -5.509491 2.451958)
    (xy -5.595456 2.453333) (xy -5.672496 2.4517) (xy -5.736573 2.446927) (xy -5.782327 2.439224)
    (xy -5.831481 2.424609) (xy -5.880443 2.405022) (xy -5.932391 2.378687) (xy -5.990502 2.343827)
    (xy -6.057954 2.298667) (xy -6.137925 2.241429) (xy -6.143625 2.237253) (xy -6.214004 2.185748)
    (xy -6.295409 2.126363) (xy -6.385753 2.060607) (xy -6.482948 1.989992) (xy -6.584905 1.916026)
    (xy -6.689536 1.840219) (xy -6.794753 1.764081) (xy -6.898468 1.689122) (xy -6.998593 1.616851)
    (xy -7.093038 1.548779) (xy -7.179717 1.486414) (xy -7.25654 1.431267) (xy -7.32142 1.384847)
    (xy -7.372268 1.348665) (xy -7.390857 1.335533) (xy -7.558588 1.217453) (xy -7.618399 1.263115)
    (xy -7.782219 1.378018) (xy -7.964671 1.487224) (xy -8.163772 1.589831) (xy -8.377537 1.684939)
    (xy -8.603983 1.771646) (xy -8.841126 1.849051) (xy -9.017 1.898418) (xy -9.10886 1.921401)
    (xy -9.208968 1.944511) (xy -9.314896 1.967338) (xy -9.424211 1.989473) (xy -9.534483 2.010506)
    (xy -9.643283 2.030028) (xy -9.748178 2.047629) (xy -9.846739 2.062899) (xy -9.936534 2.075429)
    (xy -10.015134 2.084809) (xy -10.080107 2.09063) (xy -10.129023 2.092482) (xy -10.156882 2.090499)
    (xy -10.182964 2.081847) (xy -10.190504 2.069063) (xy -10.179287 2.052049) (xy -10.149101 2.030709)
    (xy -10.099732 2.004943) (xy -10.030966 1.974654) (xy -9.942591 1.939745) (xy -9.834392 1.900116)
    (xy -9.706158 1.855671) (xy -9.557673 1.806312) (xy -9.487959 1.783685) (xy -9.291017 1.719425)
    (xy -9.112905 1.659585) (xy -8.951936 1.603386) (xy -8.806422 1.550047) (xy -8.674675 1.498788)
    (xy -8.555008 1.44883) (xy -8.445733 1.399392) (xy -8.345163 1.349694) (xy -8.251609 1.298957)
    (xy -8.163385 1.246401) (xy -8.078802 1.191244) (xy -7.996174 1.132709) (xy -7.913812 1.070013)
    (xy -7.872334 1.036968) (xy -7.865642 1.030024) (xy -7.865239 1.02251) (xy -7.873408 1.012417)
    (xy -7.892435 0.997739) (xy -7.924602 0.976468) (xy -7.972195 0.946597) (xy -7.982277 0.940337)
    (xy -8.059861 0.892691) (xy -8.128574 0.851793) (xy -8.192806 0.815324) (xy -8.256947 0.780964)
    (xy -8.325386 0.746395) (xy -8.402514 0.709298) (xy -8.49272 0.667353) (xy -8.540063 0.64568)
    (xy -8.627668 0.605768) (xy -8.698805 0.573751) (xy -8.756276 0.548757) (xy -8.80288 0.529918)
    (xy -8.841416 0.516364) (xy -8.874687 0.507224) (xy -8.90549 0.501629) (xy -8.936627 0.498709)
    (xy -8.970897 0.497595) (xy -9.0111 0.497416) (xy -9.01737 0.497417) (xy -9.072215 0.497052)
    (xy -9.110044 0.495565) (xy -9.135 0.492366) (xy -9.151227 0.486868) (xy -9.162869 0.478481)
    (xy -9.164977 0.47644) (xy -9.178082 0.453589) (xy -9.174885 0.42581) (xy -9.154692 0.391184)
    (xy -9.119573 0.350654) (xy -9.05639 0.298608) (xy -8.986118 0.266415) (xy -8.909345 0.254202)
    (xy -8.826661 0.262097) (xy -8.775681 0.276124) (xy -8.738983 0.29044) (xy -8.686054 0.313831)
    (xy -8.619191 0.345141) (xy -8.540692 0.383214) (xy -8.452857 0.426895) (xy -8.357984 0.475028)
    (xy -8.25837 0.526458) (xy -8.156314 0.580029) (xy -8.054114 0.634585) (xy -7.95407 0.68897)
    (xy -7.948084 0.692258) (xy -7.667625 0.846433) (xy -7.626991 0.801571) (xy -7.557687 0.721411)
    (xy -7.488849 0.634998) (xy -7.422073 0.544872) (xy -7.358954 0.453571) (xy -7.301087 0.363637)
    (xy -7.250067 0.277609) (xy -7.207489 0.198027) (xy -7.174949 0.127431) (xy -7.154042 0.068362)
    (xy -7.14756 0.038201) (xy -7.146092 0.007099) (xy -7.153336 -0.015021) (xy -7.171935 -0.029581)
    (xy -7.204532 -0.038007) (xy -7.253769 -0.041722) (xy -7.296918 -0.042285) (xy -7.347709 -0.041072)
    (xy -7.404343 -0.037269) (xy -7.469069 -0.030564) (xy -7.544137 -0.020643) (xy -7.631797 -0.007194)
    (xy -7.734298 0.010096) (xy -7.853891 0.031539) (xy -7.932209 0.046048) (xy -8.049114 0.067819)
    (xy -8.147535 0.085754) (xy -8.229779 0.099982) (xy -8.298154 0.110632) (xy -8.354969 0.117832)
    (xy -8.40253 0.121711) (xy -8.443145 0.122399) (xy -8.479123 0.120022) (xy -8.512771 0.114712)
    (xy -8.546397 0.106596) (xy -8.582308 0.095803) (xy -8.617343 0.08429) (xy -8.700678 0.053846)
    (xy -8.768798 0.023483) (xy -8.820355 -0.006004) (xy -8.854 -0.03382) (xy -8.868386 -0.05917)
    (xy -8.868834 -0.064049) (xy -8.866897 -0.077973) (xy -8.859486 -0.089034) (xy -8.844197 -0.09779)
    (xy -8.818629 -0.104796) (xy -8.780377 -0.11061) (xy -8.727039 -0.115789) (xy -8.656213 -0.120888)
    (xy -8.611221 -0.12372) (xy -8.400872 -0.13867) (xy -8.204565 -0.157253) (xy -8.015352 -0.18036)
    (xy -7.826284 -0.208878) (xy -7.630417 -0.243699) (xy -7.545917 -0.260125) (xy -7.435781 -0.283103)
    (xy -7.3425 -0.305152) (xy -7.261872 -0.327487) (xy -7.189694 -0.351318) (xy -7.121764 -0.377858)
    (xy -7.090406 -0.391479) (xy -7.04415 -0.411259) (xy -6.999196 -0.428943) (xy -6.963107 -0.441603)
    (xy -6.953739 -0.444369) (xy -6.930612 -0.449773) (xy -6.911269 -0.450607) (xy -6.889971 -0.445558)) (layer F.Fab) (width 0.01))
  (fp_poly (pts (xy -12.535959 -2.515284) (xy -12.483571 -2.505922) (xy -12.420026 -2.487834) (xy -12.350944 -2.463301)
    (xy -12.281945 -2.434606) (xy -12.218651 -2.40403) (xy -12.16668 -2.373856) (xy -12.140819 -2.354851)
    (xy -12.11634 -2.331923) (xy -12.099577 -2.310552) (xy -12.091369 -2.290498) (xy -12.092552 -2.271522)
    (xy -12.103967 -2.253385) (xy -12.126449 -2.235847) (xy -12.160838 -2.218669) (xy -12.207972 -2.20161)
    (xy -12.268688 -2.184432) (xy -12.343824 -2.166895) (xy -12.434219 -2.148759) (xy -12.54071 -2.129785)
    (xy -12.664136 -2.109733) (xy -12.805335 -2.088364) (xy -12.965144 -2.065438) (xy -13.144402 -2.040716)
    (xy -13.324417 -2.016551) (xy -13.586498 -1.982071) (xy -13.828793 -1.950949) (xy -14.052395 -1.923077)
    (xy -14.258401 -1.898346) (xy -14.447904 -1.876647) (xy -14.621998 -1.857872) (xy -14.781779 -1.841912)
    (xy -14.928341 -1.828659) (xy -15.062778 -1.818004) (xy -15.186186 -1.809838) (xy -15.299657 -1.804052)
    (xy -15.404288 -1.800539) (xy -15.501172 -1.799189) (xy -15.514976 -1.799167) (xy -15.65002 -1.799167)
    (xy -15.657163 -1.701271) (xy -15.679199 -1.435562) (xy -15.706043 -1.174776) (xy -15.737265 -0.92209)
    (xy -15.772436 -0.680684) (xy -15.811128 -0.453736) (xy -15.85291 -0.244426) (xy -15.855432 -0.232833)
    (xy -15.916731 0.023096) (xy -15.986057 0.264491) (xy -16.06546 0.497123) (xy -16.156987 0.726762)
    (xy -16.262687 0.959179) (xy -16.319457 1.074208) (xy -16.428283 1.282011) (xy -16.535713 1.471311)
    (xy -16.643453 1.644542) (xy -16.753214 1.804138) (xy -16.866702 1.952534) (xy -16.985626 2.092164)
    (xy -17.111694 2.225462) (xy -17.162446 2.27556) (xy -17.250296 2.358168) (xy -17.336087 2.433993)
    (xy -17.418447 2.50214) (xy -17.496002 2.561712) (xy -17.567379 2.611814) (xy -17.631206 2.65155)
    (xy -17.686109 2.680023) (xy -17.730716 2.696338) (xy -17.763653 2.699599) (xy -17.783547 2.68891)
    (xy -17.78673 2.682945) (xy -17.785589 2.658104) (xy -17.768407 2.619972) (xy -17.735386 2.56883)
    (xy -17.686724 2.504962) (xy -17.622623 2.428651) (xy -17.546985 2.344208) (xy -17.458689 2.243397)
    (xy -17.371304 2.133949) (xy -17.283081 2.013413) (xy -17.192268 1.879337) (xy -17.097116 1.729271)
    (xy -17.036792 1.629833) (xy -16.886221 1.368397) (xy -16.752355 1.115078) (xy -16.633963 0.866756)
    (xy -16.529811 0.620309) (xy -16.438668 0.372617) (xy -16.359301 0.120561) (xy -16.290478 -0.138982)
    (xy -16.230968 -0.40913) (xy -16.230246 -0.41275) (xy -16.202177 -0.559438) (xy -16.178708 -0.696258)
    (xy -16.15947 -0.827169) (xy -16.144094 -0.956127) (xy -16.132211 -1.087088) (xy -16.123453 -1.224011)
    (xy -16.117451 -1.370851) (xy -16.113836 -1.531565) (xy -16.112389 -1.677458) (xy -16.111858 -1.770698)
    (xy -16.111314 -1.857769) (xy -16.110776 -1.936297) (xy -16.110261 -2.003904) (xy -16.10979 -2.058214)
    (xy -16.109379 -2.096852) (xy -16.109047 -2.11744) (xy -16.108963 -2.119794) (xy -16.097871 -2.147795)
    (xy -16.07241 -2.172236) (xy -16.039308 -2.187834) (xy -16.018598 -2.19075) (xy -15.979362 -2.185169)
    (xy -15.927411 -2.16966) (xy -15.867618 -2.146074) (xy -15.804855 -2.11626) (xy -15.764435 -2.094223)
    (xy -15.690022 -2.05132) (xy -15.594657 -2.058117) (xy -15.47617 -2.067349) (xy -15.354901 -2.078435)
    (xy -15.229148 -2.09162) (xy -15.097207 -2.107145) (xy -14.957377 -2.125253) (xy -14.807954 -2.146188)
    (xy -14.647237 -2.170191) (xy -14.473522 -2.197507) (xy -14.285108 -2.228378) (xy -14.08029 -2.263047)
    (xy -13.857368 -2.301757) (xy -13.73247 -2.323786) (xy -13.543082 -2.357258) (xy -13.373517 -2.387024)
    (xy -13.222789 -2.413244) (xy -13.089911 -2.436075) (xy -12.973896 -2.455675) (xy -12.873756 -2.472202)
    (xy -12.788506 -2.485813) (xy -12.717156 -2.496668) (xy -12.658721 -2.504924) (xy -12.612213 -2.510738)
    (xy -12.576645 -2.51427) (xy -12.55103 -2.515677) (xy -12.535959 -2.515284)) (layer F.Fab) (width 0.01))
  (fp_poly (pts (xy 14.860454 -3.591222) (xy 14.927677 -3.5822) (xy 14.999669 -3.566673) (xy 15.071721 -3.545649)
    (xy 15.139121 -3.520135) (xy 15.194614 -3.492619) (xy 15.24022 -3.462139) (xy 15.288568 -3.422969)
    (xy 15.334889 -3.379674) (xy 15.374414 -3.336819) (xy 15.402374 -3.29897) (xy 15.408503 -3.287839)
    (xy 15.420337 -3.25335) (xy 15.423647 -3.213421) (xy 15.418174 -3.164138) (xy 15.403662 -3.10159)
    (xy 15.394007 -3.067715) (xy 15.379505 -3.007013) (xy 15.366877 -2.928568) (xy 15.356051 -2.831662)
    (xy 15.346959 -2.71558) (xy 15.339528 -2.579606) (xy 15.335268 -2.471945) (xy 15.332439 -2.381185)
    (xy 15.330043 -2.287505) (xy 15.328094 -2.193276) (xy 15.326606 -2.100868) (xy 15.325593 -2.012653)
    (xy 15.32507 -1.931001) (xy 15.32505 -1.858283) (xy 15.325548 -1.79687) (xy 15.326579 -1.749134)
    (xy 15.328155 -1.717444) (xy 15.330292 -1.704173) (xy 15.330677 -1.703917) (xy 15.342319 -1.705383)
    (xy 15.372165 -1.70952) (xy 15.417474 -1.715938) (xy 15.475506 -1.724245) (xy 15.54352 -1.734052)
    (xy 15.618775 -1.744967) (xy 15.626259 -1.746056) (xy 15.785319 -1.769082) (xy 15.924964 -1.788983)
    (xy 16.046695 -1.805885) (xy 16.152012 -1.819918) (xy 16.242416 -1.831211) (xy 16.319408 -1.839891)
    (xy 16.384486 -1.846088) (xy 16.439153 -1.849929) (xy 16.484908 -1.851544) (xy 16.523252 -1.851061)
    (xy 16.555685 -1.848607) (xy 16.583708 -1.844313) (xy 16.60882 -1.838306) (xy 16.629049 -1.831931)
    (xy 16.700847 -1.799858) (xy 16.771284 -1.7553) (xy 16.835612 -1.702225) (xy 16.889079 -1.644601)
    (xy 16.926936 -1.586398) (xy 16.929632 -1.580801) (xy 16.945798 -1.532843) (xy 16.944233 -1.495755)
    (xy 16.924812 -1.468659) (xy 16.912456 -1.460656) (xy 16.89697 -1.454468) (xy 16.874085 -1.448961)
    (xy 16.842428 -1.444062) (xy 16.800629 -1.439701) (xy 16.747316 -1.435804) (xy 16.681118 -1.432299)
    (xy 16.600664 -1.429114) (xy 16.504582 -1.426177) (xy 16.3915 -1.423415) (xy 16.260049 -1.420757)
    (xy 16.108855 -1.418131) (xy 16.102541 -1.418028) (xy 15.987683 -1.416064) (xy 15.876963 -1.413982)
    (xy 15.772589 -1.411836) (xy 15.676767 -1.409679) (xy 15.591702 -1.407567) (xy 15.519601 -1.405552)
    (xy 15.462671 -1.40369) (xy 15.423118 -1.402033) (xy 15.406687 -1.401002) (xy 15.324666 -1.393945)
    (xy 15.324666 0.212073) (xy 15.324647 0.435754) (xy 15.324576 0.639357) (xy 15.324431 0.823967)
    (xy 15.32419 0.990671) (xy 15.323832 1.140558) (xy 15.323335 1.274713) (xy 15.322678 1.394225)
    (xy 15.321839 1.500179) (xy 15.320796 1.593665) (xy 15.319529 1.675767) (xy 15.318014 1.747574)
    (xy 15.316231 1.810173) (xy 15.314159 1.864651) (xy 15.311775 1.912095) (xy 15.309058 1.953592)
    (xy 15.305986 1.990229) (xy 15.302538 2.023094) (xy 15.298692 2.053273) (xy 15.294426 2.081853)
    (xy 15.28972 2.109923) (xy 15.286625 2.12725) (xy 15.255196 2.258556) (xy 15.210999 2.373992)
    (xy 15.152935 2.475348) (xy 15.079907 2.564411) (xy 14.990819 2.64297) (xy 14.953959 2.669464)
    (xy 14.903168 2.700277) (xy 14.863302 2.715177) (xy 14.831904 2.714649) (xy 14.806515 2.699177)
    (xy 14.805971 2.698638) (xy 14.786572 2.672567) (xy 14.764199 2.632349) (xy 14.741782 2.584162)
    (xy 14.722247 2.534186) (xy 14.710911 2.498004) (xy 14.677579 2.406277) (xy 14.626533 2.314248)
    (xy 14.557026 2.220917) (xy 14.468313 2.125285) (xy 14.359647 2.026354) (xy 14.356291 2.023511)
    (xy 14.270859 1.95023) (xy 14.201799 1.888554) (xy 14.148387 1.837611) (xy 14.109897 1.796532)
    (xy 14.085603 1.764443) (xy 14.074779 1.740474) (xy 14.076699 1.723754) (xy 14.090639 1.713411)
    (xy 14.096498 1.711564) (xy 14.123992 1.710376) (xy 14.168686 1.71585) (xy 14.227881 1.72743)
    (xy 14.29888 1.744558) (xy 14.378985 1.766677) (xy 14.4145 1.777261) (xy 14.530217 1.810173)
    (xy 14.628084 1.832949) (xy 14.708794 1.845656) (xy 14.773045 1.848363) (xy 14.821529 1.841136)
    (xy 14.854943 1.824041) (xy 14.859179 1.820153) (xy 14.876962 1.793335) (xy 14.893379 1.749617)
    (xy 14.908449 1.688695) (xy 14.92219 1.610262) (xy 14.934618 1.514012) (xy 14.945753 1.399639)
    (xy 14.95561 1.266838) (xy 14.964209 1.115303) (xy 14.971567 0.944728) (xy 14.977701 0.754807)
    (xy 14.98263 0.545234) (xy 14.98637 0.315703) (xy 14.98894 0.065909) (xy 14.990357 -0.204455)
    (xy 14.990668 -0.452396) (xy 14.990485 -0.61478) (xy 14.990076 -0.763331) (xy 14.989449 -0.897213)
    (xy 14.988616 -1.015592) (xy 14.987585 -1.117633) (xy 14.986367 -1.202503) (xy 14.98497 -1.269366)
    (xy 14.983406 -1.317389) (xy 14.981682 -1.345736) (xy 14.98022 -1.353665) (xy 14.96422 -1.357035)
    (xy 14.928472 -1.356119) (xy 14.873923 -1.351061) (xy 14.801525 -1.342007) (xy 14.712224 -1.329101)
    (xy 14.606972 -1.312489) (xy 14.486715 -1.292316) (xy 14.352405 -1.268726) (xy 14.204988 -1.241865)
    (xy 14.045416 -1.211878) (xy 14.017625 -1.206571) (xy 13.885163 -1.181387) (xy 13.770977 -1.160071)
    (xy 13.672615 -1.142208) (xy 13.587623 -1.127381) (xy 13.51355 -1.115175) (xy 13.447942 -1.105174)
    (xy 13.388347 -1.096962) (xy 13.332313 -1.090123) (xy 13.327753 -1.089605) (xy 13.219965 -1.077427)
    (xy 13.16494 -1.107375) (xy 13.128275 -1.132108) (xy 13.091284 -1.165174) (xy 13.056564 -1.203057)
    (xy 13.026716 -1.242244) (xy 13.004338 -1.279219) (xy 12.992028 -1.310468) (xy 12.992386 -1.332477)
    (xy 12.995343 -1.336744) (xy 12.998654 -1.339185) (xy 13.004539 -1.341801) (xy 13.01418 -1.344782)
    (xy 13.02876 -1.348322) (xy 13.049463 -1.352613) (xy 13.077473 -1.357847) (xy 13.113971 -1.364218)
    (xy 13.160142 -1.371918) (xy 13.217169 -1.38114) (xy 13.286235 -1.392075) (xy 13.368523 -1.404917)
    (xy 13.465217 -1.419859) (xy 13.577499 -1.437092) (xy 13.706553 -1.456809) (xy 13.853562 -1.479203)
    (xy 14.019709 -1.504466) (xy 14.112875 -1.518621) (xy 14.241466 -1.538174) (xy 14.364474 -1.556918)
    (xy 14.480221 -1.574593) (xy 14.587029 -1.590942) (xy 14.683221 -1.605707) (xy 14.767117 -1.61863)
    (xy 14.837039 -1.629453) (xy 14.891311 -1.637918) (xy 14.928254 -1.643766) (xy 14.946189 -1.646739)
    (xy 14.94711 -1.646916) (xy 14.977012 -1.653032) (xy 14.970825 -1.792245) (xy 14.968695 -1.841899)
    (xy 14.965974 -1.907982) (xy 14.96285 -1.985771) (xy 14.959513 -2.070544) (xy 14.956148 -2.157577)
    (xy 14.953683 -2.2225) (xy 14.947698 -2.365702) (xy 14.940796 -2.503109) (xy 14.933148 -2.632289)
    (xy 14.924929 -2.75081) (xy 14.916311 -2.856241) (xy 14.907467 -2.946149) (xy 14.898571 -3.018102)
    (xy 14.895736 -3.036971) (xy 14.878682 -3.13059) (xy 14.859361 -3.20726) (xy 14.836209 -3.271184)
    (xy 14.807659 -3.326568) (xy 14.772148 -3.377616) (xy 14.766143 -3.385136) (xy 14.730245 -3.438456)
    (xy 14.710381 -3.488931) (xy 14.707735 -3.533306) (xy 14.709428 -3.54136) (xy 14.721399 -3.565)
    (xy 14.745901 -3.58081) (xy 14.759161 -3.585723) (xy 14.802712 -3.592732) (xy 14.860454 -3.591222)) (layer F.Fab) (width 0.01))
  (fp_poly (pts (xy 0.422085 -3.615452) (xy 0.488394 -3.608825) (xy 0.606701 -3.589727) (xy 0.709644 -3.565107)
    (xy 0.796052 -3.535424) (xy 0.864753 -3.501136) (xy 0.914576 -3.462705) (xy 0.938236 -3.432497)
    (xy 0.962673 -3.370838) (xy 0.971353 -3.297995) (xy 0.963987 -3.21723) (xy 0.959219 -3.194529)
    (xy 0.951739 -3.158358) (xy 0.945164 -3.11666) (xy 0.939447 -3.068044) (xy 0.934537 -3.011119)
    (xy 0.930385 -2.944495) (xy 0.926942 -2.86678) (xy 0.924158 -2.776583) (xy 0.921985 -2.672515)
    (xy 0.920371 -2.553183) (xy 0.91927 -2.417198) (xy 0.91863 -2.263168) (xy 0.918402 -2.089702)
    (xy 0.918403 -2.044541) (xy 0.918507 -1.920088) (xy 0.918742 -1.801894) (xy 0.919099 -1.691652)
    (xy 0.919563 -1.591055) (xy 0.920125 -1.501796) (xy 0.920771 -1.425568) (xy 0.921489 -1.364065)
    (xy 0.922268 -1.31898) (xy 0.923095 -1.292006) (xy 0.923788 -1.284601) (xy 0.935145 -1.285203)
    (xy 0.9644 -1.289602) (xy 1.008728 -1.297294) (xy 1.065302 -1.30777) (xy 1.131297 -1.320526)
    (xy 1.192092 -1.332661) (xy 1.374764 -1.368783) (xy 1.538564 -1.399239) (xy 1.684991 -1.424102)
    (xy 1.815548 -1.443444) (xy 1.931734 -1.457341) (xy 2.035051 -1.465863) (xy 2.127 -1.469086)
    (xy 2.209082 -1.467082) (xy 2.282798 -1.459924) (xy 2.349647 -1.447686) (xy 2.411132 -1.430441)
    (xy 2.468754 -1.408262) (xy 2.494744 -1.396244) (xy 2.566424 -1.352455) (xy 2.638224 -1.291955)
    (xy 2.70565 -1.218689) (xy 2.724892 -1.194095) (xy 2.756489 -1.14631) (xy 2.770764 -1.109729)
    (xy 2.76788 -1.083629) (xy 2.75309 -1.069679) (xy 2.734847 -1.063012) (xy 2.705565 -1.057018)
    (xy 2.664019 -1.051623) (xy 2.608982 -1.04675) (xy 2.53923 -1.042327) (xy 2.453537 -1.038278)
    (xy 2.350677 -1.034528) (xy 2.229426 -1.031004) (xy 2.088557 -1.02763) (xy 2.047875 -1.026754)
    (xy 1.899745 -1.023326) (xy 1.769737 -1.019585) (xy 1.654809 -1.015332) (xy 1.551915 -1.010367)
    (xy 1.458012 -1.004491) (xy 1.370056 -0.997503) (xy 1.285004 -0.989205) (xy 1.199811 -0.979396)
    (xy 1.111434 -0.967877) (xy 1.076541 -0.963033) (xy 1.022896 -0.955505) (xy 0.977321 -0.949161)
    (xy 0.943623 -0.944528) (xy 0.92561 -0.942132) (xy 0.923663 -0.941917) (xy 0.923327 -0.931561)
    (xy 0.923123 -0.9014) (xy 0.923046 -0.852797) (xy 0.923092 -0.787113) (xy 0.923256 -0.70571)
    (xy 0.923534 -0.60995) (xy 0.923921 -0.501194) (xy 0.924414 -0.380805) (xy 0.925007 -0.250143)
    (xy 0.925696 -0.110572) (xy 0.926476 0.036547) (xy 0.927344 0.189853) (xy 0.927425 0.203729)
    (xy 0.928778 0.495717) (xy 0.929269 0.767193) (xy 0.928873 1.018796) (xy 0.927562 1.251164)
    (xy 0.925308 1.464937) (xy 0.922086 1.660753) (xy 0.917867 1.83925) (xy 0.912625 2.001067)
    (xy 0.906333 2.146843) (xy 0.898963 2.277216) (xy 0.890489 2.392825) (xy 0.880883 2.494308)
    (xy 0.870119 2.582305) (xy 0.858169 2.657453) (xy 0.845006 2.720391) (xy 0.830603 2.771759)
    (xy 0.817009 2.80761) (xy 0.798377 2.841685) (xy 0.78043 2.855666) (xy 0.761138 2.850453)
    (xy 0.747851 2.838241) (xy 0.729759 2.808725) (xy 0.710926 2.760626) (xy 0.691913 2.696486)
    (xy 0.673279 2.618849) (xy 0.655585 2.530257) (xy 0.63939 2.433254) (xy 0.625255 2.330382)
    (xy 0.614584 2.233083) (xy 0.607374 2.149537) (xy 0.600601 2.053099) (xy 0.594243 1.943055)
    (xy 0.58828 1.818692) (xy 0.582691 1.679298) (xy 0.577454 1.524158) (xy 0.572549 1.35256)
    (xy 0.567954 1.163791) (xy 0.563649 0.957138) (xy 0.559612 0.731887) (xy 0.555822 0.487326)
    (xy 0.552258 0.22274) (xy 0.550215 0.053658) (xy 0.548585 -0.084327) (xy 0.546973 -0.21614)
    (xy 0.545403 -0.340259) (xy 0.543895 -0.455164) (xy 0.542471 -0.559335) (xy 0.541153 -0.651253)
    (xy 0.539963 -0.729395) (xy 0.538922 -0.792243) (xy 0.538053 -0.838276) (xy 0.537375 -0.865973)
    (xy 0.536963 -0.87397) (xy 0.526357 -0.872643) (xy 0.497319 -0.867829) (xy 0.452224 -0.859952)
    (xy 0.393441 -0.849436) (xy 0.323344 -0.836703) (xy 0.244303 -0.822179) (xy 0.169333 -0.808271)
    (xy 0.024131 -0.781313) (xy -0.101884 -0.758149) (xy -0.210306 -0.73853) (xy -0.302723 -0.722208)
    (xy -0.380729 -0.708934) (xy -0.445913 -0.698459) (xy -0.499867 -0.690534) (xy -0.544183 -0.68491)
    (xy -0.580451 -0.681339) (xy -0.610262 -0.679572) (xy -0.635208 -0.67936) (xy -0.650875 -0.680019)
    (xy -0.699607 -0.686665) (xy -0.75779 -0.700089) (xy -0.821034 -0.718672) (xy -0.884947 -0.740795)
    (xy -0.945138 -0.764841) (xy -0.997214 -0.78919) (xy -1.036785 -0.812223) (xy -1.057617 -0.829928)
    (xy -1.065975 -0.847572) (xy -1.058969 -0.861777) (xy -1.042216 -0.871366) (xy -1.007383 -0.883381)
    (xy -0.957326 -0.897133) (xy -0.894903 -0.911935) (xy -0.822969 -0.927099) (xy -0.74438 -0.941935)
    (xy -0.682625 -0.95246) (xy -0.608622 -0.964869) (xy -0.524327 -0.979669) (xy -0.431893 -0.99643)
    (xy -0.33347 -1.014721) (xy -0.231211 -1.034112) (xy -0.127268 -1.054172) (xy -0.023792 -1.074471)
    (xy 0.077065 -1.094578) (xy 0.173151 -1.114062) (xy 0.262315 -1.132493) (xy 0.342405 -1.14944)
    (xy 0.411269 -1.164473) (xy 0.466755 -1.17716) (xy 0.506711 -1.187072) (xy 0.528986 -1.193778)
    (xy 0.532693 -1.195659) (xy 0.534262 -1.207695) (xy 0.535142 -1.238651) (xy 0.535382 -1.286291)
    (xy 0.535033 -1.348381) (xy 0.534143 -1.422687) (xy 0.532762 -1.506972) (xy 0.530941 -1.599004)
    (xy 0.528728 -1.696547) (xy 0.526174 -1.797366) (xy 0.523328 -1.899228) (xy 0.52024 -1.999896)
    (xy 0.516959 -2.097137) (xy 0.513535 -2.188717) (xy 0.510019 -2.272399) (xy 0.50763 -2.323042)
    (xy 0.498367 -2.495306) (xy 0.488631 -2.647627) (xy 0.478254 -2.781226) (xy 0.467069 -2.897323)
    (xy 0.454909 -2.99714) (xy 0.441604 -3.081897) (xy 0.426988 -3.152816) (xy 0.410894 -3.211117)
    (xy 0.393153 -3.258022) (xy 0.374366 -3.293543) (xy 0.345971 -3.342447) (xy 0.318526 -3.396551)
    (xy 0.294745 -3.449843) (xy 0.277341 -3.496309) (xy 0.269657 -3.525539) (xy 0.269304 -3.562734)
    (xy 0.28328 -3.589907) (xy 0.312675 -3.607475) (xy 0.35858 -3.615852) (xy 0.422085 -3.615452)) (layer F.Fab) (width 0.01))
)
