(module CP_3528-12 (layer F.Cu) (tedit 5CDEA5B1)
  (descr "Tantalum Capacitor SMD Kemet-T (3528-12 Metric)")
  (tags "capacitor tantalum")
  (attr smd)
  (fp_text reference REF** (at -1.05 -2.2) (layer F.SilkS)
    (effects (font (size 0.8 0.8) (thickness 0.15)))
  )
  (fp_text value CP_3528-12 (at 0 2.35) (layer F.Fab)
    (effects (font (size 1 1) (thickness 0.15)))
  )
  (fp_line (start 1.75 -1.4) (end -1.05 -1.4) (layer F.Fab) (width 0.1))
  (fp_line (start -1.05 -1.4) (end -1.75 -0.7) (layer F.Fab) (width 0.1))
  (fp_line (start -1.75 -0.7) (end -1.75 1.4) (layer F.Fab) (width 0.1))
  (fp_line (start -1.75 1.4) (end 1.75 1.4) (layer F.Fab) (width 0.1))
  (fp_line (start 1.75 1.4) (end 1.75 -1.4) (layer F.Fab) (width 0.1))
  (fp_line (start 1.75 -1.51) (end -2.55 -1.51) (layer F.SilkS) (width 0.12))
  (fp_line (start -2.55 -1.35) (end -2.55 1.35) (layer F.SilkS) (width 0.4))
  (fp_line (start -2.55 1.51) (end 1.75 1.51) (layer F.SilkS) (width 0.12))
  (fp_line (start -2.45 1.65) (end -2.45 -1.65) (layer F.CrtYd) (width 0.05))
  (fp_line (start -2.45 -1.65) (end 2.45 -1.65) (layer F.CrtYd) (width 0.05))
  (fp_line (start 2.45 -1.65) (end 2.45 1.65) (layer F.CrtYd) (width 0.05))
  (fp_line (start 2.45 1.65) (end -2.45 1.65) (layer F.CrtYd) (width 0.05))
  (fp_text user %R (at 0 0) (layer F.Fab)
    (effects (font (size 0.88 0.88) (thickness 0.13)))
  )
  (pad 1 smd rect (at -1.5375 0) (size 1.325 2.35) (layers F.Cu F.Paste F.Mask))
  (pad 2 smd rect (at 1.5375 0) (size 1.325 2.35) (layers F.Cu F.Paste F.Mask))
  (model ${KISYS3DMOD}/Capacitor_Tantalum_SMD.3dshapes/CP_EIA-3528-12_Kemet-T.wrl
    (at (xyz 0 0 0))
    (scale (xyz 1 1 1))
    (rotate (xyz 0 0 0))
  )
)
