G04 #@! TF.GenerationSoftware,KiCad,Pcbnew,(5.1.4)-1*
G04 #@! TF.CreationDate,2019-11-17T23:28:07+01:00*
G04 #@! TF.ProjectId,main_pcb,6d61696e-5f70-4636-922e-6b696361645f,rev?*
G04 #@! TF.SameCoordinates,Original*
G04 #@! TF.FileFunction,Legend,Bot*
G04 #@! TF.FilePolarity,Positive*
%FSLAX46Y46*%
G04 Gerber Fmt 4.6, Leading zero omitted, Abs format (unit mm)*
G04 Created by KiCad (PCBNEW (5.1.4)-1) date 2019-11-17 23:28:07*
%MOMM*%
%LPD*%
G04 APERTURE LIST*
%ADD10C,0.150000*%
%ADD11C,0.300000*%
%ADD12C,0.200000*%
%ADD13C,0.120000*%
G04 APERTURE END LIST*
D10*
X206953333Y-123901904D02*
X207220000Y-123520952D01*
X207410476Y-123901904D02*
X207410476Y-123101904D01*
X207105714Y-123101904D01*
X207029523Y-123140000D01*
X206991428Y-123178095D01*
X206953333Y-123254285D01*
X206953333Y-123368571D01*
X206991428Y-123444761D01*
X207029523Y-123482857D01*
X207105714Y-123520952D01*
X207410476Y-123520952D01*
X206686666Y-123101904D02*
X206153333Y-123901904D01*
X206153333Y-123101904D02*
X206686666Y-123901904D01*
X207599523Y-120491904D02*
X207142380Y-120491904D01*
X207370952Y-121291904D02*
X207370952Y-120491904D01*
X206951904Y-120491904D02*
X206418571Y-121291904D01*
X206418571Y-120491904D02*
X206951904Y-121291904D01*
X228031904Y-117180000D02*
X228031904Y-116799047D01*
X227231904Y-116799047D01*
X228031904Y-117446666D02*
X227231904Y-117446666D01*
X227803333Y-117713333D01*
X227231904Y-117980000D01*
X228031904Y-117980000D01*
X228031904Y-118360952D02*
X227231904Y-118360952D01*
X227993809Y-118703809D02*
X228031904Y-118818095D01*
X228031904Y-119008571D01*
X227993809Y-119084761D01*
X227955714Y-119122857D01*
X227879523Y-119160952D01*
X227803333Y-119160952D01*
X227727142Y-119122857D01*
X227689047Y-119084761D01*
X227650952Y-119008571D01*
X227612857Y-118856190D01*
X227574761Y-118780000D01*
X227536666Y-118741904D01*
X227460476Y-118703809D01*
X227384285Y-118703809D01*
X227308095Y-118741904D01*
X227270000Y-118780000D01*
X227231904Y-118856190D01*
X227231904Y-119046666D01*
X227270000Y-119160952D01*
X227231904Y-119656190D02*
X227231904Y-119808571D01*
X227270000Y-119884761D01*
X227346190Y-119960952D01*
X227498571Y-119999047D01*
X227765238Y-119999047D01*
X227917619Y-119960952D01*
X227993809Y-119884761D01*
X228031904Y-119808571D01*
X228031904Y-119656190D01*
X227993809Y-119580000D01*
X227917619Y-119503809D01*
X227765238Y-119465714D01*
X227498571Y-119465714D01*
X227346190Y-119503809D01*
X227270000Y-119580000D01*
X227231904Y-119656190D01*
X230741904Y-117170000D02*
X230741904Y-116789047D01*
X229941904Y-116789047D01*
X230741904Y-117436666D02*
X229941904Y-117436666D01*
X230513333Y-117703333D01*
X229941904Y-117970000D01*
X230741904Y-117970000D01*
X229941904Y-118503333D02*
X229941904Y-118655714D01*
X229980000Y-118731904D01*
X230056190Y-118808095D01*
X230208571Y-118846190D01*
X230475238Y-118846190D01*
X230627619Y-118808095D01*
X230703809Y-118731904D01*
X230741904Y-118655714D01*
X230741904Y-118503333D01*
X230703809Y-118427142D01*
X230627619Y-118350952D01*
X230475238Y-118312857D01*
X230208571Y-118312857D01*
X230056190Y-118350952D01*
X229980000Y-118427142D01*
X229941904Y-118503333D01*
X230703809Y-119150952D02*
X230741904Y-119265238D01*
X230741904Y-119455714D01*
X230703809Y-119531904D01*
X230665714Y-119570000D01*
X230589523Y-119608095D01*
X230513333Y-119608095D01*
X230437142Y-119570000D01*
X230399047Y-119531904D01*
X230360952Y-119455714D01*
X230322857Y-119303333D01*
X230284761Y-119227142D01*
X230246666Y-119189047D01*
X230170476Y-119150952D01*
X230094285Y-119150952D01*
X230018095Y-119189047D01*
X229980000Y-119227142D01*
X229941904Y-119303333D01*
X229941904Y-119493809D01*
X229980000Y-119608095D01*
X230741904Y-119950952D02*
X229941904Y-119950952D01*
X232961904Y-117226666D02*
X232961904Y-116845714D01*
X232161904Y-116845714D01*
X232923809Y-117455238D02*
X232961904Y-117569523D01*
X232961904Y-117760000D01*
X232923809Y-117836190D01*
X232885714Y-117874285D01*
X232809523Y-117912380D01*
X232733333Y-117912380D01*
X232657142Y-117874285D01*
X232619047Y-117836190D01*
X232580952Y-117760000D01*
X232542857Y-117607619D01*
X232504761Y-117531428D01*
X232466666Y-117493333D01*
X232390476Y-117455238D01*
X232314285Y-117455238D01*
X232238095Y-117493333D01*
X232200000Y-117531428D01*
X232161904Y-117607619D01*
X232161904Y-117798095D01*
X232200000Y-117912380D01*
X232885714Y-118712380D02*
X232923809Y-118674285D01*
X232961904Y-118560000D01*
X232961904Y-118483809D01*
X232923809Y-118369523D01*
X232847619Y-118293333D01*
X232771428Y-118255238D01*
X232619047Y-118217142D01*
X232504761Y-118217142D01*
X232352380Y-118255238D01*
X232276190Y-118293333D01*
X232200000Y-118369523D01*
X232161904Y-118483809D01*
X232161904Y-118560000D01*
X232200000Y-118674285D01*
X232238095Y-118712380D01*
X232961904Y-119055238D02*
X232161904Y-119055238D01*
X232961904Y-119512380D02*
X232504761Y-119169523D01*
X232161904Y-119512380D02*
X232619047Y-119055238D01*
X235681904Y-117226666D02*
X235681904Y-116845714D01*
X234881904Y-116845714D01*
X235681904Y-117493333D02*
X234881904Y-117493333D01*
X235681904Y-117950476D01*
X234881904Y-117950476D01*
X235643809Y-118293333D02*
X235681904Y-118407619D01*
X235681904Y-118598095D01*
X235643809Y-118674285D01*
X235605714Y-118712380D01*
X235529523Y-118750476D01*
X235453333Y-118750476D01*
X235377142Y-118712380D01*
X235339047Y-118674285D01*
X235300952Y-118598095D01*
X235262857Y-118445714D01*
X235224761Y-118369523D01*
X235186666Y-118331428D01*
X235110476Y-118293333D01*
X235034285Y-118293333D01*
X234958095Y-118331428D01*
X234920000Y-118369523D01*
X234881904Y-118445714D01*
X234881904Y-118636190D01*
X234920000Y-118750476D01*
X235643809Y-119055238D02*
X235681904Y-119169523D01*
X235681904Y-119360000D01*
X235643809Y-119436190D01*
X235605714Y-119474285D01*
X235529523Y-119512380D01*
X235453333Y-119512380D01*
X235377142Y-119474285D01*
X235339047Y-119436190D01*
X235300952Y-119360000D01*
X235262857Y-119207619D01*
X235224761Y-119131428D01*
X235186666Y-119093333D01*
X235110476Y-119055238D01*
X235034285Y-119055238D01*
X234958095Y-119093333D01*
X234920000Y-119131428D01*
X234881904Y-119207619D01*
X234881904Y-119398095D01*
X234920000Y-119512380D01*
X238121904Y-117214761D02*
X238121904Y-116833809D01*
X237321904Y-116833809D01*
X238121904Y-117938571D02*
X237740952Y-117671904D01*
X238121904Y-117481428D02*
X237321904Y-117481428D01*
X237321904Y-117786190D01*
X237360000Y-117862380D01*
X237398095Y-117900476D01*
X237474285Y-117938571D01*
X237588571Y-117938571D01*
X237664761Y-117900476D01*
X237702857Y-117862380D01*
X237740952Y-117786190D01*
X237740952Y-117481428D01*
X237702857Y-118281428D02*
X237702857Y-118548095D01*
X238121904Y-118662380D02*
X238121904Y-118281428D01*
X237321904Y-118281428D01*
X237321904Y-118662380D01*
X238083809Y-118967142D02*
X238121904Y-119081428D01*
X238121904Y-119271904D01*
X238083809Y-119348095D01*
X238045714Y-119386190D01*
X237969523Y-119424285D01*
X237893333Y-119424285D01*
X237817142Y-119386190D01*
X237779047Y-119348095D01*
X237740952Y-119271904D01*
X237702857Y-119119523D01*
X237664761Y-119043333D01*
X237626666Y-119005238D01*
X237550476Y-118967142D01*
X237474285Y-118967142D01*
X237398095Y-119005238D01*
X237360000Y-119043333D01*
X237321904Y-119119523D01*
X237321904Y-119310000D01*
X237360000Y-119424285D01*
X253880476Y-117753333D02*
X253499523Y-117753333D01*
X253956666Y-117981904D02*
X253690000Y-117181904D01*
X253423333Y-117981904D01*
X253156666Y-117981904D02*
X253156666Y-117181904D01*
X252966190Y-117181904D01*
X252851904Y-117220000D01*
X252775714Y-117296190D01*
X252737619Y-117372380D01*
X252699523Y-117524761D01*
X252699523Y-117639047D01*
X252737619Y-117791428D01*
X252775714Y-117867619D01*
X252851904Y-117943809D01*
X252966190Y-117981904D01*
X253156666Y-117981904D01*
X251899523Y-117905714D02*
X251937619Y-117943809D01*
X252051904Y-117981904D01*
X252128095Y-117981904D01*
X252242380Y-117943809D01*
X252318571Y-117867619D01*
X252356666Y-117791428D01*
X252394761Y-117639047D01*
X252394761Y-117524761D01*
X252356666Y-117372380D01*
X252318571Y-117296190D01*
X252242380Y-117220000D01*
X252128095Y-117181904D01*
X252051904Y-117181904D01*
X251937619Y-117220000D01*
X251899523Y-117258095D01*
X254496190Y-115263809D02*
X254381904Y-115301904D01*
X254191428Y-115301904D01*
X254115238Y-115263809D01*
X254077142Y-115225714D01*
X254039047Y-115149523D01*
X254039047Y-115073333D01*
X254077142Y-114997142D01*
X254115238Y-114959047D01*
X254191428Y-114920952D01*
X254343809Y-114882857D01*
X254420000Y-114844761D01*
X254458095Y-114806666D01*
X254496190Y-114730476D01*
X254496190Y-114654285D01*
X254458095Y-114578095D01*
X254420000Y-114540000D01*
X254343809Y-114501904D01*
X254153333Y-114501904D01*
X254039047Y-114540000D01*
X253239047Y-115225714D02*
X253277142Y-115263809D01*
X253391428Y-115301904D01*
X253467619Y-115301904D01*
X253581904Y-115263809D01*
X253658095Y-115187619D01*
X253696190Y-115111428D01*
X253734285Y-114959047D01*
X253734285Y-114844761D01*
X253696190Y-114692380D01*
X253658095Y-114616190D01*
X253581904Y-114540000D01*
X253467619Y-114501904D01*
X253391428Y-114501904D01*
X253277142Y-114540000D01*
X253239047Y-114578095D01*
X253086666Y-115378095D02*
X252477142Y-115378095D01*
X251829523Y-115301904D02*
X252096190Y-114920952D01*
X252286666Y-115301904D02*
X252286666Y-114501904D01*
X251981904Y-114501904D01*
X251905714Y-114540000D01*
X251867619Y-114578095D01*
X251829523Y-114654285D01*
X251829523Y-114768571D01*
X251867619Y-114844761D01*
X251905714Y-114882857D01*
X251981904Y-114920952D01*
X252286666Y-114920952D01*
X251486666Y-114882857D02*
X251220000Y-114882857D01*
X251105714Y-115301904D02*
X251486666Y-115301904D01*
X251486666Y-114501904D01*
X251105714Y-114501904D01*
X250800952Y-115263809D02*
X250686666Y-115301904D01*
X250496190Y-115301904D01*
X250420000Y-115263809D01*
X250381904Y-115225714D01*
X250343809Y-115149523D01*
X250343809Y-115073333D01*
X250381904Y-114997142D01*
X250420000Y-114959047D01*
X250496190Y-114920952D01*
X250648571Y-114882857D01*
X250724761Y-114844761D01*
X250762857Y-114806666D01*
X250800952Y-114730476D01*
X250800952Y-114654285D01*
X250762857Y-114578095D01*
X250724761Y-114540000D01*
X250648571Y-114501904D01*
X250458095Y-114501904D01*
X250343809Y-114540000D01*
X254370952Y-112873333D02*
X253990000Y-112873333D01*
X254447142Y-113101904D02*
X254180476Y-112301904D01*
X253913809Y-113101904D01*
X253266190Y-113101904D02*
X253647142Y-113101904D01*
X253647142Y-112301904D01*
X252999523Y-112682857D02*
X252732857Y-112682857D01*
X252618571Y-113101904D02*
X252999523Y-113101904D01*
X252999523Y-112301904D01*
X252618571Y-112301904D01*
X251818571Y-113101904D02*
X252085238Y-112720952D01*
X252275714Y-113101904D02*
X252275714Y-112301904D01*
X251970952Y-112301904D01*
X251894761Y-112340000D01*
X251856666Y-112378095D01*
X251818571Y-112454285D01*
X251818571Y-112568571D01*
X251856666Y-112644761D01*
X251894761Y-112682857D01*
X251970952Y-112720952D01*
X252275714Y-112720952D01*
X251590000Y-112301904D02*
X251132857Y-112301904D01*
X251361428Y-113101904D02*
X251361428Y-112301904D01*
X257101904Y-102774761D02*
X256301904Y-102774761D01*
X256301904Y-102965238D01*
X256340000Y-103079523D01*
X256416190Y-103155714D01*
X256492380Y-103193809D01*
X256644761Y-103231904D01*
X256759047Y-103231904D01*
X256911428Y-103193809D01*
X256987619Y-103155714D01*
X257063809Y-103079523D01*
X257101904Y-102965238D01*
X257101904Y-102774761D01*
X257178095Y-103384285D02*
X257178095Y-103993809D01*
X257101904Y-104641428D02*
X256720952Y-104374761D01*
X257101904Y-104184285D02*
X256301904Y-104184285D01*
X256301904Y-104489047D01*
X256340000Y-104565238D01*
X256378095Y-104603333D01*
X256454285Y-104641428D01*
X256568571Y-104641428D01*
X256644761Y-104603333D01*
X256682857Y-104565238D01*
X256720952Y-104489047D01*
X256720952Y-104184285D01*
X256301904Y-104908095D02*
X257101904Y-105441428D01*
X256301904Y-105441428D02*
X257101904Y-104908095D01*
X254481904Y-102950000D02*
X253681904Y-102950000D01*
X253681904Y-103140476D01*
X253720000Y-103254761D01*
X253796190Y-103330952D01*
X253872380Y-103369047D01*
X254024761Y-103407142D01*
X254139047Y-103407142D01*
X254291428Y-103369047D01*
X254367619Y-103330952D01*
X254443809Y-103254761D01*
X254481904Y-103140476D01*
X254481904Y-102950000D01*
X254558095Y-103559523D02*
X254558095Y-104169047D01*
X253681904Y-104245238D02*
X253681904Y-104702380D01*
X254481904Y-104473809D02*
X253681904Y-104473809D01*
X253681904Y-104892857D02*
X254481904Y-105426190D01*
X253681904Y-105426190D02*
X254481904Y-104892857D01*
X250784761Y-92417142D02*
X250175238Y-92417142D01*
X250744761Y-87637142D02*
X250135238Y-87637142D01*
X248304761Y-87567142D02*
X247695238Y-87567142D01*
X250835238Y-97831904D02*
X251101904Y-97450952D01*
X251292380Y-97831904D02*
X251292380Y-97031904D01*
X250987619Y-97031904D01*
X250911428Y-97070000D01*
X250873333Y-97108095D01*
X250835238Y-97184285D01*
X250835238Y-97298571D01*
X250873333Y-97374761D01*
X250911428Y-97412857D01*
X250987619Y-97450952D01*
X251292380Y-97450952D01*
X250492380Y-97412857D02*
X250225714Y-97412857D01*
X250111428Y-97831904D02*
X250492380Y-97831904D01*
X250492380Y-97031904D01*
X250111428Y-97031904D01*
X249806666Y-97793809D02*
X249692380Y-97831904D01*
X249501904Y-97831904D01*
X249425714Y-97793809D01*
X249387619Y-97755714D01*
X249349523Y-97679523D01*
X249349523Y-97603333D01*
X249387619Y-97527142D01*
X249425714Y-97489047D01*
X249501904Y-97450952D01*
X249654285Y-97412857D01*
X249730476Y-97374761D01*
X249768571Y-97336666D01*
X249806666Y-97260476D01*
X249806666Y-97184285D01*
X249768571Y-97108095D01*
X249730476Y-97070000D01*
X249654285Y-97031904D01*
X249463809Y-97031904D01*
X249349523Y-97070000D01*
X248549047Y-97881904D02*
X248549047Y-97081904D01*
X248358571Y-97081904D01*
X248244285Y-97120000D01*
X248168095Y-97196190D01*
X248130000Y-97272380D01*
X248091904Y-97424761D01*
X248091904Y-97539047D01*
X248130000Y-97691428D01*
X248168095Y-97767619D01*
X248244285Y-97843809D01*
X248358571Y-97881904D01*
X248549047Y-97881904D01*
X247749047Y-97881904D02*
X247749047Y-97081904D01*
X247215714Y-97081904D02*
X247063333Y-97081904D01*
X246987142Y-97120000D01*
X246910952Y-97196190D01*
X246872857Y-97348571D01*
X246872857Y-97615238D01*
X246910952Y-97767619D01*
X246987142Y-97843809D01*
X247063333Y-97881904D01*
X247215714Y-97881904D01*
X247291904Y-97843809D01*
X247368095Y-97767619D01*
X247406190Y-97615238D01*
X247406190Y-97348571D01*
X247368095Y-97196190D01*
X247291904Y-97120000D01*
X247215714Y-97081904D01*
X251049523Y-94910000D02*
X251125714Y-94871904D01*
X251240000Y-94871904D01*
X251354285Y-94910000D01*
X251430476Y-94986190D01*
X251468571Y-95062380D01*
X251506666Y-95214761D01*
X251506666Y-95329047D01*
X251468571Y-95481428D01*
X251430476Y-95557619D01*
X251354285Y-95633809D01*
X251240000Y-95671904D01*
X251163809Y-95671904D01*
X251049523Y-95633809D01*
X251011428Y-95595714D01*
X251011428Y-95329047D01*
X251163809Y-95329047D01*
X250668571Y-95671904D02*
X250668571Y-94871904D01*
X250211428Y-95671904D01*
X250211428Y-94871904D01*
X249830476Y-95671904D02*
X249830476Y-94871904D01*
X249640000Y-94871904D01*
X249525714Y-94910000D01*
X249449523Y-94986190D01*
X249411428Y-95062380D01*
X249373333Y-95214761D01*
X249373333Y-95329047D01*
X249411428Y-95481428D01*
X249449523Y-95557619D01*
X249525714Y-95633809D01*
X249640000Y-95671904D01*
X249830476Y-95671904D01*
X248199523Y-94950000D02*
X248275714Y-94911904D01*
X248390000Y-94911904D01*
X248504285Y-94950000D01*
X248580476Y-95026190D01*
X248618571Y-95102380D01*
X248656666Y-95254761D01*
X248656666Y-95369047D01*
X248618571Y-95521428D01*
X248580476Y-95597619D01*
X248504285Y-95673809D01*
X248390000Y-95711904D01*
X248313809Y-95711904D01*
X248199523Y-95673809D01*
X248161428Y-95635714D01*
X248161428Y-95369047D01*
X248313809Y-95369047D01*
X247818571Y-95711904D02*
X247818571Y-94911904D01*
X247361428Y-95711904D01*
X247361428Y-94911904D01*
X246980476Y-95711904D02*
X246980476Y-94911904D01*
X246790000Y-94911904D01*
X246675714Y-94950000D01*
X246599523Y-95026190D01*
X246561428Y-95102380D01*
X246523333Y-95254761D01*
X246523333Y-95369047D01*
X246561428Y-95521428D01*
X246599523Y-95597619D01*
X246675714Y-95673809D01*
X246790000Y-95711904D01*
X246980476Y-95711904D01*
X248226190Y-92995714D02*
X248264285Y-93033809D01*
X248378571Y-93071904D01*
X248454761Y-93071904D01*
X248569047Y-93033809D01*
X248645238Y-92957619D01*
X248683333Y-92881428D01*
X248721428Y-92729047D01*
X248721428Y-92614761D01*
X248683333Y-92462380D01*
X248645238Y-92386190D01*
X248569047Y-92310000D01*
X248454761Y-92271904D01*
X248378571Y-92271904D01*
X248264285Y-92310000D01*
X248226190Y-92348095D01*
X247502380Y-93071904D02*
X247883333Y-93071904D01*
X247883333Y-92271904D01*
X247235714Y-93071904D02*
X247235714Y-92271904D01*
X246778571Y-93071904D02*
X247121428Y-92614761D01*
X246778571Y-92271904D02*
X247235714Y-92729047D01*
X248670476Y-89761904D02*
X248175238Y-89761904D01*
X248441904Y-90066666D01*
X248327619Y-90066666D01*
X248251428Y-90104761D01*
X248213333Y-90142857D01*
X248175238Y-90219047D01*
X248175238Y-90409523D01*
X248213333Y-90485714D01*
X248251428Y-90523809D01*
X248327619Y-90561904D01*
X248556190Y-90561904D01*
X248632380Y-90523809D01*
X248670476Y-90485714D01*
X247946666Y-89761904D02*
X247680000Y-90561904D01*
X247413333Y-89761904D01*
X247222857Y-89761904D02*
X246727619Y-89761904D01*
X246994285Y-90066666D01*
X246880000Y-90066666D01*
X246803809Y-90104761D01*
X246765714Y-90142857D01*
X246727619Y-90219047D01*
X246727619Y-90409523D01*
X246765714Y-90485714D01*
X246803809Y-90523809D01*
X246880000Y-90561904D01*
X247108571Y-90561904D01*
X247184761Y-90523809D01*
X247222857Y-90485714D01*
X251380476Y-89731904D02*
X250885238Y-89731904D01*
X251151904Y-90036666D01*
X251037619Y-90036666D01*
X250961428Y-90074761D01*
X250923333Y-90112857D01*
X250885238Y-90189047D01*
X250885238Y-90379523D01*
X250923333Y-90455714D01*
X250961428Y-90493809D01*
X251037619Y-90531904D01*
X251266190Y-90531904D01*
X251342380Y-90493809D01*
X251380476Y-90455714D01*
X250656666Y-89731904D02*
X250390000Y-90531904D01*
X250123333Y-89731904D01*
X249932857Y-89731904D02*
X249437619Y-89731904D01*
X249704285Y-90036666D01*
X249590000Y-90036666D01*
X249513809Y-90074761D01*
X249475714Y-90112857D01*
X249437619Y-90189047D01*
X249437619Y-90379523D01*
X249475714Y-90455714D01*
X249513809Y-90493809D01*
X249590000Y-90531904D01*
X249818571Y-90531904D01*
X249894761Y-90493809D01*
X249932857Y-90455714D01*
X254370000Y-72070476D02*
X254331904Y-71994285D01*
X254331904Y-71880000D01*
X254370000Y-71765714D01*
X254446190Y-71689523D01*
X254522380Y-71651428D01*
X254674761Y-71613333D01*
X254789047Y-71613333D01*
X254941428Y-71651428D01*
X255017619Y-71689523D01*
X255093809Y-71765714D01*
X255131904Y-71880000D01*
X255131904Y-71956190D01*
X255093809Y-72070476D01*
X255055714Y-72108571D01*
X254789047Y-72108571D01*
X254789047Y-71956190D01*
X255131904Y-72451428D02*
X254331904Y-72451428D01*
X255131904Y-72908571D01*
X254331904Y-72908571D01*
X255131904Y-73289523D02*
X254331904Y-73289523D01*
X254331904Y-73480000D01*
X254370000Y-73594285D01*
X254446190Y-73670476D01*
X254522380Y-73708571D01*
X254674761Y-73746666D01*
X254789047Y-73746666D01*
X254941428Y-73708571D01*
X255017619Y-73670476D01*
X255093809Y-73594285D01*
X255131904Y-73480000D01*
X255131904Y-73289523D01*
X252222857Y-71720476D02*
X252222857Y-71987142D01*
X252641904Y-72101428D02*
X252641904Y-71720476D01*
X251841904Y-71720476D01*
X251841904Y-72101428D01*
X252565714Y-72901428D02*
X252603809Y-72863333D01*
X252641904Y-72749047D01*
X252641904Y-72672857D01*
X252603809Y-72558571D01*
X252527619Y-72482380D01*
X252451428Y-72444285D01*
X252299047Y-72406190D01*
X252184761Y-72406190D01*
X252032380Y-72444285D01*
X251956190Y-72482380D01*
X251880000Y-72558571D01*
X251841904Y-72672857D01*
X251841904Y-72749047D01*
X251880000Y-72863333D01*
X251918095Y-72901428D01*
X252641904Y-73244285D02*
X251841904Y-73244285D01*
X252222857Y-73244285D02*
X252222857Y-73701428D01*
X252641904Y-73701428D02*
X251841904Y-73701428D01*
X251841904Y-74234761D02*
X251841904Y-74387142D01*
X251880000Y-74463333D01*
X251956190Y-74539523D01*
X252108571Y-74577619D01*
X252375238Y-74577619D01*
X252527619Y-74539523D01*
X252603809Y-74463333D01*
X252641904Y-74387142D01*
X252641904Y-74234761D01*
X252603809Y-74158571D01*
X252527619Y-74082380D01*
X252375238Y-74044285D01*
X252108571Y-74044285D01*
X251956190Y-74082380D01*
X251880000Y-74158571D01*
X251841904Y-74234761D01*
X249411904Y-71430952D02*
X249411904Y-71888095D01*
X250211904Y-71659523D02*
X249411904Y-71659523D01*
X250211904Y-72611904D02*
X249830952Y-72345238D01*
X250211904Y-72154761D02*
X249411904Y-72154761D01*
X249411904Y-72459523D01*
X249450000Y-72535714D01*
X249488095Y-72573809D01*
X249564285Y-72611904D01*
X249678571Y-72611904D01*
X249754761Y-72573809D01*
X249792857Y-72535714D01*
X249830952Y-72459523D01*
X249830952Y-72154761D01*
X250211904Y-72954761D02*
X249411904Y-72954761D01*
X249450000Y-73754761D02*
X249411904Y-73678571D01*
X249411904Y-73564285D01*
X249450000Y-73450000D01*
X249526190Y-73373809D01*
X249602380Y-73335714D01*
X249754761Y-73297619D01*
X249869047Y-73297619D01*
X250021428Y-73335714D01*
X250097619Y-73373809D01*
X250173809Y-73450000D01*
X250211904Y-73564285D01*
X250211904Y-73640476D01*
X250173809Y-73754761D01*
X250135714Y-73792857D01*
X249869047Y-73792857D01*
X249869047Y-73640476D01*
X246751904Y-71689523D02*
X246751904Y-72184761D01*
X247056666Y-71918095D01*
X247056666Y-72032380D01*
X247094761Y-72108571D01*
X247132857Y-72146666D01*
X247209047Y-72184761D01*
X247399523Y-72184761D01*
X247475714Y-72146666D01*
X247513809Y-72108571D01*
X247551904Y-72032380D01*
X247551904Y-71803809D01*
X247513809Y-71727619D01*
X247475714Y-71689523D01*
X246751904Y-72413333D02*
X247551904Y-72680000D01*
X246751904Y-72946666D01*
X246751904Y-73137142D02*
X246751904Y-73632380D01*
X247056666Y-73365714D01*
X247056666Y-73480000D01*
X247094761Y-73556190D01*
X247132857Y-73594285D01*
X247209047Y-73632380D01*
X247399523Y-73632380D01*
X247475714Y-73594285D01*
X247513809Y-73556190D01*
X247551904Y-73480000D01*
X247551904Y-73251428D01*
X247513809Y-73175238D01*
X247475714Y-73137142D01*
X236330000Y-71930476D02*
X236291904Y-71854285D01*
X236291904Y-71740000D01*
X236330000Y-71625714D01*
X236406190Y-71549523D01*
X236482380Y-71511428D01*
X236634761Y-71473333D01*
X236749047Y-71473333D01*
X236901428Y-71511428D01*
X236977619Y-71549523D01*
X237053809Y-71625714D01*
X237091904Y-71740000D01*
X237091904Y-71816190D01*
X237053809Y-71930476D01*
X237015714Y-71968571D01*
X236749047Y-71968571D01*
X236749047Y-71816190D01*
X237091904Y-72311428D02*
X236291904Y-72311428D01*
X237091904Y-72768571D01*
X236291904Y-72768571D01*
X237091904Y-73149523D02*
X236291904Y-73149523D01*
X236291904Y-73340000D01*
X236330000Y-73454285D01*
X236406190Y-73530476D01*
X236482380Y-73568571D01*
X236634761Y-73606666D01*
X236749047Y-73606666D01*
X236901428Y-73568571D01*
X236977619Y-73530476D01*
X237053809Y-73454285D01*
X237091904Y-73340000D01*
X237091904Y-73149523D01*
X233751904Y-71619523D02*
X233751904Y-72114761D01*
X234056666Y-71848095D01*
X234056666Y-71962380D01*
X234094761Y-72038571D01*
X234132857Y-72076666D01*
X234209047Y-72114761D01*
X234399523Y-72114761D01*
X234475714Y-72076666D01*
X234513809Y-72038571D01*
X234551904Y-71962380D01*
X234551904Y-71733809D01*
X234513809Y-71657619D01*
X234475714Y-71619523D01*
X233751904Y-72343333D02*
X234551904Y-72610000D01*
X233751904Y-72876666D01*
X233751904Y-73067142D02*
X233751904Y-73562380D01*
X234056666Y-73295714D01*
X234056666Y-73410000D01*
X234094761Y-73486190D01*
X234132857Y-73524285D01*
X234209047Y-73562380D01*
X234399523Y-73562380D01*
X234475714Y-73524285D01*
X234513809Y-73486190D01*
X234551904Y-73410000D01*
X234551904Y-73181428D01*
X234513809Y-73105238D01*
X234475714Y-73067142D01*
X231446904Y-72057619D02*
X231446904Y-71676666D01*
X231827857Y-71638571D01*
X231789761Y-71676666D01*
X231751666Y-71752857D01*
X231751666Y-71943333D01*
X231789761Y-72019523D01*
X231827857Y-72057619D01*
X231904047Y-72095714D01*
X232094523Y-72095714D01*
X232170714Y-72057619D01*
X232208809Y-72019523D01*
X232246904Y-71943333D01*
X232246904Y-71752857D01*
X232208809Y-71676666D01*
X232170714Y-71638571D01*
X231446904Y-72324285D02*
X232246904Y-72590952D01*
X231446904Y-72857619D01*
X220491904Y-72297619D02*
X220110952Y-72030952D01*
X220491904Y-71840476D02*
X219691904Y-71840476D01*
X219691904Y-72145238D01*
X219730000Y-72221428D01*
X219768095Y-72259523D01*
X219844285Y-72297619D01*
X219958571Y-72297619D01*
X220034761Y-72259523D01*
X220072857Y-72221428D01*
X220110952Y-72145238D01*
X220110952Y-71840476D01*
X217813809Y-71931428D02*
X217851904Y-72045714D01*
X217851904Y-72236190D01*
X217813809Y-72312380D01*
X217775714Y-72350476D01*
X217699523Y-72388571D01*
X217623333Y-72388571D01*
X217547142Y-72350476D01*
X217509047Y-72312380D01*
X217470952Y-72236190D01*
X217432857Y-72083809D01*
X217394761Y-72007619D01*
X217356666Y-71969523D01*
X217280476Y-71931428D01*
X217204285Y-71931428D01*
X217128095Y-71969523D01*
X217090000Y-72007619D01*
X217051904Y-72083809D01*
X217051904Y-72274285D01*
X217090000Y-72388571D01*
X215341904Y-72437619D02*
X215341904Y-72056666D01*
X214541904Y-72056666D01*
X206680000Y-72080476D02*
X206641904Y-72004285D01*
X206641904Y-71890000D01*
X206680000Y-71775714D01*
X206756190Y-71699523D01*
X206832380Y-71661428D01*
X206984761Y-71623333D01*
X207099047Y-71623333D01*
X207251428Y-71661428D01*
X207327619Y-71699523D01*
X207403809Y-71775714D01*
X207441904Y-71890000D01*
X207441904Y-71966190D01*
X207403809Y-72080476D01*
X207365714Y-72118571D01*
X207099047Y-72118571D01*
X207099047Y-71966190D01*
X207441904Y-72461428D02*
X206641904Y-72461428D01*
X207441904Y-72918571D01*
X206641904Y-72918571D01*
X207441904Y-73299523D02*
X206641904Y-73299523D01*
X206641904Y-73490000D01*
X206680000Y-73604285D01*
X206756190Y-73680476D01*
X206832380Y-73718571D01*
X206984761Y-73756666D01*
X207099047Y-73756666D01*
X207251428Y-73718571D01*
X207327619Y-73680476D01*
X207403809Y-73604285D01*
X207441904Y-73490000D01*
X207441904Y-73299523D01*
X204201904Y-71347142D02*
X204201904Y-71804285D01*
X205001904Y-71575714D02*
X204201904Y-71575714D01*
X204582857Y-72070952D02*
X204582857Y-72337619D01*
X205001904Y-72451904D02*
X205001904Y-72070952D01*
X204201904Y-72070952D01*
X204201904Y-72451904D01*
X205001904Y-72794761D02*
X204201904Y-72794761D01*
X204773333Y-73061428D01*
X204201904Y-73328095D01*
X205001904Y-73328095D01*
X205001904Y-73709047D02*
X204201904Y-73709047D01*
X204201904Y-74013809D01*
X204240000Y-74090000D01*
X204278095Y-74128095D01*
X204354285Y-74166190D01*
X204468571Y-74166190D01*
X204544761Y-74128095D01*
X204582857Y-74090000D01*
X204620952Y-74013809D01*
X204620952Y-73709047D01*
X205078095Y-74318571D02*
X205078095Y-74928095D01*
X205001904Y-75118571D02*
X204201904Y-75118571D01*
X204201904Y-75309047D01*
X204240000Y-75423333D01*
X204316190Y-75499523D01*
X204392380Y-75537619D01*
X204544761Y-75575714D01*
X204659047Y-75575714D01*
X204811428Y-75537619D01*
X204887619Y-75499523D01*
X204963809Y-75423333D01*
X205001904Y-75309047D01*
X205001904Y-75118571D01*
X204773333Y-75880476D02*
X204773333Y-76261428D01*
X205001904Y-75804285D02*
X204201904Y-76070952D01*
X205001904Y-76337619D01*
X204201904Y-76490000D02*
X204201904Y-76947142D01*
X205001904Y-76718571D02*
X204201904Y-76718571D01*
X204773333Y-77175714D02*
X204773333Y-77556666D01*
X205001904Y-77099523D02*
X204201904Y-77366190D01*
X205001904Y-77632857D01*
X201531904Y-71719523D02*
X201531904Y-72214761D01*
X201836666Y-71948095D01*
X201836666Y-72062380D01*
X201874761Y-72138571D01*
X201912857Y-72176666D01*
X201989047Y-72214761D01*
X202179523Y-72214761D01*
X202255714Y-72176666D01*
X202293809Y-72138571D01*
X202331904Y-72062380D01*
X202331904Y-71833809D01*
X202293809Y-71757619D01*
X202255714Y-71719523D01*
X201531904Y-72443333D02*
X202331904Y-72710000D01*
X201531904Y-72976666D01*
X201531904Y-73167142D02*
X201531904Y-73662380D01*
X201836666Y-73395714D01*
X201836666Y-73510000D01*
X201874761Y-73586190D01*
X201912857Y-73624285D01*
X201989047Y-73662380D01*
X202179523Y-73662380D01*
X202255714Y-73624285D01*
X202293809Y-73586190D01*
X202331904Y-73510000D01*
X202331904Y-73281428D01*
X202293809Y-73205238D01*
X202255714Y-73167142D01*
X195111904Y-72277142D02*
X195111904Y-72734285D01*
X195911904Y-72505714D02*
X195111904Y-72505714D01*
X195492857Y-73000952D02*
X195492857Y-73267619D01*
X195911904Y-73381904D02*
X195911904Y-73000952D01*
X195111904Y-73000952D01*
X195111904Y-73381904D01*
X195911904Y-73724761D02*
X195111904Y-73724761D01*
X195683333Y-73991428D01*
X195111904Y-74258095D01*
X195911904Y-74258095D01*
X195911904Y-74639047D02*
X195111904Y-74639047D01*
X195111904Y-74943809D01*
X195150000Y-75020000D01*
X195188095Y-75058095D01*
X195264285Y-75096190D01*
X195378571Y-75096190D01*
X195454761Y-75058095D01*
X195492857Y-75020000D01*
X195530952Y-74943809D01*
X195530952Y-74639047D01*
X195988095Y-75248571D02*
X195988095Y-75858095D01*
X195911904Y-76048571D02*
X195111904Y-76048571D01*
X195111904Y-76239047D01*
X195150000Y-76353333D01*
X195226190Y-76429523D01*
X195302380Y-76467619D01*
X195454761Y-76505714D01*
X195569047Y-76505714D01*
X195721428Y-76467619D01*
X195797619Y-76429523D01*
X195873809Y-76353333D01*
X195911904Y-76239047D01*
X195911904Y-76048571D01*
X195683333Y-76810476D02*
X195683333Y-77191428D01*
X195911904Y-76734285D02*
X195111904Y-77000952D01*
X195911904Y-77267619D01*
X195111904Y-77420000D02*
X195111904Y-77877142D01*
X195911904Y-77648571D02*
X195111904Y-77648571D01*
X195683333Y-78105714D02*
X195683333Y-78486666D01*
X195911904Y-78029523D02*
X195111904Y-78296190D01*
X195911904Y-78562857D01*
X193223809Y-72248571D02*
X193261904Y-72362857D01*
X193261904Y-72553333D01*
X193223809Y-72629523D01*
X193185714Y-72667619D01*
X193109523Y-72705714D01*
X193033333Y-72705714D01*
X192957142Y-72667619D01*
X192919047Y-72629523D01*
X192880952Y-72553333D01*
X192842857Y-72400952D01*
X192804761Y-72324761D01*
X192766666Y-72286666D01*
X192690476Y-72248571D01*
X192614285Y-72248571D01*
X192538095Y-72286666D01*
X192500000Y-72324761D01*
X192461904Y-72400952D01*
X192461904Y-72591428D01*
X192500000Y-72705714D01*
X193261904Y-73048571D02*
X192461904Y-73048571D01*
X192461904Y-73239047D01*
X192500000Y-73353333D01*
X192576190Y-73429523D01*
X192652380Y-73467619D01*
X192804761Y-73505714D01*
X192919047Y-73505714D01*
X193071428Y-73467619D01*
X193147619Y-73429523D01*
X193223809Y-73353333D01*
X193261904Y-73239047D01*
X193261904Y-73048571D01*
X193033333Y-73810476D02*
X193033333Y-74191428D01*
X193261904Y-73734285D02*
X192461904Y-74000952D01*
X193261904Y-74267619D01*
X190623809Y-72227619D02*
X190661904Y-72341904D01*
X190661904Y-72532380D01*
X190623809Y-72608571D01*
X190585714Y-72646666D01*
X190509523Y-72684761D01*
X190433333Y-72684761D01*
X190357142Y-72646666D01*
X190319047Y-72608571D01*
X190280952Y-72532380D01*
X190242857Y-72380000D01*
X190204761Y-72303809D01*
X190166666Y-72265714D01*
X190090476Y-72227619D01*
X190014285Y-72227619D01*
X189938095Y-72265714D01*
X189900000Y-72303809D01*
X189861904Y-72380000D01*
X189861904Y-72570476D01*
X189900000Y-72684761D01*
X190585714Y-73484761D02*
X190623809Y-73446666D01*
X190661904Y-73332380D01*
X190661904Y-73256190D01*
X190623809Y-73141904D01*
X190547619Y-73065714D01*
X190471428Y-73027619D01*
X190319047Y-72989523D01*
X190204761Y-72989523D01*
X190052380Y-73027619D01*
X189976190Y-73065714D01*
X189900000Y-73141904D01*
X189861904Y-73256190D01*
X189861904Y-73332380D01*
X189900000Y-73446666D01*
X189938095Y-73484761D01*
X190661904Y-74208571D02*
X190661904Y-73827619D01*
X189861904Y-73827619D01*
D11*
X248627142Y-79610000D02*
X248698571Y-79538571D01*
X248841428Y-79324285D01*
X248912857Y-79181428D01*
X248984285Y-78967142D01*
X249055714Y-78610000D01*
X249055714Y-78324285D01*
X248984285Y-77967142D01*
X248912857Y-77752857D01*
X248841428Y-77610000D01*
X248698571Y-77395714D01*
X248627142Y-77324285D01*
X248198571Y-77538571D02*
X247270000Y-77538571D01*
X247770000Y-78110000D01*
X247555714Y-78110000D01*
X247412857Y-78181428D01*
X247341428Y-78252857D01*
X247270000Y-78395714D01*
X247270000Y-78752857D01*
X247341428Y-78895714D01*
X247412857Y-78967142D01*
X247555714Y-79038571D01*
X247984285Y-79038571D01*
X248127142Y-78967142D01*
X248198571Y-78895714D01*
X246627142Y-78895714D02*
X246555714Y-78967142D01*
X246627142Y-79038571D01*
X246698571Y-78967142D01*
X246627142Y-78895714D01*
X246627142Y-79038571D01*
X245198571Y-77538571D02*
X245912857Y-77538571D01*
X245984285Y-78252857D01*
X245912857Y-78181428D01*
X245770000Y-78110000D01*
X245412857Y-78110000D01*
X245270000Y-78181428D01*
X245198571Y-78252857D01*
X245127142Y-78395714D01*
X245127142Y-78752857D01*
X245198571Y-78895714D01*
X245270000Y-78967142D01*
X245412857Y-79038571D01*
X245770000Y-79038571D01*
X245912857Y-78967142D01*
X245984285Y-78895714D01*
X244412857Y-78967142D02*
X244412857Y-79038571D01*
X244484285Y-79181428D01*
X244555714Y-79252857D01*
X242984285Y-79038571D02*
X243841428Y-79038571D01*
X243412857Y-79038571D02*
X243412857Y-77538571D01*
X243555714Y-77752857D01*
X243698571Y-77895714D01*
X243841428Y-77967142D01*
X242055714Y-77538571D02*
X241912857Y-77538571D01*
X241770000Y-77610000D01*
X241698571Y-77681428D01*
X241627142Y-77824285D01*
X241555714Y-78110000D01*
X241555714Y-78467142D01*
X241627142Y-78752857D01*
X241698571Y-78895714D01*
X241770000Y-78967142D01*
X241912857Y-79038571D01*
X242055714Y-79038571D01*
X242198571Y-78967142D01*
X242270000Y-78895714D01*
X242341428Y-78752857D01*
X242412857Y-78467142D01*
X242412857Y-78110000D01*
X242341428Y-77824285D01*
X242270000Y-77681428D01*
X242198571Y-77610000D01*
X242055714Y-77538571D01*
X240912857Y-78895714D02*
X240841428Y-78967142D01*
X240912857Y-79038571D01*
X240984285Y-78967142D01*
X240912857Y-78895714D01*
X240912857Y-79038571D01*
X239912857Y-77538571D02*
X239770000Y-77538571D01*
X239627142Y-77610000D01*
X239555714Y-77681428D01*
X239484285Y-77824285D01*
X239412857Y-78110000D01*
X239412857Y-78467142D01*
X239484285Y-78752857D01*
X239555714Y-78895714D01*
X239627142Y-78967142D01*
X239770000Y-79038571D01*
X239912857Y-79038571D01*
X240055714Y-78967142D01*
X240127142Y-78895714D01*
X240198571Y-78752857D01*
X240270000Y-78467142D01*
X240270000Y-78110000D01*
X240198571Y-77824285D01*
X240127142Y-77681428D01*
X240055714Y-77610000D01*
X239912857Y-77538571D01*
X238912857Y-79610000D02*
X238841428Y-79538571D01*
X238698571Y-79324285D01*
X238627142Y-79181428D01*
X238555714Y-78967142D01*
X238484285Y-78610000D01*
X238484285Y-78324285D01*
X238555714Y-77967142D01*
X238627142Y-77752857D01*
X238698571Y-77610000D01*
X238841428Y-77395714D01*
X238912857Y-77324285D01*
X185487142Y-77100000D02*
X185558571Y-77028571D01*
X185701428Y-76814285D01*
X185772857Y-76671428D01*
X185844285Y-76457142D01*
X185915714Y-76100000D01*
X185915714Y-75814285D01*
X185844285Y-75457142D01*
X185772857Y-75242857D01*
X185701428Y-75100000D01*
X185558571Y-74885714D01*
X185487142Y-74814285D01*
X185058571Y-75028571D02*
X184130000Y-75028571D01*
X184630000Y-75600000D01*
X184415714Y-75600000D01*
X184272857Y-75671428D01*
X184201428Y-75742857D01*
X184130000Y-75885714D01*
X184130000Y-76242857D01*
X184201428Y-76385714D01*
X184272857Y-76457142D01*
X184415714Y-76528571D01*
X184844285Y-76528571D01*
X184987142Y-76457142D01*
X185058571Y-76385714D01*
X183487142Y-76385714D02*
X183415714Y-76457142D01*
X183487142Y-76528571D01*
X183558571Y-76457142D01*
X183487142Y-76385714D01*
X183487142Y-76528571D01*
X182058571Y-75028571D02*
X182772857Y-75028571D01*
X182844285Y-75742857D01*
X182772857Y-75671428D01*
X182630000Y-75600000D01*
X182272857Y-75600000D01*
X182130000Y-75671428D01*
X182058571Y-75742857D01*
X181987142Y-75885714D01*
X181987142Y-76242857D01*
X182058571Y-76385714D01*
X182130000Y-76457142D01*
X182272857Y-76528571D01*
X182630000Y-76528571D01*
X182772857Y-76457142D01*
X182844285Y-76385714D01*
X181272857Y-76457142D02*
X181272857Y-76528571D01*
X181344285Y-76671428D01*
X181415714Y-76742857D01*
X179844285Y-76528571D02*
X180701428Y-76528571D01*
X180272857Y-76528571D02*
X180272857Y-75028571D01*
X180415714Y-75242857D01*
X180558571Y-75385714D01*
X180701428Y-75457142D01*
X178915714Y-75028571D02*
X178772857Y-75028571D01*
X178630000Y-75100000D01*
X178558571Y-75171428D01*
X178487142Y-75314285D01*
X178415714Y-75600000D01*
X178415714Y-75957142D01*
X178487142Y-76242857D01*
X178558571Y-76385714D01*
X178630000Y-76457142D01*
X178772857Y-76528571D01*
X178915714Y-76528571D01*
X179058571Y-76457142D01*
X179130000Y-76385714D01*
X179201428Y-76242857D01*
X179272857Y-75957142D01*
X179272857Y-75600000D01*
X179201428Y-75314285D01*
X179130000Y-75171428D01*
X179058571Y-75100000D01*
X178915714Y-75028571D01*
X177772857Y-76385714D02*
X177701428Y-76457142D01*
X177772857Y-76528571D01*
X177844285Y-76457142D01*
X177772857Y-76385714D01*
X177772857Y-76528571D01*
X176772857Y-75028571D02*
X176630000Y-75028571D01*
X176487142Y-75100000D01*
X176415714Y-75171428D01*
X176344285Y-75314285D01*
X176272857Y-75600000D01*
X176272857Y-75957142D01*
X176344285Y-76242857D01*
X176415714Y-76385714D01*
X176487142Y-76457142D01*
X176630000Y-76528571D01*
X176772857Y-76528571D01*
X176915714Y-76457142D01*
X176987142Y-76385714D01*
X177058571Y-76242857D01*
X177130000Y-75957142D01*
X177130000Y-75600000D01*
X177058571Y-75314285D01*
X176987142Y-75171428D01*
X176915714Y-75100000D01*
X176772857Y-75028571D01*
X175772857Y-77100000D02*
X175701428Y-77028571D01*
X175558571Y-76814285D01*
X175487142Y-76671428D01*
X175415714Y-76457142D01*
X175344285Y-76100000D01*
X175344285Y-75814285D01*
X175415714Y-75457142D01*
X175487142Y-75242857D01*
X175558571Y-75100000D01*
X175701428Y-74885714D01*
X175772857Y-74814285D01*
X247042857Y-135020000D02*
X247114285Y-134948571D01*
X247257142Y-134734285D01*
X247328571Y-134591428D01*
X247400000Y-134377142D01*
X247471428Y-134020000D01*
X247471428Y-133734285D01*
X247400000Y-133377142D01*
X247328571Y-133162857D01*
X247257142Y-133020000D01*
X247114285Y-132805714D01*
X247042857Y-132734285D01*
X246614285Y-132948571D02*
X245685714Y-132948571D01*
X246185714Y-133520000D01*
X245971428Y-133520000D01*
X245828571Y-133591428D01*
X245757142Y-133662857D01*
X245685714Y-133805714D01*
X245685714Y-134162857D01*
X245757142Y-134305714D01*
X245828571Y-134377142D01*
X245971428Y-134448571D01*
X246400000Y-134448571D01*
X246542857Y-134377142D01*
X246614285Y-134305714D01*
X245042857Y-134305714D02*
X244971428Y-134377142D01*
X245042857Y-134448571D01*
X245114285Y-134377142D01*
X245042857Y-134305714D01*
X245042857Y-134448571D01*
X243614285Y-132948571D02*
X244328571Y-132948571D01*
X244400000Y-133662857D01*
X244328571Y-133591428D01*
X244185714Y-133520000D01*
X243828571Y-133520000D01*
X243685714Y-133591428D01*
X243614285Y-133662857D01*
X243542857Y-133805714D01*
X243542857Y-134162857D01*
X243614285Y-134305714D01*
X243685714Y-134377142D01*
X243828571Y-134448571D01*
X244185714Y-134448571D01*
X244328571Y-134377142D01*
X244400000Y-134305714D01*
X242828571Y-134377142D02*
X242828571Y-134448571D01*
X242900000Y-134591428D01*
X242971428Y-134662857D01*
X242328571Y-132948571D02*
X241400000Y-132948571D01*
X241900000Y-133520000D01*
X241685714Y-133520000D01*
X241542857Y-133591428D01*
X241471428Y-133662857D01*
X241400000Y-133805714D01*
X241400000Y-134162857D01*
X241471428Y-134305714D01*
X241542857Y-134377142D01*
X241685714Y-134448571D01*
X242114285Y-134448571D01*
X242257142Y-134377142D01*
X242328571Y-134305714D01*
X240757142Y-134305714D02*
X240685714Y-134377142D01*
X240757142Y-134448571D01*
X240828571Y-134377142D01*
X240757142Y-134305714D01*
X240757142Y-134448571D01*
X239328571Y-132948571D02*
X240042857Y-132948571D01*
X240114285Y-133662857D01*
X240042857Y-133591428D01*
X239900000Y-133520000D01*
X239542857Y-133520000D01*
X239400000Y-133591428D01*
X239328571Y-133662857D01*
X239257142Y-133805714D01*
X239257142Y-134162857D01*
X239328571Y-134305714D01*
X239400000Y-134377142D01*
X239542857Y-134448571D01*
X239900000Y-134448571D01*
X240042857Y-134377142D01*
X240114285Y-134305714D01*
X238757142Y-135020000D02*
X238685714Y-134948571D01*
X238542857Y-134734285D01*
X238471428Y-134591428D01*
X238400000Y-134377142D01*
X238328571Y-134020000D01*
X238328571Y-133734285D01*
X238400000Y-133377142D01*
X238471428Y-133162857D01*
X238542857Y-133020000D01*
X238685714Y-132805714D01*
X238757142Y-132734285D01*
X184982857Y-135690000D02*
X185054285Y-135618571D01*
X185197142Y-135404285D01*
X185268571Y-135261428D01*
X185340000Y-135047142D01*
X185411428Y-134690000D01*
X185411428Y-134404285D01*
X185340000Y-134047142D01*
X185268571Y-133832857D01*
X185197142Y-133690000D01*
X185054285Y-133475714D01*
X184982857Y-133404285D01*
X184554285Y-133618571D02*
X183625714Y-133618571D01*
X184125714Y-134190000D01*
X183911428Y-134190000D01*
X183768571Y-134261428D01*
X183697142Y-134332857D01*
X183625714Y-134475714D01*
X183625714Y-134832857D01*
X183697142Y-134975714D01*
X183768571Y-135047142D01*
X183911428Y-135118571D01*
X184340000Y-135118571D01*
X184482857Y-135047142D01*
X184554285Y-134975714D01*
X182982857Y-134975714D02*
X182911428Y-135047142D01*
X182982857Y-135118571D01*
X183054285Y-135047142D01*
X182982857Y-134975714D01*
X182982857Y-135118571D01*
X181554285Y-133618571D02*
X182268571Y-133618571D01*
X182340000Y-134332857D01*
X182268571Y-134261428D01*
X182125714Y-134190000D01*
X181768571Y-134190000D01*
X181625714Y-134261428D01*
X181554285Y-134332857D01*
X181482857Y-134475714D01*
X181482857Y-134832857D01*
X181554285Y-134975714D01*
X181625714Y-135047142D01*
X181768571Y-135118571D01*
X182125714Y-135118571D01*
X182268571Y-135047142D01*
X182340000Y-134975714D01*
X180768571Y-135047142D02*
X180768571Y-135118571D01*
X180840000Y-135261428D01*
X180911428Y-135332857D01*
X180268571Y-133618571D02*
X179340000Y-133618571D01*
X179840000Y-134190000D01*
X179625714Y-134190000D01*
X179482857Y-134261428D01*
X179411428Y-134332857D01*
X179340000Y-134475714D01*
X179340000Y-134832857D01*
X179411428Y-134975714D01*
X179482857Y-135047142D01*
X179625714Y-135118571D01*
X180054285Y-135118571D01*
X180197142Y-135047142D01*
X180268571Y-134975714D01*
X178697142Y-134975714D02*
X178625714Y-135047142D01*
X178697142Y-135118571D01*
X178768571Y-135047142D01*
X178697142Y-134975714D01*
X178697142Y-135118571D01*
X177268571Y-133618571D02*
X177982857Y-133618571D01*
X178054285Y-134332857D01*
X177982857Y-134261428D01*
X177840000Y-134190000D01*
X177482857Y-134190000D01*
X177340000Y-134261428D01*
X177268571Y-134332857D01*
X177197142Y-134475714D01*
X177197142Y-134832857D01*
X177268571Y-134975714D01*
X177340000Y-135047142D01*
X177482857Y-135118571D01*
X177840000Y-135118571D01*
X177982857Y-135047142D01*
X178054285Y-134975714D01*
X176697142Y-135690000D02*
X176625714Y-135618571D01*
X176482857Y-135404285D01*
X176411428Y-135261428D01*
X176340000Y-135047142D01*
X176268571Y-134690000D01*
X176268571Y-134404285D01*
X176340000Y-134047142D01*
X176411428Y-133832857D01*
X176482857Y-133690000D01*
X176625714Y-133475714D01*
X176697142Y-133404285D01*
D12*
X200311555Y-93706906D02*
G75*
G03X202589984Y-89200000I-10241555J8006906D01*
G01*
X177547659Y-89191559D02*
G75*
G03X179823049Y-93700000I12522341J3491559D01*
G01*
X179821895Y-77701479D02*
G75*
G03X177550016Y-82200000I10248105J-7998521D01*
G01*
X202592341Y-82208441D02*
G75*
G03X200316951Y-77700000I-12522341J-3491559D01*
G01*
X195570000Y-92200000D02*
X184570000Y-92200000D01*
X210270000Y-89200000D02*
X202589984Y-89200000D01*
X183070000Y-93700000D02*
X179823049Y-93700000D01*
X184570000Y-92200000D02*
X183070000Y-93700000D01*
X197070000Y-93700000D02*
X195570000Y-92200000D01*
X177550016Y-89200000D02*
X169870000Y-89200000D01*
X169870000Y-89200000D02*
X169870000Y-82200000D01*
X169870000Y-82200000D02*
X177550016Y-82200000D01*
X200310000Y-93710000D02*
X197080000Y-93710000D01*
X179823049Y-77700000D02*
X200316951Y-77700000D01*
X210270000Y-82200000D02*
X210270000Y-89200000D01*
X202589984Y-82200000D02*
X210270000Y-82200000D01*
D10*
X190070000Y-89200000D02*
X195570000Y-89200000D01*
X190070000Y-89200000D02*
X184570000Y-89200000D01*
X184570000Y-89200000D02*
X184570000Y-82200000D01*
X184570000Y-82200000D02*
X190070000Y-82200000D01*
X195570000Y-89200000D02*
X195570000Y-82200000D01*
X195570000Y-82200000D02*
X190070000Y-82200000D01*
X175045000Y-91775000D02*
X175045000Y-90750000D01*
X175570000Y-91250000D02*
X174495000Y-91250001D01*
D13*
X177660000Y-108320000D02*
G75*
G03X177660000Y-108320000I-1300000J0D01*
G01*
X232550000Y-100340000D02*
G75*
G03X232550000Y-100340000I-1300000J0D01*
G01*
X253150000Y-77570000D02*
G75*
G03X253150000Y-77570000I-1300000J0D01*
G01*
X251060000Y-75340000D02*
G75*
G03X251060000Y-75340000I-1300000J0D01*
G01*
X226010000Y-83860000D02*
G75*
G03X226010000Y-83860000I-1300000J0D01*
G01*
X197620000Y-93880000D02*
G75*
G03X197620000Y-93880000I-1300000J0D01*
G01*
X202880000Y-106040000D02*
G75*
G03X202880000Y-106040000I-1300000J0D01*
G01*
X221100000Y-130990000D02*
G75*
G03X221100000Y-130990000I-1300000J0D01*
G01*
X238710000Y-127000000D02*
G75*
G03X238710000Y-127000000I-1300000J0D01*
G01*
X236190000Y-129010000D02*
G75*
G03X236190000Y-129010000I-1300000J0D01*
G01*
X244890000Y-119000000D02*
G75*
G03X244890000Y-119000000I-1300000J0D01*
G01*
X247800000Y-120980000D02*
G75*
G03X247800000Y-120980000I-1300000J0D01*
G01*
X244850000Y-123000000D02*
G75*
G03X244850000Y-123000000I-1300000J0D01*
G01*
X220270000Y-84040000D02*
G75*
G03X220270000Y-84040000I-1300000J0D01*
G01*
X218820000Y-86540000D02*
G75*
G03X218820000Y-86540000I-1300000J0D01*
G01*
X220590000Y-95110000D02*
G75*
G03X220590000Y-95110000I-1300000J0D01*
G01*
X217570000Y-95140000D02*
G75*
G03X217570000Y-95140000I-1300000J0D01*
G01*
X223180000Y-103850000D02*
G75*
G03X223180000Y-103850000I-1300000J0D01*
G01*
X221740000Y-86590000D02*
G75*
G03X221740000Y-86590000I-1300000J0D01*
G01*
X227710000Y-100610000D02*
G75*
G03X227710000Y-100610000I-1300000J0D01*
G01*
X220520000Y-98080000D02*
G75*
G03X220520000Y-98080000I-1300000J0D01*
G01*
X209190000Y-96350000D02*
G75*
G03X209190000Y-96350000I-1300000J0D01*
G01*
X209280000Y-93480000D02*
G75*
G03X209280000Y-93480000I-1300000J0D01*
G01*
X223660000Y-98140000D02*
G75*
G03X223660000Y-98140000I-1300000J0D01*
G01*
X223600000Y-95090000D02*
G75*
G03X223600000Y-95090000I-1300000J0D01*
G01*
X225910000Y-93690000D02*
G75*
G03X225910000Y-93690000I-1300000J0D01*
G01*
X217480000Y-98210000D02*
G75*
G03X217480000Y-98210000I-1300000J0D01*
G01*
X217420000Y-101380000D02*
G75*
G03X217420000Y-101380000I-1300000J0D01*
G01*
X209170000Y-99340000D02*
G75*
G03X209170000Y-99340000I-1300000J0D01*
G01*
X213860000Y-103350000D02*
G75*
G03X213860000Y-103350000I-1300000J0D01*
G01*
X226840000Y-97410000D02*
G75*
G03X226840000Y-97410000I-1300000J0D01*
G01*
X224650000Y-89420000D02*
G75*
G03X224650000Y-89420000I-1300000J0D01*
G01*
X224650000Y-86620000D02*
G75*
G03X224650000Y-86620000I-1300000J0D01*
G01*
X212530000Y-92320000D02*
G75*
G03X212530000Y-92320000I-1300000J0D01*
G01*
D10*
X205798571Y-90592857D02*
X205684285Y-90630952D01*
X205646190Y-90669047D01*
X205608095Y-90745238D01*
X205608095Y-90859523D01*
X205646190Y-90935714D01*
X205684285Y-90973809D01*
X205760476Y-91011904D01*
X206065238Y-91011904D01*
X206065238Y-90211904D01*
X205798571Y-90211904D01*
X205722380Y-90250000D01*
X205684285Y-90288095D01*
X205646190Y-90364285D01*
X205646190Y-90440476D01*
X205684285Y-90516666D01*
X205722380Y-90554761D01*
X205798571Y-90592857D01*
X206065238Y-90592857D01*
X205379523Y-90211904D02*
X204922380Y-90211904D01*
X205150952Y-91011904D02*
X205150952Y-90211904D01*
X204236666Y-91011904D02*
X204693809Y-91011904D01*
X204465238Y-91011904D02*
X204465238Y-90211904D01*
X204541428Y-90326190D01*
X204617619Y-90402380D01*
X204693809Y-90440476D01*
X177750476Y-109879904D02*
X177293333Y-109879904D01*
X177521904Y-110679904D02*
X177521904Y-109879904D01*
X177026666Y-110679904D02*
X177026666Y-109879904D01*
X176721904Y-109879904D01*
X176645714Y-109918000D01*
X176607619Y-109956095D01*
X176569523Y-110032285D01*
X176569523Y-110146571D01*
X176607619Y-110222761D01*
X176645714Y-110260857D01*
X176721904Y-110298952D01*
X177026666Y-110298952D01*
X176264761Y-109956095D02*
X176226666Y-109918000D01*
X176150476Y-109879904D01*
X175960000Y-109879904D01*
X175883809Y-109918000D01*
X175845714Y-109956095D01*
X175807619Y-110032285D01*
X175807619Y-110108476D01*
X175845714Y-110222761D01*
X176302857Y-110679904D01*
X175807619Y-110679904D01*
X175540952Y-109879904D02*
X175007619Y-109879904D01*
X175350476Y-110679904D01*
X232640476Y-101899904D02*
X232183333Y-101899904D01*
X232411904Y-102699904D02*
X232411904Y-101899904D01*
X231916666Y-102699904D02*
X231916666Y-101899904D01*
X231611904Y-101899904D01*
X231535714Y-101938000D01*
X231497619Y-101976095D01*
X231459523Y-102052285D01*
X231459523Y-102166571D01*
X231497619Y-102242761D01*
X231535714Y-102280857D01*
X231611904Y-102318952D01*
X231916666Y-102318952D01*
X231154761Y-101976095D02*
X231116666Y-101938000D01*
X231040476Y-101899904D01*
X230850000Y-101899904D01*
X230773809Y-101938000D01*
X230735714Y-101976095D01*
X230697619Y-102052285D01*
X230697619Y-102128476D01*
X230735714Y-102242761D01*
X231192857Y-102699904D01*
X230697619Y-102699904D01*
X230240476Y-102242761D02*
X230316666Y-102204666D01*
X230354761Y-102166571D01*
X230392857Y-102090380D01*
X230392857Y-102052285D01*
X230354761Y-101976095D01*
X230316666Y-101938000D01*
X230240476Y-101899904D01*
X230088095Y-101899904D01*
X230011904Y-101938000D01*
X229973809Y-101976095D01*
X229935714Y-102052285D01*
X229935714Y-102090380D01*
X229973809Y-102166571D01*
X230011904Y-102204666D01*
X230088095Y-102242761D01*
X230240476Y-102242761D01*
X230316666Y-102280857D01*
X230354761Y-102318952D01*
X230392857Y-102395142D01*
X230392857Y-102547523D01*
X230354761Y-102623714D01*
X230316666Y-102661809D01*
X230240476Y-102699904D01*
X230088095Y-102699904D01*
X230011904Y-102661809D01*
X229973809Y-102623714D01*
X229935714Y-102547523D01*
X229935714Y-102395142D01*
X229973809Y-102318952D01*
X230011904Y-102280857D01*
X230088095Y-102242761D01*
X255290476Y-79571904D02*
X254833333Y-79571904D01*
X255061904Y-80371904D02*
X255061904Y-79571904D01*
X254566666Y-80371904D02*
X254566666Y-79571904D01*
X254261904Y-79571904D01*
X254185714Y-79610000D01*
X254147619Y-79648095D01*
X254109523Y-79724285D01*
X254109523Y-79838571D01*
X254147619Y-79914761D01*
X254185714Y-79952857D01*
X254261904Y-79990952D01*
X254566666Y-79990952D01*
X253842857Y-79571904D02*
X253347619Y-79571904D01*
X253614285Y-79876666D01*
X253500000Y-79876666D01*
X253423809Y-79914761D01*
X253385714Y-79952857D01*
X253347619Y-80029047D01*
X253347619Y-80219523D01*
X253385714Y-80295714D01*
X253423809Y-80333809D01*
X253500000Y-80371904D01*
X253728571Y-80371904D01*
X253804761Y-80333809D01*
X253842857Y-80295714D01*
X252852380Y-79571904D02*
X252776190Y-79571904D01*
X252700000Y-79610000D01*
X252661904Y-79648095D01*
X252623809Y-79724285D01*
X252585714Y-79876666D01*
X252585714Y-80067142D01*
X252623809Y-80219523D01*
X252661904Y-80295714D01*
X252700000Y-80333809D01*
X252776190Y-80371904D01*
X252852380Y-80371904D01*
X252928571Y-80333809D01*
X252966666Y-80295714D01*
X253004761Y-80219523D01*
X253042857Y-80067142D01*
X253042857Y-79876666D01*
X253004761Y-79724285D01*
X252966666Y-79648095D01*
X252928571Y-79610000D01*
X252852380Y-79571904D01*
X248510476Y-75151904D02*
X248053333Y-75151904D01*
X248281904Y-75951904D02*
X248281904Y-75151904D01*
X247786666Y-75951904D02*
X247786666Y-75151904D01*
X247481904Y-75151904D01*
X247405714Y-75190000D01*
X247367619Y-75228095D01*
X247329523Y-75304285D01*
X247329523Y-75418571D01*
X247367619Y-75494761D01*
X247405714Y-75532857D01*
X247481904Y-75570952D01*
X247786666Y-75570952D01*
X247062857Y-75151904D02*
X246567619Y-75151904D01*
X246834285Y-75456666D01*
X246720000Y-75456666D01*
X246643809Y-75494761D01*
X246605714Y-75532857D01*
X246567619Y-75609047D01*
X246567619Y-75799523D01*
X246605714Y-75875714D01*
X246643809Y-75913809D01*
X246720000Y-75951904D01*
X246948571Y-75951904D01*
X247024761Y-75913809D01*
X247062857Y-75875714D01*
X245805714Y-75951904D02*
X246262857Y-75951904D01*
X246034285Y-75951904D02*
X246034285Y-75151904D01*
X246110476Y-75266190D01*
X246186666Y-75342380D01*
X246262857Y-75380476D01*
X226270476Y-81191904D02*
X225813333Y-81191904D01*
X226041904Y-81991904D02*
X226041904Y-81191904D01*
X225546666Y-81991904D02*
X225546666Y-81191904D01*
X225241904Y-81191904D01*
X225165714Y-81230000D01*
X225127619Y-81268095D01*
X225089523Y-81344285D01*
X225089523Y-81458571D01*
X225127619Y-81534761D01*
X225165714Y-81572857D01*
X225241904Y-81610952D01*
X225546666Y-81610952D01*
X224822857Y-81191904D02*
X224327619Y-81191904D01*
X224594285Y-81496666D01*
X224480000Y-81496666D01*
X224403809Y-81534761D01*
X224365714Y-81572857D01*
X224327619Y-81649047D01*
X224327619Y-81839523D01*
X224365714Y-81915714D01*
X224403809Y-81953809D01*
X224480000Y-81991904D01*
X224708571Y-81991904D01*
X224784761Y-81953809D01*
X224822857Y-81915714D01*
X224022857Y-81268095D02*
X223984761Y-81230000D01*
X223908571Y-81191904D01*
X223718095Y-81191904D01*
X223641904Y-81230000D01*
X223603809Y-81268095D01*
X223565714Y-81344285D01*
X223565714Y-81420476D01*
X223603809Y-81534761D01*
X224060952Y-81991904D01*
X223565714Y-81991904D01*
X197710476Y-95439904D02*
X197253333Y-95439904D01*
X197481904Y-96239904D02*
X197481904Y-95439904D01*
X196986666Y-96239904D02*
X196986666Y-95439904D01*
X196681904Y-95439904D01*
X196605714Y-95478000D01*
X196567619Y-95516095D01*
X196529523Y-95592285D01*
X196529523Y-95706571D01*
X196567619Y-95782761D01*
X196605714Y-95820857D01*
X196681904Y-95858952D01*
X196986666Y-95858952D01*
X195843809Y-95706571D02*
X195843809Y-96239904D01*
X196034285Y-95401809D02*
X196224761Y-95973238D01*
X195729523Y-95973238D01*
X195081904Y-95706571D02*
X195081904Y-96239904D01*
X195272380Y-95401809D02*
X195462857Y-95973238D01*
X194967619Y-95973238D01*
X202970476Y-107599904D02*
X202513333Y-107599904D01*
X202741904Y-108399904D02*
X202741904Y-107599904D01*
X202246666Y-108399904D02*
X202246666Y-107599904D01*
X201941904Y-107599904D01*
X201865714Y-107638000D01*
X201827619Y-107676095D01*
X201789523Y-107752285D01*
X201789523Y-107866571D01*
X201827619Y-107942761D01*
X201865714Y-107980857D01*
X201941904Y-108018952D01*
X202246666Y-108018952D01*
X201103809Y-107866571D02*
X201103809Y-108399904D01*
X201294285Y-107561809D02*
X201484761Y-108133238D01*
X200989523Y-108133238D01*
X200303809Y-107599904D02*
X200684761Y-107599904D01*
X200722857Y-107980857D01*
X200684761Y-107942761D01*
X200608571Y-107904666D01*
X200418095Y-107904666D01*
X200341904Y-107942761D01*
X200303809Y-107980857D01*
X200265714Y-108057047D01*
X200265714Y-108247523D01*
X200303809Y-108323714D01*
X200341904Y-108361809D01*
X200418095Y-108399904D01*
X200608571Y-108399904D01*
X200684761Y-108361809D01*
X200722857Y-108323714D01*
X221190476Y-132549904D02*
X220733333Y-132549904D01*
X220961904Y-133349904D02*
X220961904Y-132549904D01*
X220466666Y-133349904D02*
X220466666Y-132549904D01*
X220161904Y-132549904D01*
X220085714Y-132588000D01*
X220047619Y-132626095D01*
X220009523Y-132702285D01*
X220009523Y-132816571D01*
X220047619Y-132892761D01*
X220085714Y-132930857D01*
X220161904Y-132968952D01*
X220466666Y-132968952D01*
X219323809Y-132816571D02*
X219323809Y-133349904D01*
X219514285Y-132511809D02*
X219704761Y-133083238D01*
X219209523Y-133083238D01*
X218752380Y-132549904D02*
X218676190Y-132549904D01*
X218600000Y-132588000D01*
X218561904Y-132626095D01*
X218523809Y-132702285D01*
X218485714Y-132854666D01*
X218485714Y-133045142D01*
X218523809Y-133197523D01*
X218561904Y-133273714D01*
X218600000Y-133311809D01*
X218676190Y-133349904D01*
X218752380Y-133349904D01*
X218828571Y-133311809D01*
X218866666Y-133273714D01*
X218904761Y-133197523D01*
X218942857Y-133045142D01*
X218942857Y-132854666D01*
X218904761Y-132702285D01*
X218866666Y-132626095D01*
X218828571Y-132588000D01*
X218752380Y-132549904D01*
X238920476Y-124321904D02*
X238463333Y-124321904D01*
X238691904Y-125121904D02*
X238691904Y-124321904D01*
X238196666Y-125121904D02*
X238196666Y-124321904D01*
X237891904Y-124321904D01*
X237815714Y-124360000D01*
X237777619Y-124398095D01*
X237739523Y-124474285D01*
X237739523Y-124588571D01*
X237777619Y-124664761D01*
X237815714Y-124702857D01*
X237891904Y-124740952D01*
X238196666Y-124740952D01*
X237053809Y-124588571D02*
X237053809Y-125121904D01*
X237244285Y-124283809D02*
X237434761Y-124855238D01*
X236939523Y-124855238D01*
X236710952Y-124321904D02*
X236177619Y-124321904D01*
X236520476Y-125121904D01*
X236280476Y-130569904D02*
X235823333Y-130569904D01*
X236051904Y-131369904D02*
X236051904Y-130569904D01*
X235556666Y-131369904D02*
X235556666Y-130569904D01*
X235251904Y-130569904D01*
X235175714Y-130608000D01*
X235137619Y-130646095D01*
X235099523Y-130722285D01*
X235099523Y-130836571D01*
X235137619Y-130912761D01*
X235175714Y-130950857D01*
X235251904Y-130988952D01*
X235556666Y-130988952D01*
X234413809Y-130836571D02*
X234413809Y-131369904D01*
X234604285Y-130531809D02*
X234794761Y-131103238D01*
X234299523Y-131103238D01*
X233880476Y-130912761D02*
X233956666Y-130874666D01*
X233994761Y-130836571D01*
X234032857Y-130760380D01*
X234032857Y-130722285D01*
X233994761Y-130646095D01*
X233956666Y-130608000D01*
X233880476Y-130569904D01*
X233728095Y-130569904D01*
X233651904Y-130608000D01*
X233613809Y-130646095D01*
X233575714Y-130722285D01*
X233575714Y-130760380D01*
X233613809Y-130836571D01*
X233651904Y-130874666D01*
X233728095Y-130912761D01*
X233880476Y-130912761D01*
X233956666Y-130950857D01*
X233994761Y-130988952D01*
X234032857Y-131065142D01*
X234032857Y-131217523D01*
X233994761Y-131293714D01*
X233956666Y-131331809D01*
X233880476Y-131369904D01*
X233728095Y-131369904D01*
X233651904Y-131331809D01*
X233613809Y-131293714D01*
X233575714Y-131217523D01*
X233575714Y-131065142D01*
X233613809Y-130988952D01*
X233651904Y-130950857D01*
X233728095Y-130912761D01*
X244890476Y-116591904D02*
X244433333Y-116591904D01*
X244661904Y-117391904D02*
X244661904Y-116591904D01*
X244166666Y-117391904D02*
X244166666Y-116591904D01*
X243861904Y-116591904D01*
X243785714Y-116630000D01*
X243747619Y-116668095D01*
X243709523Y-116744285D01*
X243709523Y-116858571D01*
X243747619Y-116934761D01*
X243785714Y-116972857D01*
X243861904Y-117010952D01*
X244166666Y-117010952D01*
X243023809Y-116858571D02*
X243023809Y-117391904D01*
X243214285Y-116553809D02*
X243404761Y-117125238D01*
X242909523Y-117125238D01*
X242566666Y-117391904D02*
X242414285Y-117391904D01*
X242338095Y-117353809D01*
X242300000Y-117315714D01*
X242223809Y-117201428D01*
X242185714Y-117049047D01*
X242185714Y-116744285D01*
X242223809Y-116668095D01*
X242261904Y-116630000D01*
X242338095Y-116591904D01*
X242490476Y-116591904D01*
X242566666Y-116630000D01*
X242604761Y-116668095D01*
X242642857Y-116744285D01*
X242642857Y-116934761D01*
X242604761Y-117010952D01*
X242566666Y-117049047D01*
X242490476Y-117087142D01*
X242338095Y-117087142D01*
X242261904Y-117049047D01*
X242223809Y-117010952D01*
X242185714Y-116934761D01*
X248181904Y-119619523D02*
X248181904Y-120076666D01*
X248981904Y-119848095D02*
X248181904Y-119848095D01*
X248981904Y-120343333D02*
X248181904Y-120343333D01*
X248181904Y-120648095D01*
X248220000Y-120724285D01*
X248258095Y-120762380D01*
X248334285Y-120800476D01*
X248448571Y-120800476D01*
X248524761Y-120762380D01*
X248562857Y-120724285D01*
X248600952Y-120648095D01*
X248600952Y-120343333D01*
X248181904Y-121524285D02*
X248181904Y-121143333D01*
X248562857Y-121105238D01*
X248524761Y-121143333D01*
X248486666Y-121219523D01*
X248486666Y-121410000D01*
X248524761Y-121486190D01*
X248562857Y-121524285D01*
X248639047Y-121562380D01*
X248829523Y-121562380D01*
X248905714Y-121524285D01*
X248943809Y-121486190D01*
X248981904Y-121410000D01*
X248981904Y-121219523D01*
X248943809Y-121143333D01*
X248905714Y-121105238D01*
X248181904Y-122057619D02*
X248181904Y-122133809D01*
X248220000Y-122210000D01*
X248258095Y-122248095D01*
X248334285Y-122286190D01*
X248486666Y-122324285D01*
X248677142Y-122324285D01*
X248829523Y-122286190D01*
X248905714Y-122248095D01*
X248943809Y-122210000D01*
X248981904Y-122133809D01*
X248981904Y-122057619D01*
X248943809Y-121981428D01*
X248905714Y-121943333D01*
X248829523Y-121905238D01*
X248677142Y-121867142D01*
X248486666Y-121867142D01*
X248334285Y-121905238D01*
X248258095Y-121943333D01*
X248220000Y-121981428D01*
X248181904Y-122057619D01*
X244940476Y-124559904D02*
X244483333Y-124559904D01*
X244711904Y-125359904D02*
X244711904Y-124559904D01*
X244216666Y-125359904D02*
X244216666Y-124559904D01*
X243911904Y-124559904D01*
X243835714Y-124598000D01*
X243797619Y-124636095D01*
X243759523Y-124712285D01*
X243759523Y-124826571D01*
X243797619Y-124902761D01*
X243835714Y-124940857D01*
X243911904Y-124978952D01*
X244216666Y-124978952D01*
X243035714Y-124559904D02*
X243416666Y-124559904D01*
X243454761Y-124940857D01*
X243416666Y-124902761D01*
X243340476Y-124864666D01*
X243150000Y-124864666D01*
X243073809Y-124902761D01*
X243035714Y-124940857D01*
X242997619Y-125017047D01*
X242997619Y-125207523D01*
X243035714Y-125283714D01*
X243073809Y-125321809D01*
X243150000Y-125359904D01*
X243340476Y-125359904D01*
X243416666Y-125321809D01*
X243454761Y-125283714D01*
X242235714Y-125359904D02*
X242692857Y-125359904D01*
X242464285Y-125359904D02*
X242464285Y-124559904D01*
X242540476Y-124674190D01*
X242616666Y-124750380D01*
X242692857Y-124788476D01*
X219929523Y-81271904D02*
X219472380Y-81271904D01*
X219700952Y-82071904D02*
X219700952Y-81271904D01*
X219205714Y-82071904D02*
X219205714Y-81271904D01*
X218900952Y-81271904D01*
X218824761Y-81310000D01*
X218786666Y-81348095D01*
X218748571Y-81424285D01*
X218748571Y-81538571D01*
X218786666Y-81614761D01*
X218824761Y-81652857D01*
X218900952Y-81690952D01*
X219205714Y-81690952D01*
X217986666Y-82071904D02*
X218443809Y-82071904D01*
X218215238Y-82071904D02*
X218215238Y-81271904D01*
X218291428Y-81386190D01*
X218367619Y-81462380D01*
X218443809Y-81500476D01*
X218529523Y-88099904D02*
X218072380Y-88099904D01*
X218300952Y-88899904D02*
X218300952Y-88099904D01*
X217805714Y-88899904D02*
X217805714Y-88099904D01*
X217500952Y-88099904D01*
X217424761Y-88138000D01*
X217386666Y-88176095D01*
X217348571Y-88252285D01*
X217348571Y-88366571D01*
X217386666Y-88442761D01*
X217424761Y-88480857D01*
X217500952Y-88518952D01*
X217805714Y-88518952D01*
X217043809Y-88176095D02*
X217005714Y-88138000D01*
X216929523Y-88099904D01*
X216739047Y-88099904D01*
X216662857Y-88138000D01*
X216624761Y-88176095D01*
X216586666Y-88252285D01*
X216586666Y-88328476D01*
X216624761Y-88442761D01*
X217081904Y-88899904D01*
X216586666Y-88899904D01*
X220319523Y-109931904D02*
X219862380Y-109931904D01*
X220090952Y-110731904D02*
X220090952Y-109931904D01*
X219595714Y-110731904D02*
X219595714Y-109931904D01*
X219290952Y-109931904D01*
X219214761Y-109970000D01*
X219176666Y-110008095D01*
X219138571Y-110084285D01*
X219138571Y-110198571D01*
X219176666Y-110274761D01*
X219214761Y-110312857D01*
X219290952Y-110350952D01*
X219595714Y-110350952D01*
X218871904Y-109931904D02*
X218376666Y-109931904D01*
X218643333Y-110236666D01*
X218529047Y-110236666D01*
X218452857Y-110274761D01*
X218414761Y-110312857D01*
X218376666Y-110389047D01*
X218376666Y-110579523D01*
X218414761Y-110655714D01*
X218452857Y-110693809D01*
X218529047Y-110731904D01*
X218757619Y-110731904D01*
X218833809Y-110693809D01*
X218871904Y-110655714D01*
X217829523Y-109981904D02*
X217372380Y-109981904D01*
X217600952Y-110781904D02*
X217600952Y-109981904D01*
X217105714Y-110781904D02*
X217105714Y-109981904D01*
X216800952Y-109981904D01*
X216724761Y-110020000D01*
X216686666Y-110058095D01*
X216648571Y-110134285D01*
X216648571Y-110248571D01*
X216686666Y-110324761D01*
X216724761Y-110362857D01*
X216800952Y-110400952D01*
X217105714Y-110400952D01*
X215962857Y-110248571D02*
X215962857Y-110781904D01*
X216153333Y-109943809D02*
X216343809Y-110515238D01*
X215848571Y-110515238D01*
X222889523Y-105409904D02*
X222432380Y-105409904D01*
X222660952Y-106209904D02*
X222660952Y-105409904D01*
X222165714Y-106209904D02*
X222165714Y-105409904D01*
X221860952Y-105409904D01*
X221784761Y-105448000D01*
X221746666Y-105486095D01*
X221708571Y-105562285D01*
X221708571Y-105676571D01*
X221746666Y-105752761D01*
X221784761Y-105790857D01*
X221860952Y-105828952D01*
X222165714Y-105828952D01*
X220984761Y-105409904D02*
X221365714Y-105409904D01*
X221403809Y-105790857D01*
X221365714Y-105752761D01*
X221289523Y-105714666D01*
X221099047Y-105714666D01*
X221022857Y-105752761D01*
X220984761Y-105790857D01*
X220946666Y-105867047D01*
X220946666Y-106057523D01*
X220984761Y-106133714D01*
X221022857Y-106171809D01*
X221099047Y-106209904D01*
X221289523Y-106209904D01*
X221365714Y-106171809D01*
X221403809Y-106133714D01*
X221449523Y-88149904D02*
X220992380Y-88149904D01*
X221220952Y-88949904D02*
X221220952Y-88149904D01*
X220725714Y-88949904D02*
X220725714Y-88149904D01*
X220420952Y-88149904D01*
X220344761Y-88188000D01*
X220306666Y-88226095D01*
X220268571Y-88302285D01*
X220268571Y-88416571D01*
X220306666Y-88492761D01*
X220344761Y-88530857D01*
X220420952Y-88568952D01*
X220725714Y-88568952D01*
X219582857Y-88149904D02*
X219735238Y-88149904D01*
X219811428Y-88188000D01*
X219849523Y-88226095D01*
X219925714Y-88340380D01*
X219963809Y-88492761D01*
X219963809Y-88797523D01*
X219925714Y-88873714D01*
X219887619Y-88911809D01*
X219811428Y-88949904D01*
X219659047Y-88949904D01*
X219582857Y-88911809D01*
X219544761Y-88873714D01*
X219506666Y-88797523D01*
X219506666Y-88607047D01*
X219544761Y-88530857D01*
X219582857Y-88492761D01*
X219659047Y-88454666D01*
X219811428Y-88454666D01*
X219887619Y-88492761D01*
X219925714Y-88530857D01*
X219963809Y-88607047D01*
X227419523Y-102169904D02*
X226962380Y-102169904D01*
X227190952Y-102969904D02*
X227190952Y-102169904D01*
X226695714Y-102969904D02*
X226695714Y-102169904D01*
X226390952Y-102169904D01*
X226314761Y-102208000D01*
X226276666Y-102246095D01*
X226238571Y-102322285D01*
X226238571Y-102436571D01*
X226276666Y-102512761D01*
X226314761Y-102550857D01*
X226390952Y-102588952D01*
X226695714Y-102588952D01*
X225971904Y-102169904D02*
X225438571Y-102169904D01*
X225781428Y-102969904D01*
X220219523Y-111341904D02*
X219762380Y-111341904D01*
X219990952Y-112141904D02*
X219990952Y-111341904D01*
X219495714Y-112141904D02*
X219495714Y-111341904D01*
X219190952Y-111341904D01*
X219114761Y-111380000D01*
X219076666Y-111418095D01*
X219038571Y-111494285D01*
X219038571Y-111608571D01*
X219076666Y-111684761D01*
X219114761Y-111722857D01*
X219190952Y-111760952D01*
X219495714Y-111760952D01*
X218581428Y-111684761D02*
X218657619Y-111646666D01*
X218695714Y-111608571D01*
X218733809Y-111532380D01*
X218733809Y-111494285D01*
X218695714Y-111418095D01*
X218657619Y-111380000D01*
X218581428Y-111341904D01*
X218429047Y-111341904D01*
X218352857Y-111380000D01*
X218314761Y-111418095D01*
X218276666Y-111494285D01*
X218276666Y-111532380D01*
X218314761Y-111608571D01*
X218352857Y-111646666D01*
X218429047Y-111684761D01*
X218581428Y-111684761D01*
X218657619Y-111722857D01*
X218695714Y-111760952D01*
X218733809Y-111837142D01*
X218733809Y-111989523D01*
X218695714Y-112065714D01*
X218657619Y-112103809D01*
X218581428Y-112141904D01*
X218429047Y-112141904D01*
X218352857Y-112103809D01*
X218314761Y-112065714D01*
X218276666Y-111989523D01*
X218276666Y-111837142D01*
X218314761Y-111760952D01*
X218352857Y-111722857D01*
X218429047Y-111684761D01*
X205453904Y-95340476D02*
X205453904Y-95797619D01*
X206253904Y-95569047D02*
X205453904Y-95569047D01*
X206253904Y-96064285D02*
X205453904Y-96064285D01*
X205453904Y-96369047D01*
X205492000Y-96445238D01*
X205530095Y-96483333D01*
X205606285Y-96521428D01*
X205720571Y-96521428D01*
X205796761Y-96483333D01*
X205834857Y-96445238D01*
X205872952Y-96369047D01*
X205872952Y-96064285D01*
X206253904Y-96902380D02*
X206253904Y-97054761D01*
X206215809Y-97130952D01*
X206177714Y-97169047D01*
X206063428Y-97245238D01*
X205911047Y-97283333D01*
X205606285Y-97283333D01*
X205530095Y-97245238D01*
X205492000Y-97207142D01*
X205453904Y-97130952D01*
X205453904Y-96978571D01*
X205492000Y-96902380D01*
X205530095Y-96864285D01*
X205606285Y-96826190D01*
X205796761Y-96826190D01*
X205872952Y-96864285D01*
X205911047Y-96902380D01*
X205949142Y-96978571D01*
X205949142Y-97130952D01*
X205911047Y-97207142D01*
X205872952Y-97245238D01*
X205796761Y-97283333D01*
X205543904Y-92089523D02*
X205543904Y-92546666D01*
X206343904Y-92318095D02*
X205543904Y-92318095D01*
X206343904Y-92813333D02*
X205543904Y-92813333D01*
X205543904Y-93118095D01*
X205582000Y-93194285D01*
X205620095Y-93232380D01*
X205696285Y-93270476D01*
X205810571Y-93270476D01*
X205886761Y-93232380D01*
X205924857Y-93194285D01*
X205962952Y-93118095D01*
X205962952Y-92813333D01*
X206343904Y-94032380D02*
X206343904Y-93575238D01*
X206343904Y-93803809D02*
X205543904Y-93803809D01*
X205658190Y-93727619D01*
X205734380Y-93651428D01*
X205772476Y-93575238D01*
X205543904Y-94527619D02*
X205543904Y-94603809D01*
X205582000Y-94680000D01*
X205620095Y-94718095D01*
X205696285Y-94756190D01*
X205848666Y-94794285D01*
X206039142Y-94794285D01*
X206191523Y-94756190D01*
X206267714Y-94718095D01*
X206305809Y-94680000D01*
X206343904Y-94603809D01*
X206343904Y-94527619D01*
X206305809Y-94451428D01*
X206267714Y-94413333D01*
X206191523Y-94375238D01*
X206039142Y-94337142D01*
X205848666Y-94337142D01*
X205696285Y-94375238D01*
X205620095Y-94413333D01*
X205582000Y-94451428D01*
X205543904Y-94527619D01*
X223490476Y-111151904D02*
X223033333Y-111151904D01*
X223261904Y-111951904D02*
X223261904Y-111151904D01*
X222766666Y-111951904D02*
X222766666Y-111151904D01*
X222461904Y-111151904D01*
X222385714Y-111190000D01*
X222347619Y-111228095D01*
X222309523Y-111304285D01*
X222309523Y-111418571D01*
X222347619Y-111494761D01*
X222385714Y-111532857D01*
X222461904Y-111570952D01*
X222766666Y-111570952D01*
X221547619Y-111951904D02*
X222004761Y-111951904D01*
X221776190Y-111951904D02*
X221776190Y-111151904D01*
X221852380Y-111266190D01*
X221928571Y-111342380D01*
X222004761Y-111380476D01*
X220785714Y-111951904D02*
X221242857Y-111951904D01*
X221014285Y-111951904D02*
X221014285Y-111151904D01*
X221090476Y-111266190D01*
X221166666Y-111342380D01*
X221242857Y-111380476D01*
X223490476Y-109911904D02*
X223033333Y-109911904D01*
X223261904Y-110711904D02*
X223261904Y-109911904D01*
X222766666Y-110711904D02*
X222766666Y-109911904D01*
X222461904Y-109911904D01*
X222385714Y-109950000D01*
X222347619Y-109988095D01*
X222309523Y-110064285D01*
X222309523Y-110178571D01*
X222347619Y-110254761D01*
X222385714Y-110292857D01*
X222461904Y-110330952D01*
X222766666Y-110330952D01*
X221547619Y-110711904D02*
X222004761Y-110711904D01*
X221776190Y-110711904D02*
X221776190Y-109911904D01*
X221852380Y-110026190D01*
X221928571Y-110102380D01*
X222004761Y-110140476D01*
X221242857Y-109988095D02*
X221204761Y-109950000D01*
X221128571Y-109911904D01*
X220938095Y-109911904D01*
X220861904Y-109950000D01*
X220823809Y-109988095D01*
X220785714Y-110064285D01*
X220785714Y-110140476D01*
X220823809Y-110254761D01*
X221280952Y-110711904D01*
X220785714Y-110711904D01*
X226241904Y-92309523D02*
X226241904Y-92766666D01*
X227041904Y-92538095D02*
X226241904Y-92538095D01*
X227041904Y-93033333D02*
X226241904Y-93033333D01*
X226241904Y-93338095D01*
X226280000Y-93414285D01*
X226318095Y-93452380D01*
X226394285Y-93490476D01*
X226508571Y-93490476D01*
X226584761Y-93452380D01*
X226622857Y-93414285D01*
X226660952Y-93338095D01*
X226660952Y-93033333D01*
X227041904Y-94252380D02*
X227041904Y-93795238D01*
X227041904Y-94023809D02*
X226241904Y-94023809D01*
X226356190Y-93947619D01*
X226432380Y-93871428D01*
X226470476Y-93795238D01*
X226241904Y-94519047D02*
X226241904Y-95014285D01*
X226546666Y-94747619D01*
X226546666Y-94861904D01*
X226584761Y-94938095D01*
X226622857Y-94976190D01*
X226699047Y-95014285D01*
X226889523Y-95014285D01*
X226965714Y-94976190D01*
X227003809Y-94938095D01*
X227041904Y-94861904D01*
X227041904Y-94633333D01*
X227003809Y-94557142D01*
X226965714Y-94519047D01*
X217860476Y-111391904D02*
X217403333Y-111391904D01*
X217631904Y-112191904D02*
X217631904Y-111391904D01*
X217136666Y-112191904D02*
X217136666Y-111391904D01*
X216831904Y-111391904D01*
X216755714Y-111430000D01*
X216717619Y-111468095D01*
X216679523Y-111544285D01*
X216679523Y-111658571D01*
X216717619Y-111734761D01*
X216755714Y-111772857D01*
X216831904Y-111810952D01*
X217136666Y-111810952D01*
X215917619Y-112191904D02*
X216374761Y-112191904D01*
X216146190Y-112191904D02*
X216146190Y-111391904D01*
X216222380Y-111506190D01*
X216298571Y-111582380D01*
X216374761Y-111620476D01*
X215231904Y-111658571D02*
X215231904Y-112191904D01*
X215422380Y-111353809D02*
X215612857Y-111925238D01*
X215117619Y-111925238D01*
X217430476Y-103121904D02*
X216973333Y-103121904D01*
X217201904Y-103921904D02*
X217201904Y-103121904D01*
X216706666Y-103921904D02*
X216706666Y-103121904D01*
X216401904Y-103121904D01*
X216325714Y-103160000D01*
X216287619Y-103198095D01*
X216249523Y-103274285D01*
X216249523Y-103388571D01*
X216287619Y-103464761D01*
X216325714Y-103502857D01*
X216401904Y-103540952D01*
X216706666Y-103540952D01*
X215487619Y-103921904D02*
X215944761Y-103921904D01*
X215716190Y-103921904D02*
X215716190Y-103121904D01*
X215792380Y-103236190D01*
X215868571Y-103312380D01*
X215944761Y-103350476D01*
X214763809Y-103121904D02*
X215144761Y-103121904D01*
X215182857Y-103502857D01*
X215144761Y-103464761D01*
X215068571Y-103426666D01*
X214878095Y-103426666D01*
X214801904Y-103464761D01*
X214763809Y-103502857D01*
X214725714Y-103579047D01*
X214725714Y-103769523D01*
X214763809Y-103845714D01*
X214801904Y-103883809D01*
X214878095Y-103921904D01*
X215068571Y-103921904D01*
X215144761Y-103883809D01*
X215182857Y-103845714D01*
X205433904Y-97949523D02*
X205433904Y-98406666D01*
X206233904Y-98178095D02*
X205433904Y-98178095D01*
X206233904Y-98673333D02*
X205433904Y-98673333D01*
X205433904Y-98978095D01*
X205472000Y-99054285D01*
X205510095Y-99092380D01*
X205586285Y-99130476D01*
X205700571Y-99130476D01*
X205776761Y-99092380D01*
X205814857Y-99054285D01*
X205852952Y-98978095D01*
X205852952Y-98673333D01*
X206233904Y-99892380D02*
X206233904Y-99435238D01*
X206233904Y-99663809D02*
X205433904Y-99663809D01*
X205548190Y-99587619D01*
X205624380Y-99511428D01*
X205662476Y-99435238D01*
X205433904Y-100578095D02*
X205433904Y-100425714D01*
X205472000Y-100349523D01*
X205510095Y-100311428D01*
X205624380Y-100235238D01*
X205776761Y-100197142D01*
X206081523Y-100197142D01*
X206157714Y-100235238D01*
X206195809Y-100273333D01*
X206233904Y-100349523D01*
X206233904Y-100501904D01*
X206195809Y-100578095D01*
X206157714Y-100616190D01*
X206081523Y-100654285D01*
X205891047Y-100654285D01*
X205814857Y-100616190D01*
X205776761Y-100578095D01*
X205738666Y-100501904D01*
X205738666Y-100349523D01*
X205776761Y-100273333D01*
X205814857Y-100235238D01*
X205891047Y-100197142D01*
X210123904Y-101959523D02*
X210123904Y-102416666D01*
X210923904Y-102188095D02*
X210123904Y-102188095D01*
X210923904Y-102683333D02*
X210123904Y-102683333D01*
X210123904Y-102988095D01*
X210162000Y-103064285D01*
X210200095Y-103102380D01*
X210276285Y-103140476D01*
X210390571Y-103140476D01*
X210466761Y-103102380D01*
X210504857Y-103064285D01*
X210542952Y-102988095D01*
X210542952Y-102683333D01*
X210923904Y-103902380D02*
X210923904Y-103445238D01*
X210923904Y-103673809D02*
X210123904Y-103673809D01*
X210238190Y-103597619D01*
X210314380Y-103521428D01*
X210352476Y-103445238D01*
X210123904Y-104169047D02*
X210123904Y-104702380D01*
X210923904Y-104359523D01*
X227261904Y-95999523D02*
X227261904Y-96456666D01*
X228061904Y-96228095D02*
X227261904Y-96228095D01*
X228061904Y-96723333D02*
X227261904Y-96723333D01*
X227261904Y-97028095D01*
X227300000Y-97104285D01*
X227338095Y-97142380D01*
X227414285Y-97180476D01*
X227528571Y-97180476D01*
X227604761Y-97142380D01*
X227642857Y-97104285D01*
X227680952Y-97028095D01*
X227680952Y-96723333D01*
X228061904Y-97942380D02*
X228061904Y-97485238D01*
X228061904Y-97713809D02*
X227261904Y-97713809D01*
X227376190Y-97637619D01*
X227452380Y-97561428D01*
X227490476Y-97485238D01*
X227604761Y-98399523D02*
X227566666Y-98323333D01*
X227528571Y-98285238D01*
X227452380Y-98247142D01*
X227414285Y-98247142D01*
X227338095Y-98285238D01*
X227300000Y-98323333D01*
X227261904Y-98399523D01*
X227261904Y-98551904D01*
X227300000Y-98628095D01*
X227338095Y-98666190D01*
X227414285Y-98704285D01*
X227452380Y-98704285D01*
X227528571Y-98666190D01*
X227566666Y-98628095D01*
X227604761Y-98551904D01*
X227604761Y-98399523D01*
X227642857Y-98323333D01*
X227680952Y-98285238D01*
X227757142Y-98247142D01*
X227909523Y-98247142D01*
X227985714Y-98285238D01*
X228023809Y-98323333D01*
X228061904Y-98399523D01*
X228061904Y-98551904D01*
X228023809Y-98628095D01*
X227985714Y-98666190D01*
X227909523Y-98704285D01*
X227757142Y-98704285D01*
X227680952Y-98666190D01*
X227642857Y-98628095D01*
X227604761Y-98551904D01*
X224740476Y-90979904D02*
X224283333Y-90979904D01*
X224511904Y-91779904D02*
X224511904Y-90979904D01*
X224016666Y-91779904D02*
X224016666Y-90979904D01*
X223711904Y-90979904D01*
X223635714Y-91018000D01*
X223597619Y-91056095D01*
X223559523Y-91132285D01*
X223559523Y-91246571D01*
X223597619Y-91322761D01*
X223635714Y-91360857D01*
X223711904Y-91398952D01*
X224016666Y-91398952D01*
X222797619Y-91779904D02*
X223254761Y-91779904D01*
X223026190Y-91779904D02*
X223026190Y-90979904D01*
X223102380Y-91094190D01*
X223178571Y-91170380D01*
X223254761Y-91208476D01*
X222416666Y-91779904D02*
X222264285Y-91779904D01*
X222188095Y-91741809D01*
X222150000Y-91703714D01*
X222073809Y-91589428D01*
X222035714Y-91437047D01*
X222035714Y-91132285D01*
X222073809Y-91056095D01*
X222111904Y-91018000D01*
X222188095Y-90979904D01*
X222340476Y-90979904D01*
X222416666Y-91018000D01*
X222454761Y-91056095D01*
X222492857Y-91132285D01*
X222492857Y-91322761D01*
X222454761Y-91398952D01*
X222416666Y-91437047D01*
X222340476Y-91475142D01*
X222188095Y-91475142D01*
X222111904Y-91437047D01*
X222073809Y-91398952D01*
X222035714Y-91322761D01*
X225301904Y-85569523D02*
X225301904Y-86026666D01*
X226101904Y-85798095D02*
X225301904Y-85798095D01*
X226101904Y-86293333D02*
X225301904Y-86293333D01*
X225301904Y-86598095D01*
X225340000Y-86674285D01*
X225378095Y-86712380D01*
X225454285Y-86750476D01*
X225568571Y-86750476D01*
X225644761Y-86712380D01*
X225682857Y-86674285D01*
X225720952Y-86598095D01*
X225720952Y-86293333D01*
X225378095Y-87055238D02*
X225340000Y-87093333D01*
X225301904Y-87169523D01*
X225301904Y-87360000D01*
X225340000Y-87436190D01*
X225378095Y-87474285D01*
X225454285Y-87512380D01*
X225530476Y-87512380D01*
X225644761Y-87474285D01*
X226101904Y-87017142D01*
X226101904Y-87512380D01*
X225301904Y-88007619D02*
X225301904Y-88083809D01*
X225340000Y-88160000D01*
X225378095Y-88198095D01*
X225454285Y-88236190D01*
X225606666Y-88274285D01*
X225797142Y-88274285D01*
X225949523Y-88236190D01*
X226025714Y-88198095D01*
X226063809Y-88160000D01*
X226101904Y-88083809D01*
X226101904Y-88007619D01*
X226063809Y-87931428D01*
X226025714Y-87893333D01*
X225949523Y-87855238D01*
X225797142Y-87817142D01*
X225606666Y-87817142D01*
X225454285Y-87855238D01*
X225378095Y-87893333D01*
X225340000Y-87931428D01*
X225301904Y-88007619D01*
X212550476Y-94361904D02*
X212093333Y-94361904D01*
X212321904Y-95161904D02*
X212321904Y-94361904D01*
X211826666Y-95161904D02*
X211826666Y-94361904D01*
X211521904Y-94361904D01*
X211445714Y-94400000D01*
X211407619Y-94438095D01*
X211369523Y-94514285D01*
X211369523Y-94628571D01*
X211407619Y-94704761D01*
X211445714Y-94742857D01*
X211521904Y-94780952D01*
X211826666Y-94780952D01*
X211064761Y-94438095D02*
X211026666Y-94400000D01*
X210950476Y-94361904D01*
X210760000Y-94361904D01*
X210683809Y-94400000D01*
X210645714Y-94438095D01*
X210607619Y-94514285D01*
X210607619Y-94590476D01*
X210645714Y-94704761D01*
X211102857Y-95161904D01*
X210607619Y-95161904D01*
X209845714Y-95161904D02*
X210302857Y-95161904D01*
X210074285Y-95161904D02*
X210074285Y-94361904D01*
X210150476Y-94476190D01*
X210226666Y-94552380D01*
X210302857Y-94590476D01*
M02*
