(module E-Connect_LOGO_GROOT (layer F.Cu) (tedit 5BADE0FA)
  (attr smd)
  (fp_text reference G*** (at 0 0) (layer F.SilkS) hide
    (effects (font (size 1.524 1.524) (thickness 0.3)))
  )
  (fp_text value E-Connect_LOGO_GROOT (at 0.75 0) (layer F.SilkS) hide
    (effects (font (size 1.524 1.524) (thickness 0.3)))
  )
  (fp_text user E-TRAILER (at 0 20.32) (layer F.SilkS)
    (effects (font (size 4 4) (thickness 0.3)))
  )
  (fp_poly (pts (xy 6.833891 -25.471772) (xy 7.96238 -25.400213) (xy 8.978409 -25.293303) (xy 9.799138 -25.155768)
    (xy 11.995738 -24.557501) (xy 14.097347 -23.736105) (xy 16.087468 -22.704981) (xy 17.949605 -21.477529)
    (xy 19.667261 -20.067151) (xy 21.223939 -18.487248) (xy 22.603144 -16.751221) (xy 23.788378 -14.87247)
    (xy 24.675553 -13.070777) (xy 25.207826 -11.747737) (xy 25.616966 -10.509493) (xy 25.936979 -9.241282)
    (xy 26.167226 -8.036843) (xy 26.274458 -7.356396) (xy 26.346692 -6.756422) (xy 26.388047 -6.163295)
    (xy 26.402643 -5.503387) (xy 26.3946 -4.703072) (xy 26.382411 -4.191) (xy 26.327868 -2.892502)
    (xy 26.231979 -1.771687) (xy 26.082911 -0.75396) (xy 25.868831 0.235275) (xy 25.577906 1.270615)
    (xy 25.453544 1.664466) (xy 24.632035 3.804616) (xy 23.599077 5.817882) (xy 22.368937 7.691801)
    (xy 20.955879 9.413908) (xy 19.374171 10.97174) (xy 17.638077 12.352832) (xy 15.761862 13.544722)
    (xy 13.759792 14.534944) (xy 11.646133 15.311036) (xy 9.435151 15.860533) (xy 9.144 15.914199)
    (xy 8.950446 15.950628) (xy 8.820165 15.982179) (xy 8.768098 16.009232) (xy 8.80919 16.032162)
    (xy 8.958383 16.051347) (xy 9.230621 16.067165) (xy 9.640847 16.079993) (xy 10.204004 16.090207)
    (xy 10.935035 16.098185) (xy 11.848884 16.104305) (xy 12.960494 16.108944) (xy 14.284808 16.112478)
    (xy 15.83677 16.115285) (xy 17.184245 16.117173) (xy 18.678906 16.120565) (xy 20.095498 16.126608)
    (xy 21.414152 16.135038) (xy 22.614996 16.145595) (xy 23.678161 16.158018) (xy 24.583775 16.172044)
    (xy 25.311967 16.187412) (xy 25.842869 16.203861) (xy 26.156608 16.221129) (xy 26.237659 16.236325)
    (xy 26.105561 16.248475) (xy 25.734307 16.259949) (xy 25.138301 16.270744) (xy 24.331946 16.280859)
    (xy 23.329646 16.290292) (xy 22.145807 16.29904) (xy 20.794831 16.307103) (xy 19.291124 16.314478)
    (xy 17.649088 16.321162) (xy 15.88313 16.327155) (xy 14.007651 16.332454) (xy 12.037058 16.337057)
    (xy 9.985753 16.340962) (xy 7.868141 16.344168) (xy 5.698626 16.346672) (xy 3.491613 16.348472)
    (xy 1.261505 16.349567) (xy -0.977293 16.349954) (xy -3.210378 16.349631) (xy -5.423345 16.348598)
    (xy -7.60179 16.34685) (xy -9.731309 16.344388) (xy -11.797498 16.341208) (xy -13.785952 16.337309)
    (xy -15.682268 16.332689) (xy -17.472041 16.327346) (xy -19.140867 16.321278) (xy -20.674342 16.314482)
    (xy -22.058063 16.306958) (xy -23.277624 16.298703) (xy -24.318621 16.289715) (xy -25.166651 16.279992)
    (xy -25.80731 16.269532) (xy -26.226192 16.258333) (xy -26.408895 16.246394) (xy -26.416 16.243455)
    (xy -26.291293 16.225267) (xy -25.92634 16.207842) (xy -25.334895 16.191331) (xy -24.530711 16.175885)
    (xy -23.527542 16.161657) (xy -22.339142 16.148798) (xy -20.979264 16.137459) (xy -19.461662 16.127793)
    (xy -17.800089 16.119951) (xy -16.008299 16.114085) (xy -14.38275 16.110749) (xy -12.684273 16.10717)
    (xy -11.077805 16.10182) (xy -9.578898 16.09486) (xy -8.203106 16.086456) (xy -6.965982 16.076769)
    (xy -5.883078 16.065963) (xy -5.18377 16.056956) (xy 1.365686 16.056956) (xy 1.468216 16.073372)
    (xy 1.774946 16.083016) (xy 2.032 16.084624) (xy 2.444122 16.07985) (xy 2.666256 16.067025)
    (xy 2.673506 16.048389) (xy 2.57175 16.036009) (xy 2.065989 16.016023) (xy 1.545661 16.031633)
    (xy 1.49225 16.036009) (xy 1.365686 16.056956) (xy -5.18377 16.056956) (xy -4.969948 16.054202)
    (xy -4.242145 16.041649) (xy -3.715221 16.028468) (xy -3.40473 16.014821) (xy -3.326224 16.000873)
    (xy -3.3655 15.995028) (xy -4.227737 15.896194) (xy -4.990829 15.76674) (xy -5.750038 15.585675)
    (xy -6.600629 15.332006) (xy -7.0645 15.179913) (xy -9.206814 14.333284) (xy -11.220657 13.273129)
    (xy -13.092782 12.008402) (xy -14.809943 10.54806) (xy -16.358893 8.901057) (xy -16.368181 8.89)
    (xy -16.666174 8.537732) (xy -16.899893 8.266508) (xy -17.021989 8.131224) (xy -17.025425 8.128)
    (xy -17.121131 8.00118) (xy -17.322591 7.709894) (xy -17.596791 7.302419) (xy -17.807031 6.985)
    (xy -18.955564 5.019006) (xy -19.871767 2.977072) (xy -20.557462 0.877414) (xy -21.014472 -1.261754)
    (xy -21.244618 -3.422216) (xy -21.24961 -5.538462) (xy -14.97027 -5.538462) (xy -14.948513 -3.310217)
    (xy -14.693337 -1.102477) (xy -14.288805 0.742207) (xy -13.616956 2.804535) (xy -12.742594 4.746171)
    (xy -11.652415 6.590507) (xy -10.333116 8.360932) (xy -9.272679 9.561846) (xy -8.830046 10.029185)
    (xy -8.526382 10.333808) (xy -8.327687 10.499007) (xy -8.199964 10.548074) (xy -8.109213 10.504299)
    (xy -8.034673 10.409954) (xy -7.96389 10.283425) (xy -7.96139 10.153911) (xy -8.051713 9.98216)
    (xy -8.259401 9.72892) (xy -8.608994 9.354938) (xy -8.851733 9.103108) (xy -10.32633 7.409644)
    (xy -11.571127 5.611666) (xy -12.592613 3.697843) (xy -13.397277 1.656845) (xy -13.711281 0.6182)
    (xy -14.192527 -1.603449) (xy -14.421411 -3.829418) (xy -14.417612 -4.206064) (xy -8.479106 -4.206064)
    (xy -8.473899 -4.076265) (xy -8.360586 -2.656496) (xy -8.138412 -1.385258) (xy -7.783875 -0.171857)
    (xy -7.273476 1.074401) (xy -6.983066 1.677333) (xy -6.634459 2.305555) (xy -6.189987 3.006706)
    (xy -5.691228 3.723937) (xy -5.179758 4.400398) (xy -4.697156 4.979236) (xy -4.284997 5.403603)
    (xy -4.210434 5.468484) (xy -3.7465 5.855155) (xy -3.262714 5.315751) (xy -2.959205 4.930415)
    (xy -2.840525 4.643948) (xy -2.84791 4.501498) (xy -2.807373 4.176389) (xy -2.668606 4.001953)
    (xy -2.506304 3.83529) (xy -2.501476 3.69787) (xy -2.654541 3.479506) (xy -2.67066 3.459001)
    (xy -2.866658 3.04467) (xy -2.921 2.644432) (xy -2.889535 2.327569) (xy -2.767025 2.044842)
    (xy -2.511302 1.714546) (xy -2.3495 1.537138) (xy -1.778 0.926158) (xy -1.778 -0.472294)
    (xy -1.77791 -1.005521) (xy -1.762343 -1.416614) (xy -1.708355 -1.748711) (xy -1.593003 -2.044947)
    (xy -1.393343 -2.348461) (xy -1.086432 -2.702389) (xy -0.649326 -3.149867) (xy -0.059082 -3.734034)
    (xy -0.025471 -3.767274) (xy 0.576391 -4.342405) (xy 1.049241 -4.737486) (xy 1.426534 -4.967711)
    (xy 1.741726 -5.048273) (xy 2.028272 -4.994366) (xy 2.310374 -4.828061) (xy 2.686983 -4.549622)
    (xy 3.553643 -5.386311) (xy 4.024276 -5.823144) (xy 4.366373 -6.086927) (xy 4.619521 -6.195008)
    (xy 4.823305 -6.164735) (xy 5.007428 -6.023429) (xy 5.175111 -5.773105) (xy 5.177381 -5.492296)
    (xy 5.001522 -5.147795) (xy 4.634818 -4.706393) (xy 4.41622 -4.479463) (xy 3.625441 -3.681592)
    (xy 4.946419 -2.356104) (xy 6.267396 -1.030616) (xy 7.069638 -1.848808) (xy 7.449705 -2.213482)
    (xy 7.785373 -2.494461) (xy 8.024251 -2.649532) (xy 8.08519 -2.667) (xy 8.371834 -2.570675)
    (xy 8.631067 -2.343846) (xy 8.760935 -2.079733) (xy 8.763 -2.047254) (xy 8.677916 -1.874789)
    (xy 8.449613 -1.577067) (xy 8.118508 -1.204306) (xy 7.913685 -0.992002) (xy 7.521833 -0.590912)
    (xy 7.286957 -0.324273) (xy 7.183771 -0.149631) (xy 7.186987 -0.024531) (xy 7.26879 0.090685)
    (xy 7.52448 0.54179) (xy 7.556527 1.037774) (xy 7.450917 1.351571) (xy 7.293239 1.569944)
    (xy 6.990446 1.920591) (xy 6.581482 2.36075) (xy 6.10529 2.847656) (xy 5.934994 3.01625)
    (xy 4.608822 4.318) (xy 3.352161 4.328583) (xy 2.646403 4.336872) (xy 2.143349 4.355631)
    (xy 1.791704 4.396522) (xy 1.540174 4.471205) (xy 1.337466 4.591344) (xy 1.132284 4.768598)
    (xy 1.042709 4.853631) (xy 0.491124 5.305619) (xy 0.009431 5.526869) (xy -0.428392 5.521839)
    (xy -0.848367 5.294986) (xy -0.961444 5.196873) (xy -1.148085 5.042327) (xy -1.285349 5.044933)
    (xy -1.474588 5.218059) (xy -1.524609 5.271147) (xy -1.756041 5.471466) (xy -1.896007 5.466744)
    (xy -1.92151 5.434287) (xy -2.028372 5.328811) (xy -2.056845 5.339627) (xy -2.158146 5.459385)
    (xy -2.379019 5.703654) (xy -2.58447 5.92583) (xy -3.073439 6.45026) (xy -2.33047 6.954249)
    (xy -0.936512 7.773133) (xy 0.603657 8.4539) (xy 2.204678 8.962794) (xy 3.3655 9.206795)
    (xy 4.322498 9.309201) (xy 5.418116 9.342354) (xy 6.550609 9.308652) (xy 7.618236 9.210494)
    (xy 8.347112 9.089331) (xy 10.183993 8.580503) (xy 11.885469 7.858655) (xy 13.464373 6.916796)
    (xy 14.933538 5.747938) (xy 15.532409 5.176138) (xy 16.759336 3.770303) (xy 17.772177 2.248004)
    (xy 18.568626 0.631262) (xy 19.146376 -1.057902) (xy 19.50312 -2.797467) (xy 19.636551 -4.565413)
    (xy 19.544361 -6.339718) (xy 19.224244 -8.098362) (xy 18.673893 -9.819325) (xy 17.891001 -11.480584)
    (xy 17.368399 -12.348674) (xy 16.251974 -13.839861) (xy 14.977389 -15.148023) (xy 13.566028 -16.26654)
    (xy 12.039277 -17.188796) (xy 10.418518 -17.908173) (xy 8.725135 -18.418052) (xy 6.980513 -18.711817)
    (xy 5.206036 -18.782848) (xy 3.423087 -18.624529) (xy 1.65305 -18.230242) (xy 0.127 -17.684486)
    (xy -1.597467 -16.821505) (xy -3.150542 -15.771337) (xy -4.530241 -14.535818) (xy -5.734578 -13.116785)
    (xy -6.761567 -11.516073) (xy -6.975881 -11.115827) (xy -7.695888 -9.481916) (xy -8.181975 -7.806574)
    (xy -8.440822 -6.058418) (xy -8.479106 -4.206064) (xy -14.417612 -4.206064) (xy -14.399035 -6.04753)
    (xy -14.1265 -8.24561) (xy -13.60491 -10.411481) (xy -12.835364 -12.532967) (xy -12.442967 -13.3985)
    (xy -11.373569 -15.333612) (xy -10.100037 -17.128542) (xy -8.638607 -18.769416) (xy -7.005515 -20.242359)
    (xy -5.216997 -21.533496) (xy -3.289287 -22.628953) (xy -1.238623 -23.514855) (xy -0.1905 -23.869272)
    (xy 1.165144 -24.208888) (xy 2.685003 -24.454439) (xy 4.295466 -24.601055) (xy 5.922923 -24.643862)
    (xy 7.493763 -24.577988) (xy 8.608241 -24.45167) (xy 10.763134 -24.002684) (xy 12.831149 -23.323626)
    (xy 14.797251 -22.428054) (xy 16.646408 -21.329522) (xy 18.363585 -20.041588) (xy 19.93375 -18.577808)
    (xy 21.34187 -16.951736) (xy 22.572909 -15.17693) (xy 23.611836 -13.266946) (xy 24.443617 -11.23534)
    (xy 24.888502 -9.771261) (xy 25.316801 -7.658976) (xy 25.513191 -5.500434) (xy 25.48037 -3.329468)
    (xy 25.221038 -1.179911) (xy 24.737896 0.914403) (xy 24.033641 2.919642) (xy 23.840353 3.365393)
    (xy 22.791752 5.39644) (xy 21.551254 7.265301) (xy 20.128872 8.963898) (xy 18.534615 10.484154)
    (xy 16.778496 11.817992) (xy 14.870525 12.957333) (xy 12.820714 13.8941) (xy 10.639075 14.620215)
    (xy 9.55783 14.889366) (xy 9.089482 14.986015) (xy 8.639279 15.057937) (xy 8.156932 15.108701)
    (xy 7.592152 15.141876) (xy 6.894651 15.161033) (xy 6.014141 15.169738) (xy 5.588 15.171117)
    (xy 4.635939 15.17003) (xy 3.886918 15.160124) (xy 3.290033 15.137764) (xy 2.794376 15.099316)
    (xy 2.349041 15.041143) (xy 1.903122 14.959611) (xy 1.543847 14.882328) (xy -0.607575 14.288264)
    (xy -2.646899 13.499125) (xy -4.543104 12.528451) (xy -5.983892 11.59617) (xy -6.546308 11.206957)
    (xy -6.940468 10.974437) (xy -7.191425 10.890542) (xy -7.324236 10.947203) (xy -7.363955 11.136351)
    (xy -7.363925 11.151745) (xy -7.257649 11.328287) (xy -6.962818 11.605537) (xy -6.511997 11.959218)
    (xy -5.937755 12.365055) (xy -5.272659 12.798775) (xy -4.633508 13.18692) (xy -3.031674 14.00895)
    (xy -1.250741 14.71002) (xy 0.656617 15.273084) (xy 2.637731 15.6811) (xy 3.429 15.795799)
    (xy 3.701579 15.811765) (xy 4.175869 15.82022) (xy 4.799687 15.821015) (xy 5.520851 15.814)
    (xy 6.096 15.803483) (xy 7.066276 15.773746) (xy 7.855015 15.727554) (xy 8.534512 15.657704)
    (xy 9.177062 15.556993) (xy 9.766161 15.437817) (xy 10.819893 15.192799) (xy 11.710355 14.947102)
    (xy 12.52651 14.67017) (xy 13.357326 14.331447) (xy 14.291767 13.900375) (xy 14.4145 13.841274)
    (xy 16.412577 12.751664) (xy 18.222727 11.499665) (xy 19.864993 10.068093) (xy 21.359417 8.439765)
    (xy 22.53403 6.880002) (xy 23.698547 4.973938) (xy 24.634265 2.977031) (xy 25.341298 0.908499)
    (xy 25.819761 -1.212437) (xy 26.06977 -3.366557) (xy 26.091438 -5.534642) (xy 25.884882 -7.697471)
    (xy 25.450216 -9.835825) (xy 24.787554 -11.930483) (xy 23.897012 -13.962226) (xy 22.778705 -15.911834)
    (xy 22.394314 -16.4843) (xy 21.718101 -17.369822) (xy 20.886474 -18.32312) (xy 19.959022 -19.284659)
    (xy 18.995336 -20.194906) (xy 18.055003 -20.994323) (xy 17.360875 -21.513168) (xy 15.385349 -22.728866)
    (xy 13.322203 -23.70616) (xy 11.172077 -24.444821) (xy 8.93561 -24.944617) (xy 7.243952 -25.158934)
    (xy 5.019072 -25.228515) (xy 2.813203 -25.052561) (xy 0.64654 -24.63953) (xy -1.460724 -23.997886)
    (xy -3.488394 -23.136087) (xy -5.416275 -22.062595) (xy -7.224175 -20.785871) (xy -8.891898 -19.314376)
    (xy -10.261042 -17.824795) (xy -10.698595 -17.264863) (xy -11.19581 -16.575764) (xy -11.706106 -15.827113)
    (xy -12.182904 -15.088521) (xy -12.579623 -14.429602) (xy -12.784396 -14.05371) (xy -13.665671 -12.044837)
    (xy -14.325784 -9.935912) (xy -14.761672 -7.757074) (xy -14.97027 -5.538462) (xy -21.24961 -5.538462)
    (xy -21.249722 -5.585757) (xy -21.031607 -7.734162) (xy -20.592093 -9.849215) (xy -19.933004 -11.912703)
    (xy -19.05616 -13.906408) (xy -17.963385 -15.812117) (xy -16.656499 -17.611614) (xy -15.183877 -19.2405)
    (xy -14.584445 -19.81835) (xy -13.95361 -20.394653) (xy -13.350833 -20.917122) (xy -12.835578 -21.333471)
    (xy -12.6365 -21.480486) (xy -11.212999 -22.387036) (xy -9.643956 -23.216276) (xy -8.008962 -23.932122)
    (xy -6.387608 -24.498487) (xy -5.386226 -24.767629) (xy -4.509466 -24.934795) (xy -3.468286 -25.074547)
    (xy -2.351485 -25.179358) (xy -1.247864 -25.241697) (xy -0.246223 -25.254037) (xy 0.180185 -25.239564)
    (xy 1.073815 -25.233481) (xy 2.047298 -25.296301) (xy 2.6035 -25.363789) (xy 3.477746 -25.453989)
    (xy 4.521165 -25.500695) (xy 5.66335 -25.505945) (xy 6.833891 -25.471772)) (layer F.SilkS) (width 0.01))
  (fp_poly (pts (xy -6.193888 -24.994682) (xy -5.947294 -24.972977) (xy -5.851479 -24.943307) (xy -5.929613 -24.890738)
    (xy -6.204866 -24.800333) (xy -6.700409 -24.657156) (xy -6.731 -24.648453) (xy -8.044992 -24.197527)
    (xy -9.44669 -23.57946) (xy -10.871976 -22.83074) (xy -12.256734 -21.987856) (xy -13.536843 -21.087296)
    (xy -14.648187 -20.165551) (xy -14.712493 -20.106295) (xy -15.171025 -19.657716) (xy -15.680787 -19.120763)
    (xy -16.213255 -18.529877) (xy -16.739901 -17.919498) (xy -17.232202 -17.324064) (xy -17.661632 -16.778017)
    (xy -17.999664 -16.315795) (xy -18.217775 -15.971838) (xy -18.288 -15.789457) (xy -18.362927 -15.636034)
    (xy -18.466215 -15.504001) (xy -18.593861 -15.312208) (xy -18.801609 -14.948015) (xy -19.058457 -14.467433)
    (xy -19.280111 -14.0335) (xy -20.204971 -11.90924) (xy -20.887688 -9.727251) (xy -21.328157 -7.505063)
    (xy -21.52627 -5.260208) (xy -21.481924 -3.010214) (xy -21.195011 -0.772614) (xy -20.665427 1.435063)
    (xy -19.893066 3.595285) (xy -19.393035 4.699) (xy -18.321599 6.620523) (xy -17.042453 8.43155)
    (xy -15.580459 10.10686) (xy -13.960478 11.621233) (xy -12.207373 12.949445) (xy -10.346006 14.066275)
    (xy -9.9695 14.258792) (xy -8.142577 15.067921) (xy -6.302751 15.693948) (xy -6.096 15.752104)
    (xy -5.2705 15.979072) (xy -6.1595 15.97622) (xy -6.731547 15.946386) (xy -7.412388 15.870395)
    (xy -8.064471 15.763971) (xy -8.128 15.751192) (xy -8.909692 15.585393) (xy -9.529872 15.438754)
    (xy -10.077227 15.286652) (xy -10.640444 15.104463) (xy -11.30067 14.870303) (xy -13.196559 14.06424)
    (xy -15.025081 13.057577) (xy -16.745181 11.87917) (xy -18.315806 10.557874) (xy -19.695901 9.122543)
    (xy -20.002214 8.754394) (xy -20.33784 8.34037) (xy -20.613059 8.00436) (xy -20.77492 7.8105)
    (xy -20.447 7.8105) (xy -20.3835 7.874) (xy -20.32 7.8105) (xy -20.3835 7.747)
    (xy -20.447 7.8105) (xy -20.77492 7.8105) (xy -20.789338 7.793232) (xy -20.830493 7.747)
    (xy -20.928096 7.61215) (xy -21.124211 7.313967) (xy -21.384997 6.90591) (xy -21.676615 6.441439)
    (xy -21.965228 5.974015) (xy -22.216996 5.557097) (xy -22.222351 5.548078) (xy -23.076532 3.884191)
    (xy -23.770057 2.058591) (xy -24.291688 0.114964) (xy -24.630186 -1.903001) (xy -24.774315 -3.951614)
    (xy -24.778832 -4.39021) (xy -24.727437 -6.126178) (xy -24.565667 -7.709929) (xy -24.279174 -9.224397)
    (xy -23.853612 -10.752512) (xy -23.500534 -11.778993) (xy -23.287477 -12.329457) (xy -23.034884 -12.934834)
    (xy -22.770129 -13.534494) (xy -22.520584 -14.067804) (xy -22.313622 -14.474133) (xy -22.196026 -14.6685)
    (xy -22.094469 -14.817722) (xy -21.883209 -15.135412) (xy -21.591476 -15.577401) (xy -21.248496 -16.09952)
    (xy -21.18757 -16.1925) (xy -20.32847 -17.365468) (xy -19.290874 -18.555842) (xy -18.137401 -19.701166)
    (xy -16.930673 -20.738983) (xy -15.80815 -21.55779) (xy -15.277972 -21.909145) (xy -14.820299 -22.214799)
    (xy -14.479237 -22.445125) (xy -14.298895 -22.570499) (xy -14.2875 -22.579158) (xy -14.068996 -22.706016)
    (xy -13.665676 -22.899289) (xy -13.130755 -23.136756) (xy -12.51745 -23.396192) (xy -11.878974 -23.655373)
    (xy -11.268545 -23.892076) (xy -10.739377 -24.084076) (xy -10.4775 -24.170284) (xy -9.730828 -24.382312)
    (xy -8.924484 -24.579608) (xy -8.116587 -24.750986) (xy -7.365252 -24.885264) (xy -6.728596 -24.971255)
    (xy -6.264736 -24.997775) (xy -6.193888 -24.994682)) (layer F.SilkS) (width 0.01))
  (fp_poly (pts (xy 20.193 9.5885) (xy 20.1295 9.652) (xy 20.066 9.5885) (xy 20.1295 9.525)
    (xy 20.193 9.5885)) (layer F.SilkS) (width 0.01))
)
