(module Logo_silk_WEEE_3.4x5mm (layer F.Cu) (tedit 0)
  (descr "WEEE logo, 3.4x5mm")
  (fp_text reference G*** (at 0 0.1) (layer F.SilkS) hide
    (effects (font (size 0.09144 0.09144) (thickness 0.01778)))
  )
  (fp_text value LOGO (at 0 -0.1) (layer F.SilkS) hide
    (effects (font (size 0.09144 0.09144) (thickness 0.01778)))
  )
  (fp_poly (pts (xy 0.73152 0.4572) (xy 0.72898 0.47498) (xy 0.72644 0.49022) (xy 0.72136 0.50292)
    (xy 0.7112 0.5207) (xy 0.69596 0.54356) (xy 0.68072 0.55372) (xy 0.6731 0.5588)
    (xy 0.65786 0.56134) (xy 0.63754 0.56388) (xy 0.62992 0.56388) (xy 0.62992 0.4572)
    (xy 0.62484 0.45212) (xy 0.61722 0.45212) (xy 0.61468 0.45466) (xy 0.61214 0.46228)
    (xy 0.61722 0.4699) (xy 0.6223 0.47244) (xy 0.62738 0.46736) (xy 0.62992 0.46482)
    (xy 0.62992 0.4572) (xy 0.62992 0.56388) (xy 0.61468 0.56388) (xy 0.59182 0.56388)
    (xy 0.57658 0.56134) (xy 0.55372 0.55118) (xy 0.53594 0.53086) (xy 0.52578 0.50546)
    (xy 0.51816 0.47244) (xy 0.51816 0.4572) (xy 0.51816 0.43688) (xy 0.5207 0.42164)
    (xy 0.52578 0.40894) (xy 0.53594 0.39624) (xy 0.55626 0.37084) (xy 0.57912 0.35814)
    (xy 0.6096 0.35052) (xy 0.62484 0.35052) (xy 0.65278 0.35306) (xy 0.67564 0.36068)
    (xy 0.69596 0.37592) (xy 0.7112 0.39624) (xy 0.72136 0.41148) (xy 0.72898 0.42418)
    (xy 0.72898 0.43688) (xy 0.73152 0.4572)) (layer F.SilkS) (width 0.00254))
  (fp_poly (pts (xy 1.75768 -2.45618) (xy 1.75514 -2.4511) (xy 1.74498 -2.4384) (xy 1.7272 -2.42316)
    (xy 1.70688 -2.4003) (xy 1.68402 -2.3749) (xy 1.65608 -2.3495) (xy 1.64846 -2.33934)
    (xy 1.61798 -2.30886) (xy 1.58496 -2.27584) (xy 1.55448 -2.24282) (xy 1.524 -2.21234)
    (xy 1.50114 -2.18694) (xy 1.48082 -2.16916) (xy 1.46558 -2.15138) (xy 1.44272 -2.12852)
    (xy 1.41478 -2.09804) (xy 1.38176 -2.06756) (xy 1.34874 -2.032) (xy 1.31318 -1.99644)
    (xy 1.28016 -1.96088) (xy 1.23952 -1.92024) (xy 1.20396 -1.88468) (xy 1.17856 -1.85674)
    (xy 1.1557 -1.83388) (xy 1.13792 -1.8161) (xy 1.12522 -1.8034) (xy 1.11506 -1.79324)
    (xy 1.10998 -1.78562) (xy 1.10744 -1.78308) (xy 1.1049 -1.778) (xy 1.11252 -1.77546)
    (xy 1.12522 -1.77292) (xy 1.1303 -1.77292) (xy 1.15316 -1.77038) (xy 1.1557 -1.58496)
    (xy 1.1557 -1.39954) (xy 1.04648 -1.39954) (xy 1.04648 -1.4986) (xy 1.04648 -1.58496)
    (xy 1.04394 -1.67386) (xy 1.02108 -1.67386) (xy 1.01346 -1.6764) (xy 1.01346 -1.84404)
    (xy 1.01346 -1.84658) (xy 1.00838 -1.84912) (xy 0.99314 -1.85166) (xy 0.9779 -1.85166)
    (xy 0.96012 -1.85166) (xy 0.94488 -1.84912) (xy 0.9398 -1.84912) (xy 0.93726 -1.8415)
    (xy 0.93472 -1.8288) (xy 0.93218 -1.81102) (xy 0.93218 -1.79578) (xy 0.93218 -1.78054)
    (xy 0.93218 -1.778) (xy 0.93726 -1.77292) (xy 0.94742 -1.778) (xy 0.96266 -1.78816)
    (xy 0.98044 -1.8034) (xy 0.98552 -1.80848) (xy 0.99822 -1.82372) (xy 1.00838 -1.83642)
    (xy 1.01346 -1.84404) (xy 1.01346 -1.6764) (xy 0.99822 -1.6764) (xy 0.9398 -1.61544)
    (xy 0.88138 -1.55702) (xy 0.88138 -1.52654) (xy 0.88138 -1.4986) (xy 0.9652 -1.4986)
    (xy 1.04648 -1.4986) (xy 1.04648 -1.39954) (xy 1.0287 -1.39954) (xy 0.89916 -1.397)
    (xy 0.89662 -1.36398) (xy 0.89408 -1.3462) (xy 0.89154 -1.31826) (xy 0.889 -1.29032)
    (xy 0.88646 -1.25984) (xy 0.88646 -1.2573) (xy 0.88392 -1.22936) (xy 0.88138 -1.20142)
    (xy 0.88138 -1.17602) (xy 0.87884 -1.16078) (xy 0.87884 -1.15824) (xy 0.8763 -1.143)
    (xy 0.8763 -1.1176) (xy 0.87376 -1.08712) (xy 0.87122 -1.0541) (xy 0.86868 -1.02108)
    (xy 0.86614 -0.99314) (xy 0.8636 -0.96774) (xy 0.86106 -0.94996) (xy 0.86106 -0.9271)
    (xy 0.85852 -0.89662) (xy 0.85598 -0.86614) (xy 0.85598 -0.85852) (xy 0.85344 -0.83058)
    (xy 0.8509 -0.80772) (xy 0.8509 -0.78994) (xy 0.84836 -0.78486) (xy 0.84836 -2.03962)
    (xy 0.84836 -2.04978) (xy 0.84074 -2.05994) (xy 0.82804 -2.07264) (xy 0.8255 -2.07518)
    (xy 0.80772 -2.08788) (xy 0.78994 -2.09804) (xy 0.77978 -2.10566) (xy 0.75946 -2.11328)
    (xy 0.74168 -2.1209) (xy 0.73914 -2.12344) (xy 0.69088 -2.14122) (xy 0.64008 -2.159)
    (xy 0.57912 -2.17424) (xy 0.51054 -2.18694) (xy 0.4699 -2.19456) (xy 0.44704 -2.19964)
    (xy 0.42672 -2.20218) (xy 0.41402 -2.20472) (xy 0.40894 -2.20472) (xy 0.40386 -2.20472)
    (xy 0.40132 -2.1971) (xy 0.39878 -2.18186) (xy 0.39878 -2.17678) (xy 0.39878 -2.14884)
    (xy 0.29972 -2.14884) (xy 0.29972 -2.27838) (xy 0.14224 -2.27838) (xy -0.01524 -2.27838)
    (xy -0.01524 -2.2606) (xy -0.01524 -2.24282) (xy 0.1397 -2.24282) (xy 0.29718 -2.24536)
    (xy 0.29972 -2.2606) (xy 0.29972 -2.27838) (xy 0.29972 -2.14884) (xy 0.13462 -2.14884)
    (xy -0.12446 -2.15138) (xy -0.12446 -2.1844) (xy -0.127 -2.21742) (xy -0.14732 -2.21742)
    (xy -0.16764 -2.21742) (xy -0.19304 -2.21488) (xy -0.21844 -2.21234) (xy -0.2413 -2.2098)
    (xy -0.25908 -2.2098) (xy -0.27178 -2.20726) (xy -0.27686 -2.20472) (xy -0.28448 -2.20218)
    (xy -0.29972 -2.19964) (xy -0.31242 -2.1971) (xy -0.33274 -2.19456) (xy -0.35306 -2.19202)
    (xy -0.36068 -2.19202) (xy -0.37846 -2.18948) (xy -0.37846 -2.10566) (xy -0.37846 -2.02438)
    (xy 0.23368 -2.02438) (xy 0.84836 -2.02692) (xy 0.84836 -2.03962) (xy 0.84836 -0.78486)
    (xy 0.84836 -0.77978) (xy 0.84836 -0.77724) (xy 0.84582 -0.77216) (xy 0.84582 -0.75692)
    (xy 0.84582 -0.73914) (xy 0.84328 -0.73152) (xy 0.84328 -0.70866) (xy 0.84328 -0.6985)
    (xy 0.84328 -1.83134) (xy 0.84074 -1.84404) (xy 0.8382 -1.84912) (xy 0.83312 -1.84912)
    (xy 0.81788 -1.84912) (xy 0.79248 -1.84912) (xy 0.75946 -1.84912) (xy 0.71882 -1.85166)
    (xy 0.67056 -1.85166) (xy 0.61722 -1.85166) (xy 0.5588 -1.85166) (xy 0.4953 -1.85166)
    (xy 0.42672 -1.85166) (xy 0.3556 -1.85166) (xy 0.28194 -1.85166) (xy 0.20828 -1.85166)
    (xy 0.12954 -1.85166) (xy 0.05334 -1.85166) (xy -0.02286 -1.85166) (xy -0.09906 -1.85166)
    (xy -0.17272 -1.85166) (xy -0.24638 -1.85166) (xy -0.31496 -1.85166) (xy -0.381 -1.85166)
    (xy -0.44196 -1.85166) (xy -0.48768 -1.85166) (xy -0.48768 -2.17424) (xy -0.48768 -2.19964)
    (xy -0.48768 -2.21742) (xy -0.49022 -2.22758) (xy -0.49276 -2.23012) (xy -0.4953 -2.23012)
    (xy -0.49784 -2.23012) (xy -0.50038 -2.2225) (xy -0.50292 -2.21234) (xy -0.50292 -2.19202)
    (xy -0.50292 -2.17424) (xy -0.50292 -2.15138) (xy -0.50038 -2.1336) (xy -0.50038 -2.1209)
    (xy -0.50038 -2.11582) (xy -0.4953 -2.11328) (xy -0.49022 -2.11836) (xy -0.48768 -2.1336)
    (xy -0.48768 -2.15646) (xy -0.48768 -2.17424) (xy -0.48768 -1.85166) (xy -0.50038 -1.85166)
    (xy -0.55118 -1.84912) (xy -0.59436 -1.84912) (xy -0.61214 -1.84912) (xy -0.61214 -2.02438)
    (xy -0.61214 -2.0701) (xy -0.61214 -2.09042) (xy -0.61214 -2.10566) (xy -0.61468 -2.11582)
    (xy -0.61468 -2.11836) (xy -0.62484 -2.11328) (xy -0.64008 -2.10566) (xy -0.6604 -2.0955)
    (xy -0.67818 -2.0828) (xy -0.69596 -2.0701) (xy -0.6985 -2.06502) (xy -0.71628 -2.04978)
    (xy -0.7239 -2.03708) (xy -0.7239 -2.02946) (xy -0.71628 -2.02692) (xy -0.70104 -2.02438)
    (xy -0.6731 -2.02438) (xy -0.66802 -2.02438) (xy -0.61214 -2.02438) (xy -0.61214 -1.84912)
    (xy -0.63246 -1.84912) (xy -0.66294 -1.84912) (xy -0.68326 -1.84912) (xy -0.69596 -1.84658)
    (xy -0.6985 -1.8415) (xy -0.6985 -1.82626) (xy -0.69596 -1.8034) (xy -0.69342 -1.77546)
    (xy -0.69342 -1.7526) (xy -0.69088 -1.71958) (xy -0.6858 -1.6891) (xy -0.6858 -1.6637)
    (xy -0.68326 -1.64338) (xy -0.68326 -1.63322) (xy -0.67818 -1.6002) (xy -0.67564 -1.57226)
    (xy -0.6731 -1.55448) (xy -0.67056 -1.53924) (xy -0.66802 -1.52908) (xy -0.66294 -1.52146)
    (xy -0.65786 -1.51638) (xy -0.65024 -1.50876) (xy -0.63754 -1.49352) (xy -0.61976 -1.4732)
    (xy -0.59436 -1.4478) (xy -0.56642 -1.41986) (xy -0.53594 -1.38684) (xy -0.50292 -1.35128)
    (xy -0.46736 -1.31572) (xy -0.4318 -1.28016) (xy -0.39624 -1.24206) (xy -0.36322 -1.2065)
    (xy -0.34544 -1.19126) (xy -0.32258 -1.16586) (xy -0.29718 -1.14046) (xy -0.27432 -1.11506)
    (xy -0.254 -1.09474) (xy -0.2413 -1.08204) (xy -0.21844 -1.05918) (xy -0.1905 -1.03124)
    (xy -0.16256 -1.00076) (xy -0.13462 -0.97282) (xy -0.10668 -0.94234) (xy -0.07874 -0.91186)
    (xy -0.05334 -0.88646) (xy -0.03048 -0.8636) (xy -0.0127 -0.84328) (xy 0 -0.83058)
    (xy 0.00762 -0.82296) (xy 0.00762 -0.82042) (xy 0.01524 -0.81534) (xy 0.01524 -0.8128)
    (xy 0.02032 -0.81788) (xy 0.03048 -0.82804) (xy 0.04572 -0.84074) (xy 0.0635 -0.85852)
    (xy 0.07112 -0.86868) (xy 0.09144 -0.889) (xy 0.11684 -0.9144) (xy 0.14478 -0.94488)
    (xy 0.17526 -0.97536) (xy 0.20574 -1.00584) (xy 0.22606 -1.02616) (xy 0.25146 -1.05156)
    (xy 0.27432 -1.07696) (xy 0.29464 -1.09728) (xy 0.30988 -1.11506) (xy 0.32004 -1.12522)
    (xy 0.32512 -1.1303) (xy 0.32004 -1.13284) (xy 0.3048 -1.13284) (xy 0.28194 -1.13284)
    (xy 0.24892 -1.13538) (xy 0.20828 -1.13538) (xy 0.16002 -1.13538) (xy 0.10414 -1.13792)
    (xy 0.09398 -1.13792) (xy -0.13716 -1.13792) (xy -0.13716 -1.2446) (xy -0.13716 -1.35128)
    (xy 0.2032 -1.35382) (xy 0.54356 -1.35382) (xy 0.58166 -1.39192) (xy 0.5969 -1.40716)
    (xy 0.61722 -1.42748) (xy 0.64262 -1.45288) (xy 0.66802 -1.48082) (xy 0.69596 -1.50622)
    (xy 0.70104 -1.51384) (xy 0.78232 -1.59512) (xy 0.78232 -1.68148) (xy 0.78232 -1.7145)
    (xy 0.78232 -1.73736) (xy 0.78486 -1.7526) (xy 0.78486 -1.76276) (xy 0.7874 -1.76784)
    (xy 0.78994 -1.77038) (xy 0.79502 -1.77292) (xy 0.80518 -1.77292) (xy 0.81026 -1.77292)
    (xy 0.8255 -1.77292) (xy 0.83312 -1.77546) (xy 0.8382 -1.78562) (xy 0.84074 -1.8034)
    (xy 0.84074 -1.80848) (xy 0.84328 -1.83134) (xy 0.84328 -0.6985) (xy 0.84074 -0.68326)
    (xy 0.84074 -0.66294) (xy 0.8382 -0.64262) (xy 0.83566 -0.61976) (xy 0.83312 -0.59436)
    (xy 0.83058 -0.5715) (xy 0.82804 -0.55118) (xy 0.82804 -0.53848) (xy 0.82804 -0.53594)
    (xy 0.8255 -0.52324) (xy 0.82296 -0.50546) (xy 0.82296 -0.4826) (xy 0.82042 -0.46482)
    (xy 0.82042 -0.44196) (xy 0.81788 -0.4191) (xy 0.81788 -0.40132) (xy 0.81534 -0.39624)
    (xy 0.81534 -0.38354) (xy 0.8128 -0.36322) (xy 0.8128 -0.34544) (xy 0.81026 -0.33274)
    (xy 0.80772 -0.30988) (xy 0.80772 -0.2794) (xy 0.80264 -0.24638) (xy 0.80264 -0.23114)
    (xy 0.80264 -1.38684) (xy 0.80264 -1.39446) (xy 0.8001 -1.397) (xy 0.79756 -1.39954)
    (xy 0.79248 -1.39954) (xy 0.7874 -1.40208) (xy 0.78486 -1.40716) (xy 0.78232 -1.41986)
    (xy 0.78232 -1.42494) (xy 0.78232 -1.43764) (xy 0.77978 -1.44526) (xy 0.77724 -1.4478)
    (xy 0.77216 -1.44272) (xy 0.762 -1.43256) (xy 0.74676 -1.41732) (xy 0.72644 -1.397)
    (xy 0.70358 -1.37414) (xy 0.67818 -1.34874) (xy 0.65278 -1.32334) (xy 0.62738 -1.29794)
    (xy 0.60452 -1.27254) (xy 0.5842 -1.24968) (xy 0.56642 -1.22936) (xy 0.55118 -1.21412)
    (xy 0.54356 -1.20396) (xy 0.54102 -1.20142) (xy 0.54102 -1.18872) (xy 0.54102 -1.17348)
    (xy 0.54102 -1.1684) (xy 0.54102 -1.1557) (xy 0.54102 -1.143) (xy 0.53848 -1.143)
    (xy 0.5334 -1.13792) (xy 0.51816 -1.13538) (xy 0.50292 -1.13538) (xy 0.46736 -1.13284)
    (xy 0.42926 -1.0922) (xy 0.42926 -1.24206) (xy 0.42672 -1.24206) (xy 0.4191 -1.2446)
    (xy 0.40386 -1.2446) (xy 0.38608 -1.24714) (xy 0.35814 -1.24714) (xy 0.32258 -1.24714)
    (xy 0.2794 -1.24714) (xy 0.2286 -1.24968) (xy 0.19812 -1.24968) (xy 0.14986 -1.24968)
    (xy 0.10668 -1.24968) (xy 0.06604 -1.24968) (xy 0.03048 -1.24968) (xy 0 -1.24968)
    (xy -0.01778 -1.24714) (xy -0.03048 -1.24714) (xy -0.03302 -1.24714) (xy -0.0381 -1.24206)
    (xy -0.0381 -1.23952) (xy -0.03302 -1.23952) (xy -0.01778 -1.23698) (xy 0.00254 -1.23698)
    (xy 0.03302 -1.23444) (xy 0.06604 -1.23444) (xy 0.10414 -1.23444) (xy 0.14478 -1.23444)
    (xy 0.18796 -1.23444) (xy 0.2286 -1.23444) (xy 0.27178 -1.23444) (xy 0.30988 -1.23444)
    (xy 0.34544 -1.23698) (xy 0.37592 -1.23698) (xy 0.40132 -1.23698) (xy 0.4191 -1.23952)
    (xy 0.42672 -1.23952) (xy 0.42926 -1.24206) (xy 0.42926 -1.0922) (xy 0.28194 -0.94234)
    (xy 0.24638 -0.90424) (xy 0.21082 -0.86868) (xy 0.18034 -0.8382) (xy 0.1524 -0.80772)
    (xy 0.12954 -0.78486) (xy 0.11176 -0.76454) (xy 0.09906 -0.7493) (xy 0.09398 -0.74168)
    (xy 0.09652 -0.73406) (xy 0.10668 -0.72136) (xy 0.11938 -0.70612) (xy 0.13716 -0.6858)
    (xy 0.14224 -0.68072) (xy 0.16002 -0.66294) (xy 0.18288 -0.64008) (xy 0.21082 -0.6096)
    (xy 0.23876 -0.57912) (xy 0.26924 -0.54864) (xy 0.29972 -0.51816) (xy 0.32766 -0.48768)
    (xy 0.3556 -0.45974) (xy 0.381 -0.4318) (xy 0.40386 -0.40894) (xy 0.42164 -0.39116)
    (xy 0.43434 -0.37846) (xy 0.44704 -0.36576) (xy 0.46228 -0.34798) (xy 0.48514 -0.32766)
    (xy 0.51054 -0.29972) (xy 0.53848 -0.27178) (xy 0.56642 -0.2413) (xy 0.57404 -0.23368)
    (xy 0.60198 -0.20574) (xy 0.62738 -0.1778) (xy 0.65024 -0.15748) (xy 0.66802 -0.13716)
    (xy 0.68072 -0.12446) (xy 0.68834 -0.11938) (xy 0.68834 -0.11684) (xy 0.69088 -0.12192)
    (xy 0.69342 -0.13462) (xy 0.69596 -0.14732) (xy 0.6985 -0.17526) (xy 0.70358 -0.21082)
    (xy 0.70612 -0.24638) (xy 0.7112 -0.28194) (xy 0.7112 -0.31242) (xy 0.71374 -0.33528)
    (xy 0.71628 -0.36322) (xy 0.71882 -0.39116) (xy 0.72136 -0.40386) (xy 0.7239 -0.4318)
    (xy 0.72644 -0.45974) (xy 0.72644 -0.4826) (xy 0.72898 -0.49276) (xy 0.72898 -0.508)
    (xy 0.73152 -0.5334) (xy 0.73406 -0.56388) (xy 0.7366 -0.59436) (xy 0.73914 -0.61468)
    (xy 0.74168 -0.64516) (xy 0.74422 -0.67818) (xy 0.74676 -0.70612) (xy 0.7493 -0.72644)
    (xy 0.7493 -0.7366) (xy 0.75184 -0.75946) (xy 0.75184 -0.77978) (xy 0.75438 -0.79248)
    (xy 0.75692 -0.80772) (xy 0.75692 -0.82804) (xy 0.75946 -0.85598) (xy 0.762 -0.88392)
    (xy 0.76708 -0.93472) (xy 0.76962 -0.9906) (xy 0.7747 -1.05156) (xy 0.77978 -1.10998)
    (xy 0.78486 -1.1684) (xy 0.78994 -1.2192) (xy 0.79248 -1.24968) (xy 0.79756 -1.29286)
    (xy 0.8001 -1.32842) (xy 0.80264 -1.35382) (xy 0.80264 -1.3716) (xy 0.80264 -1.38684)
    (xy 0.80264 -0.23114) (xy 0.8001 -0.20574) (xy 0.79756 -0.16764) (xy 0.79756 -0.1651)
    (xy 0.7874 -0.02032) (xy 0.80264 0) (xy 0.81026 0.00508) (xy 0.8255 0.02032)
    (xy 0.84582 0.04064) (xy 0.86868 0.06604) (xy 0.89408 0.09144) (xy 0.92202 0.11938)
    (xy 0.92202 0.12192) (xy 0.94996 0.14986) (xy 0.98044 0.18034) (xy 1.00584 0.20828)
    (xy 1.03124 0.23368) (xy 1.05156 0.254) (xy 1.06172 0.2667) (xy 1.07696 0.28194)
    (xy 1.09728 0.30226) (xy 1.12268 0.32766) (xy 1.15062 0.3556) (xy 1.17856 0.38608)
    (xy 1.19634 0.40386) (xy 1.22428 0.4318) (xy 1.25222 0.46228) (xy 1.28016 0.49022)
    (xy 1.30302 0.51562) (xy 1.3208 0.53594) (xy 1.33096 0.54356) (xy 1.3462 0.5588)
    (xy 1.36652 0.58166) (xy 1.39192 0.60706) (xy 1.41986 0.63754) (xy 1.4478 0.66802)
    (xy 1.47066 0.69088) (xy 1.51892 0.73914) (xy 1.55956 0.78232) (xy 1.59258 0.81788)
    (xy 1.61798 0.84582) (xy 1.6383 0.86614) (xy 1.651 0.88138) (xy 1.65862 0.889)
    (xy 1.65608 0.89662) (xy 1.64846 0.90678) (xy 1.63576 0.91948) (xy 1.62052 0.93218)
    (xy 1.60782 0.94488) (xy 1.59512 0.95504) (xy 1.5875 0.96012) (xy 1.58242 0.95504)
    (xy 1.57226 0.94742) (xy 1.55956 0.93218) (xy 1.55194 0.92456) (xy 1.5367 0.90932)
    (xy 1.51892 0.89154) (xy 1.49606 0.86614) (xy 1.47066 0.84074) (xy 1.44272 0.8128)
    (xy 1.42494 0.79248) (xy 1.39446 0.76454) (xy 1.36652 0.73406) (xy 1.33858 0.70358)
    (xy 1.31318 0.67818) (xy 1.29286 0.65786) (xy 1.28524 0.6477) (xy 1.26746 0.62992)
    (xy 1.2446 0.60706) (xy 1.21666 0.57658) (xy 1.18364 0.54356) (xy 1.14808 0.50546)
    (xy 1.10998 0.46736) (xy 1.07188 0.42672) (xy 1.03124 0.38608) (xy 0.99314 0.34544)
    (xy 0.95504 0.30734) (xy 0.92202 0.27178) (xy 0.90932 0.25908) (xy 0.88392 0.23368)
    (xy 0.86106 0.20828) (xy 0.84074 0.18796) (xy 0.82296 0.16764) (xy 0.81026 0.15494)
    (xy 0.79502 0.1397) (xy 0.78232 0.12954) (xy 0.7747 0.12954) (xy 0.77216 0.1397)
    (xy 0.77216 0.14478) (xy 0.7747 0.15748) (xy 0.78232 0.1651) (xy 0.79502 0.17526)
    (xy 0.8001 0.1778) (xy 0.82296 0.19304) (xy 0.84836 0.2159) (xy 0.87122 0.23876)
    (xy 0.89408 0.26416) (xy 0.90932 0.28702) (xy 0.9144 0.29464) (xy 0.92964 0.32512)
    (xy 0.9398 0.35052) (xy 0.94742 0.37084) (xy 0.9525 0.3937) (xy 0.9525 0.4191)
    (xy 0.95504 0.45212) (xy 0.95504 0.45466) (xy 0.9525 0.50292) (xy 0.94742 0.54102)
    (xy 0.93726 0.57404) (xy 0.92456 0.60198) (xy 0.92202 0.60706) (xy 0.9144 0.6223)
    (xy 0.90932 0.63246) (xy 0.89916 0.65024) (xy 0.88138 0.66802) (xy 0.86106 0.69088)
    (xy 0.8382 0.7112) (xy 0.8128 0.73152) (xy 0.78994 0.7493) (xy 0.78232 0.75184)
    (xy 0.78232 0.46228) (xy 0.78232 0.4445) (xy 0.77978 0.42672) (xy 0.77724 0.4191)
    (xy 0.77216 0.40386) (xy 0.76962 0.3937) (xy 0.76454 0.38354) (xy 0.75438 0.3683)
    (xy 0.73914 0.35052) (xy 0.72136 0.33528) (xy 0.70612 0.32258) (xy 0.69596 0.3175)
    (xy 0.6858 0.31242) (xy 0.68326 0.31242) (xy 0.68326 0.03302) (xy 0.68326 0.03048)
    (xy 0.68326 0.0254) (xy 0.67818 0.02286) (xy 0.6731 0.01524) (xy 0.66802 0.00762)
    (xy 0.65786 -0.00254) (xy 0.64262 -0.01778) (xy 0.62738 -0.03556) (xy 0.60452 -0.05842)
    (xy 0.57912 -0.08382) (xy 0.54864 -0.11684) (xy 0.51308 -0.15494) (xy 0.4699 -0.19812)
    (xy 0.42164 -0.24892) (xy 0.3683 -0.3048) (xy 0.3302 -0.3429) (xy 0.2921 -0.38354)
    (xy 0.24892 -0.42672) (xy 0.20828 -0.4699) (xy 0.17018 -0.508) (xy 0.13716 -0.54356)
    (xy 0.13208 -0.55118) (xy 0.10414 -0.57912) (xy 0.07874 -0.60452) (xy 0.05588 -0.62738)
    (xy 0.0381 -0.64516) (xy 0.0254 -0.65786) (xy 0.01778 -0.66294) (xy 0.01524 -0.66294)
    (xy 0.0127 -0.6604) (xy 0 -0.65024) (xy -0.0127 -0.63246) (xy -0.03556 -0.61214)
    (xy -0.05842 -0.58928) (xy -0.05842 -0.74168) (xy -0.06096 -0.74676) (xy -0.07112 -0.75946)
    (xy -0.0889 -0.77724) (xy -0.10922 -0.8001) (xy -0.13462 -0.82804) (xy -0.1651 -0.85852)
    (xy -0.18796 -0.88392) (xy -0.25146 -0.94996) (xy -0.30734 -1.00838) (xy -0.3556 -1.05918)
    (xy -0.40132 -1.1049) (xy -0.44196 -1.14554) (xy -0.47752 -1.18364) (xy -0.508 -1.21666)
    (xy -0.52832 -1.23698) (xy -0.56134 -1.27254) (xy -0.58928 -1.30048) (xy -0.6096 -1.3208)
    (xy -0.62738 -1.33858) (xy -0.63754 -1.34874) (xy -0.64516 -1.35636) (xy -0.65024 -1.36144)
    (xy -0.65278 -1.36398) (xy -0.65532 -1.36398) (xy -0.65532 -1.3589) (xy -0.65532 -1.34366)
    (xy -0.65278 -1.32334) (xy -0.65278 -1.30048) (xy -0.6477 -1.24968) (xy -0.64516 -1.20904)
    (xy -0.64262 -1.17602) (xy -0.64008 -1.14808) (xy -0.64008 -1.1303) (xy -0.63754 -1.11506)
    (xy -0.63754 -1.10236) (xy -0.635 -1.0922) (xy -0.635 -1.08966) (xy -0.635 -1.07442)
    (xy -0.63246 -1.0541) (xy -0.62992 -1.02616) (xy -0.62738 -0.99822) (xy -0.62738 -0.99568)
    (xy -0.62484 -0.9652) (xy -0.6223 -0.93726) (xy -0.61976 -0.91186) (xy -0.61976 -0.89408)
    (xy -0.61722 -0.85598) (xy -0.61214 -0.82042) (xy -0.6096 -0.7874) (xy -0.60706 -0.75946)
    (xy -0.60452 -0.7366) (xy -0.60452 -0.7239) (xy -0.60452 -0.72136) (xy -0.60198 -0.7112)
    (xy -0.59944 -0.68834) (xy -0.5969 -0.6604) (xy -0.59436 -0.62992) (xy -0.59182 -0.59182)
    (xy -0.58928 -0.55626) (xy -0.58674 -0.53594) (xy -0.58674 -0.51562) (xy -0.5842 -0.4953)
    (xy -0.58166 -0.48514) (xy -0.58166 -0.47244) (xy -0.57912 -0.45212) (xy -0.57658 -0.42926)
    (xy -0.57658 -0.42164) (xy -0.57658 -0.39624) (xy -0.57404 -0.3683) (xy -0.56896 -0.3429)
    (xy -0.56896 -0.34036) (xy -0.56642 -0.31496) (xy -0.56642 -0.28702) (xy -0.56388 -0.26924)
    (xy -0.56388 -0.24892) (xy -0.56134 -0.23368) (xy -0.5588 -0.2286) (xy -0.55372 -0.22606)
    (xy -0.55118 -0.23114) (xy -0.53848 -0.2413) (xy -0.52324 -0.25654) (xy -0.50038 -0.2794)
    (xy -0.47498 -0.3048) (xy -0.44704 -0.33274) (xy -0.41656 -0.36576) (xy -0.40132 -0.381)
    (xy -0.36322 -0.4191) (xy -0.32512 -0.45974) (xy -0.28448 -0.50038) (xy -0.24638 -0.54102)
    (xy -0.21082 -0.57658) (xy -0.1778 -0.6096) (xy -0.15494 -0.63246) (xy -0.127 -0.6604)
    (xy -0.10414 -0.6858) (xy -0.08382 -0.70866) (xy -0.06858 -0.7239) (xy -0.06096 -0.7366)
    (xy -0.05842 -0.74168) (xy -0.05842 -0.58928) (xy -0.06096 -0.58674) (xy -0.09144 -0.55626)
    (xy -0.12192 -0.52324) (xy -0.14986 -0.4953) (xy -0.18796 -0.4572) (xy -0.2286 -0.41656)
    (xy -0.2667 -0.37592) (xy -0.30734 -0.33528) (xy -0.3429 -0.29718) (xy -0.37338 -0.2667)
    (xy -0.40132 -0.23876) (xy -0.4064 -0.23114) (xy -0.44196 -0.19558) (xy -0.47244 -0.1651)
    (xy -0.4953 -0.14224) (xy -0.51308 -0.12192) (xy -0.52578 -0.10922) (xy -0.53594 -0.09652)
    (xy -0.54102 -0.0889) (xy -0.5461 -0.08128) (xy -0.5461 -0.0762) (xy -0.5461 -0.06858)
    (xy -0.5461 -0.0635) (xy -0.5461 -0.06096) (xy -0.5461 -0.04826) (xy -0.54356 -0.0254)
    (xy -0.54102 0) (xy -0.53848 0.02794) (xy -0.53848 0.03048) (xy -0.5334 0.09398)
    (xy -0.52832 0.16002) (xy -0.5207 0.23114) (xy -0.51816 0.26924) (xy -0.51562 0.29464)
    (xy -0.51308 0.32258) (xy -0.51054 0.34544) (xy -0.51054 0.3556) (xy -0.508 0.37592)
    (xy -0.50546 0.40386) (xy -0.50546 0.42418) (xy -0.50292 0.4445) (xy -0.50038 0.46228)
    (xy -0.50038 0.47244) (xy -0.49784 0.47498) (xy -0.4953 0.47498) (xy -0.49276 0.47752)
    (xy -0.48514 0.47752) (xy -0.47498 0.48006) (xy -0.45974 0.48006) (xy -0.44196 0.48006)
    (xy -0.41656 0.48006) (xy -0.38608 0.48006) (xy -0.34798 0.48006) (xy -0.30226 0.4826)
    (xy -0.24892 0.4826) (xy -0.18796 0.4826) (xy -0.11684 0.4826) (xy -0.1016 0.4826)
    (xy 0.28956 0.4826) (xy 0.28956 0.43434) (xy 0.28956 0.41148) (xy 0.2921 0.3937)
    (xy 0.2921 0.38354) (xy 0.29464 0.381) (xy 0.29718 0.37338) (xy 0.3048 0.35814)
    (xy 0.30988 0.3429) (xy 0.32004 0.3175) (xy 0.33782 0.28956) (xy 0.3556 0.26162)
    (xy 0.37338 0.23876) (xy 0.38354 0.22606) (xy 0.40132 0.21082) (xy 0.42164 0.19558)
    (xy 0.43942 0.18288) (xy 0.45212 0.17272) (xy 0.46228 0.1651) (xy 0.46482 0.1651)
    (xy 0.47498 0.16256) (xy 0.48006 0.16002) (xy 0.49784 0.1524) (xy 0.51816 0.14478)
    (xy 0.52578 0.14224) (xy 0.5334 0.1397) (xy 0.55118 0.13716) (xy 0.57404 0.13462)
    (xy 0.59944 0.13462) (xy 0.60198 0.13462) (xy 0.67056 0.13208) (xy 0.67818 0.08636)
    (xy 0.68072 0.06604) (xy 0.68326 0.04572) (xy 0.68326 0.03302) (xy 0.68326 0.31242)
    (xy 0.66548 0.30734) (xy 0.64516 0.3048) (xy 0.64262 0.3048) (xy 0.61976 0.3048)
    (xy 0.60198 0.3048) (xy 0.5842 0.30988) (xy 0.5715 0.31242) (xy 0.55372 0.32004)
    (xy 0.5334 0.3302) (xy 0.51562 0.3429) (xy 0.50292 0.35306) (xy 0.49784 0.36322)
    (xy 0.49276 0.37084) (xy 0.48514 0.381) (xy 0.4826 0.38608) (xy 0.47244 0.39878)
    (xy 0.46482 0.4191) (xy 0.45974 0.43942) (xy 0.45466 0.4572) (xy 0.45466 0.47498)
    (xy 0.45974 0.4826) (xy 0.45974 0.48514) (xy 0.46482 0.49276) (xy 0.46482 0.49784)
    (xy 0.4699 0.50546) (xy 0.47498 0.5207) (xy 0.48514 0.53848) (xy 0.48768 0.54102)
    (xy 0.50292 0.56388) (xy 0.51816 0.57912) (xy 0.53594 0.59182) (xy 0.56896 0.60706)
    (xy 0.59944 0.61468) (xy 0.62992 0.61468) (xy 0.66548 0.60706) (xy 0.70358 0.59182)
    (xy 0.73406 0.5715) (xy 0.75946 0.54356) (xy 0.7747 0.51054) (xy 0.78232 0.47244)
    (xy 0.78232 0.46228) (xy 0.78232 0.75184) (xy 0.77216 0.75692) (xy 0.7493 0.76962)
    (xy 0.72898 0.77724) (xy 0.71374 0.78232) (xy 0.69596 0.78486) (xy 0.6731 0.7874)
    (xy 0.64516 0.7874) (xy 0.62484 0.7874) (xy 0.59436 0.7874) (xy 0.5715 0.7874)
    (xy 0.55118 0.78486) (xy 0.53594 0.78232) (xy 0.51816 0.77724) (xy 0.4953 0.76962)
    (xy 0.4699 0.75946) (xy 0.45212 0.7493) (xy 0.43434 0.7366) (xy 0.42672 0.72898)
    (xy 0.41402 0.71882) (xy 0.40386 0.7112) (xy 0.39878 0.7112) (xy 0.3937 0.70612)
    (xy 0.38354 0.69596) (xy 0.381 0.69342) (xy 0.37084 0.68072) (xy 0.35814 0.66294)
    (xy 0.35306 0.6604) (xy 0.34036 0.64262) (xy 0.32766 0.6223) (xy 0.32512 0.61722)
    (xy 0.3175 0.60198) (xy 0.3048 0.59436) (xy 0.29718 0.59182) (xy 0.2794 0.59182)
    (xy 0.254 0.59182) (xy 0.22098 0.59182) (xy 0.18288 0.59182) (xy 0.13716 0.59182)
    (xy 0.0889 0.59182) (xy 0.03556 0.59182) (xy -0.02032 0.59182) (xy -0.33274 0.59436)
    (xy -0.33528 0.70358) (xy -0.33782 0.81026) (xy -0.43434 0.81026) (xy -0.43434 0.6477)
    (xy -0.43434 0.62484) (xy -0.43688 0.60706) (xy -0.43942 0.5969) (xy -0.44196 0.60198)
    (xy -0.4445 0.61468) (xy -0.4445 0.635) (xy -0.4445 0.6477) (xy -0.4445 0.6731)
    (xy -0.4445 0.68834) (xy -0.44196 0.6985) (xy -0.43942 0.6985) (xy -0.43688 0.69342)
    (xy -0.43688 0.68072) (xy -0.43434 0.6604) (xy -0.43434 0.6477) (xy -0.43434 0.81026)
    (xy -0.43942 0.81026) (xy -0.54102 0.81026) (xy -0.54356 0.70104) (xy -0.5461 0.59182)
    (xy -0.56642 0.57404) (xy -0.57912 0.56388) (xy -0.5842 0.55372) (xy -0.5842 0.54356)
    (xy -0.5842 0.54102) (xy -0.5842 0.53086) (xy -0.5842 0.51308) (xy -0.58674 0.48768)
    (xy -0.58674 0.4572) (xy -0.59182 0.42164) (xy -0.59436 0.38354) (xy -0.5969 0.34544)
    (xy -0.59944 0.30734) (xy -0.60452 0.27178) (xy -0.60706 0.254) (xy -0.6096 0.2286)
    (xy -0.61214 0.19558) (xy -0.61468 0.16256) (xy -0.61722 0.13716) (xy -0.61976 0.09144)
    (xy -0.6223 0.05588) (xy -0.62738 0.02794) (xy -0.62738 0.0127) (xy -0.62992 0.00508)
    (xy -0.63246 0.00508) (xy -0.64008 0.0127) (xy -0.65278 0.02286) (xy -0.67056 0.04064)
    (xy -0.69342 0.0635) (xy -0.72136 0.09144) (xy -0.75438 0.127) (xy -0.79502 0.16764)
    (xy -0.84328 0.2159) (xy -0.889 0.26416) (xy -0.98298 0.35814) (xy -1.06934 0.44704)
    (xy -1.14808 0.53086) (xy -1.22174 0.60452) (xy -1.28778 0.6731) (xy -1.3462 0.73406)
    (xy -1.39954 0.7874) (xy -1.44526 0.83312) (xy -1.48336 0.87376) (xy -1.51638 0.90424)
    (xy -1.53924 0.92964) (xy -1.55702 0.94742) (xy -1.56718 0.95758) (xy -1.57226 0.96012)
    (xy -1.57734 0.95504) (xy -1.5875 0.94742) (xy -1.60274 0.93472) (xy -1.60782 0.92964)
    (xy -1.62306 0.9144) (xy -1.63322 0.9017) (xy -1.6383 0.89154) (xy -1.64084 0.89154)
    (xy -1.63576 0.88392) (xy -1.6256 0.87122) (xy -1.60782 0.8509) (xy -1.58242 0.8255)
    (xy -1.55194 0.79248) (xy -1.51384 0.75438) (xy -1.47066 0.70866) (xy -1.41986 0.65786)
    (xy -1.36398 0.60198) (xy -1.35128 0.58928) (xy -1.3335 0.5715) (xy -1.31064 0.5461)
    (xy -1.28524 0.5207) (xy -1.25984 0.49276) (xy -1.24206 0.47498) (xy -1.22174 0.45466)
    (xy -1.1938 0.42418) (xy -1.16078 0.39116) (xy -1.12268 0.35052) (xy -1.08204 0.30988)
    (xy -1.03632 0.26416) (xy -0.99314 0.21844) (xy -0.94742 0.17272) (xy -0.9017 0.12446)
    (xy -0.85852 0.08128) (xy -0.81788 0.0381) (xy -0.77978 0) (xy -0.74676 -0.03048)
    (xy -0.73406 -0.04318) (xy -0.64262 -0.13716) (xy -0.64516 -0.1905) (xy -0.6477 -0.22098)
    (xy -0.65024 -0.254) (xy -0.65278 -0.28194) (xy -0.65278 -0.2921) (xy -0.65532 -0.30734)
    (xy -0.65786 -0.33274) (xy -0.6604 -0.36576) (xy -0.66294 -0.40386) (xy -0.66802 -0.4445)
    (xy -0.67056 -0.49022) (xy -0.67564 -0.53594) (xy -0.67818 -0.58166) (xy -0.68326 -0.62484)
    (xy -0.6858 -0.66548) (xy -0.68834 -0.6985) (xy -0.69088 -0.72644) (xy -0.69342 -0.74676)
    (xy -0.69342 -0.76708) (xy -0.69596 -0.7874) (xy -0.6985 -0.8001) (xy -0.6985 -0.8128)
    (xy -0.70104 -0.83566) (xy -0.70358 -0.8636) (xy -0.70612 -0.89408) (xy -0.7112 -0.9271)
    (xy -0.71374 -0.96266) (xy -0.71374 -0.9652) (xy -0.71374 -0.98806) (xy -0.71628 -1.00838)
    (xy -0.71882 -1.02362) (xy -0.72136 -1.0414) (xy -0.72136 -1.06172) (xy -0.7239 -1.08204)
    (xy -0.7239 -1.09982) (xy -0.72644 -1.12268) (xy -0.72898 -1.15062) (xy -0.73152 -1.18364)
    (xy -0.7366 -1.22428) (xy -0.74168 -1.27508) (xy -0.74168 -1.2827) (xy -0.74422 -1.31064)
    (xy -0.74676 -1.34366) (xy -0.7493 -1.37922) (xy -0.75184 -1.39954) (xy -0.75438 -1.42494)
    (xy -0.75692 -1.4478) (xy -0.75946 -1.46304) (xy -0.762 -1.47066) (xy -0.76708 -1.47828)
    (xy -0.77724 -1.48844) (xy -0.79502 -1.50876) (xy -0.81534 -1.53162) (xy -0.84328 -1.55956)
    (xy -0.87376 -1.59004) (xy -0.90678 -1.6256) (xy -0.9398 -1.66116) (xy -0.97536 -1.69926)
    (xy -1.01346 -1.73736) (xy -1.04394 -1.77038) (xy -1.07442 -1.79832) (xy -1.10236 -1.8288)
    (xy -1.12776 -1.8542) (xy -1.15062 -1.87706) (xy -1.16586 -1.89484) (xy -1.17856 -1.90754)
    (xy -1.1811 -1.91008) (xy -1.19126 -1.92024) (xy -1.2065 -1.93802) (xy -1.22936 -1.96088)
    (xy -1.25476 -1.98628) (xy -1.28016 -2.01422) (xy -1.31064 -2.0447) (xy -1.31318 -2.04724)
    (xy -1.3462 -2.08026) (xy -1.38176 -2.11836) (xy -1.41732 -2.15392) (xy -1.45034 -2.18948)
    (xy -1.48082 -2.2225) (xy -1.50114 -2.24282) (xy -1.52654 -2.27076) (xy -1.55448 -2.2987)
    (xy -1.57988 -2.32664) (xy -1.60528 -2.3495) (xy -1.62306 -2.36728) (xy -1.6256 -2.37236)
    (xy -1.64592 -2.39014) (xy -1.6637 -2.41046) (xy -1.68148 -2.42824) (xy -1.6891 -2.4384)
    (xy -1.70942 -2.46126) (xy -1.67386 -2.49428) (xy -1.65862 -2.50952) (xy -1.64592 -2.51968)
    (xy -1.6383 -2.5273) (xy -1.63576 -2.5273) (xy -1.63068 -2.52476) (xy -1.62052 -2.5146)
    (xy -1.60274 -2.49682) (xy -1.58242 -2.4765) (xy -1.55956 -2.45364) (xy -1.53924 -2.43332)
    (xy -1.50876 -2.4003) (xy -1.47574 -2.36474) (xy -1.43764 -2.32664) (xy -1.39954 -2.28854)
    (xy -1.36398 -2.25044) (xy -1.34874 -2.2352) (xy -1.3208 -2.20472) (xy -1.29032 -2.17678)
    (xy -1.26492 -2.14884) (xy -1.24206 -2.12344) (xy -1.22174 -2.10312) (xy -1.21158 -2.09042)
    (xy -1.19634 -2.07772) (xy -1.17856 -2.0574) (xy -1.15316 -2.032) (xy -1.12776 -2.00406)
    (xy -1.09982 -1.97612) (xy -1.07442 -1.94818) (xy -1.04394 -1.92024) (xy -1.016 -1.88976)
    (xy -0.9906 -1.86436) (xy -0.96774 -1.83896) (xy -0.94996 -1.82118) (xy -0.93726 -1.80848)
    (xy -0.90424 -1.77292) (xy -0.8763 -1.74244) (xy -0.84836 -1.7145) (xy -0.82296 -1.6891)
    (xy -0.80264 -1.66878) (xy -0.7874 -1.65354) (xy -0.77978 -1.64592) (xy -0.77724 -1.64338)
    (xy -0.7747 -1.64846) (xy -0.7747 -1.66116) (xy -0.7747 -1.6637) (xy -0.7747 -1.6764)
    (xy -0.77724 -1.69672) (xy -0.77978 -1.72212) (xy -0.77978 -1.74244) (xy -0.78232 -1.76784)
    (xy -0.78486 -1.78816) (xy -0.7874 -1.8034) (xy -0.78994 -1.80848) (xy -0.79248 -1.81864)
    (xy -0.78994 -1.82372) (xy -0.78994 -1.83388) (xy -0.79248 -1.8415) (xy -0.79502 -1.84658)
    (xy -0.8001 -1.84912) (xy -0.80772 -1.85166) (xy -0.82042 -1.85166) (xy -0.84074 -1.85166)
    (xy -0.86868 -1.85166) (xy -0.87376 -1.85166) (xy -0.94996 -1.85166) (xy -0.94996 -1.93802)
    (xy -0.94996 -2.02438) (xy -0.889 -2.02438) (xy -0.82804 -2.02692) (xy -0.82296 -2.04978)
    (xy -0.82042 -2.06756) (xy -0.81534 -2.0828) (xy -0.81534 -2.08534) (xy -0.80518 -2.09804)
    (xy -0.78994 -2.11582) (xy -0.77216 -2.1336) (xy -0.75184 -2.14884) (xy -0.73406 -2.16408)
    (xy -0.71628 -2.17678) (xy -0.70358 -2.1844) (xy -0.6985 -2.1844) (xy -0.68834 -2.18694)
    (xy -0.68072 -2.19456) (xy -0.67056 -2.20218) (xy -0.66294 -2.20472) (xy -0.65278 -2.20726)
    (xy -0.63754 -2.21234) (xy -0.63246 -2.21488) (xy -0.61214 -2.22504) (xy -0.61214 -2.27838)
    (xy -0.61214 -2.32918) (xy -0.4953 -2.32918) (xy -0.37846 -2.32918) (xy -0.37846 -2.30886)
    (xy -0.37846 -2.286) (xy -0.34544 -2.29108) (xy -0.32512 -2.29362) (xy -0.30734 -2.29616)
    (xy -0.29718 -2.2987) (xy -0.28702 -2.30124) (xy -0.2667 -2.30378) (xy -0.24384 -2.30632)
    (xy -0.2159 -2.30886) (xy -0.20828 -2.30886) (xy -0.18288 -2.3114) (xy -0.16002 -2.31394)
    (xy -0.14224 -2.31902) (xy -0.13208 -2.32156) (xy -0.12954 -2.32156) (xy -0.12446 -2.33172)
    (xy -0.12446 -2.3495) (xy -0.12446 -2.35458) (xy -0.127 -2.38506) (xy 0.13462 -2.38506)
    (xy 0.39624 -2.38506) (xy 0.39878 -2.34696) (xy 0.40132 -2.30886) (xy 0.42418 -2.30124)
    (xy 0.43942 -2.29616) (xy 0.46228 -2.29362) (xy 0.48514 -2.28854) (xy 0.49022 -2.28854)
    (xy 0.51816 -2.28346) (xy 0.54864 -2.27838) (xy 0.58166 -2.27076) (xy 0.61722 -2.26314)
    (xy 0.65024 -2.25552) (xy 0.68072 -2.2479) (xy 0.70358 -2.24028) (xy 0.72136 -2.23266)
    (xy 0.72644 -2.23012) (xy 0.73914 -2.22758) (xy 0.74422 -2.22504) (xy 0.75438 -2.22504)
    (xy 0.76708 -2.21742) (xy 0.7747 -2.21488) (xy 0.7874 -2.2098) (xy 0.8001 -2.20472)
    (xy 0.80264 -2.20472) (xy 0.8128 -2.20218) (xy 0.82042 -2.19456) (xy 0.83058 -2.18694)
    (xy 0.83566 -2.1844) (xy 0.84328 -2.18186) (xy 0.85344 -2.17424) (xy 0.8636 -2.16916)
    (xy 0.88646 -2.15392) (xy 0.92202 -2.16916) (xy 0.96012 -2.1844) (xy 0.99568 -2.18948)
    (xy 1.03124 -2.1844) (xy 1.04902 -2.17932) (xy 1.0795 -2.16154) (xy 1.10236 -2.14122)
    (xy 1.12014 -2.11582) (xy 1.12522 -2.1082) (xy 1.13538 -2.0828) (xy 1.14046 -2.05994)
    (xy 1.13792 -2.03454) (xy 1.1303 -2.0066) (xy 1.12522 -1.9939) (xy 1.11506 -1.97104)
    (xy 1.10744 -1.95834) (xy 1.09728 -1.94818) (xy 1.08458 -1.93802) (xy 1.0668 -1.92532)
    (xy 1.05918 -1.91262) (xy 1.05918 -1.89738) (xy 1.05918 -1.89484) (xy 1.06426 -1.89484)
    (xy 1.06934 -1.89992) (xy 1.08204 -1.91008) (xy 1.09982 -1.92532) (xy 1.12268 -1.95072)
    (xy 1.12522 -1.95072) (xy 1.14046 -1.97104) (xy 1.16586 -1.9939) (xy 1.1938 -2.02438)
    (xy 1.22682 -2.0574) (xy 1.25984 -2.09296) (xy 1.2954 -2.12852) (xy 1.33096 -2.16408)
    (xy 1.36652 -2.19964) (xy 1.40208 -2.2352) (xy 1.4351 -2.27076) (xy 1.46812 -2.30378)
    (xy 1.49606 -2.33426) (xy 1.52146 -2.35712) (xy 1.53924 -2.37744) (xy 1.5748 -2.41554)
    (xy 1.60782 -2.44856) (xy 1.63576 -2.47904) (xy 1.65862 -2.49936) (xy 1.6764 -2.51714)
    (xy 1.68656 -2.52476) (xy 1.6891 -2.5273) (xy 1.69672 -2.52476) (xy 1.70688 -2.5146)
    (xy 1.71958 -2.5019) (xy 1.73228 -2.48666) (xy 1.74498 -2.47396) (xy 1.75514 -2.46126)
    (xy 1.75768 -2.45618)) (layer F.SilkS) (width 0.00254))
  (fp_poly (pts (xy 1.50368 2.47142) (xy 0 2.47142) (xy -1.50368 2.47142) (xy -1.50368 2.09296)
    (xy -1.50368 1.71704) (xy 0 1.71704) (xy 1.50368 1.71704) (xy 1.50368 2.09296)
    (xy 1.50368 2.47142)) (layer F.SilkS) (width 0.00254))
)
