(module CR2450_Clip locked (layer F.Cu) (tedit 5C50C3C3)
  (fp_text reference BT2 (at 15.1 -4.95) (layer F.SilkS)
    (effects (font (size 0.5 0.5) (thickness 0.08)))
  )
  (fp_text value Battery_Cell (at 0 -4.500001) (layer F.Fab)
    (effects (font (size 0.5 0.5) (thickness 0.08)))
  )
  (fp_line (start -14.5 -5.55) (end -15.575 -5.550001) (layer F.SilkS) (width 0.15))
  (fp_line (start -15.025 -6.075) (end -15.025 -5.05) (layer F.SilkS) (width 0.15))
  (fp_line (start 5.5 3.5) (end 0 3.5) (layer F.SilkS) (width 0.15))
  (fp_line (start 5.5 -3.5) (end 5.5 3.5) (layer F.SilkS) (width 0.15))
  (fp_line (start -5.5 3.5) (end 0 3.5) (layer F.SilkS) (width 0.15))
  (fp_line (start -5.5 -3.5) (end -5.5 3.5) (layer F.SilkS) (width 0.15))
  (fp_line (start 0 -3.5) (end -5.5 -3.5) (layer F.SilkS) (width 0.15))
  (fp_line (start 0 -3.5) (end 5.5 -3.5) (layer F.SilkS) (width 0.15))
  (fp_line (start 12.519984 3.5) (end 20.2 3.5) (layer F.SilkS) (width 0.2))
  (fp_line (start 20.2 3.5) (end 20.2 -3.5) (layer F.SilkS) (width 0.2))
  (fp_line (start -10.246951 8) (end 10.246951 8) (layer F.SilkS) (width 0.2))
  (fp_line (start 10.24 -8.01) (end 7.01 -8.01) (layer F.SilkS) (width 0.2))
  (fp_line (start -20.2 3.5) (end -12.519984 3.5) (layer F.SilkS) (width 0.2))
  (fp_line (start -20.2 -3.5) (end -20.2 3.5) (layer F.SilkS) (width 0.2))
  (fp_line (start -12.519984 -3.5) (end -20.2 -3.5) (layer F.SilkS) (width 0.2))
  (fp_line (start 7 -8) (end 5.5 -6.5) (layer F.SilkS) (width 0.2))
  (fp_line (start -5.5 -6.5) (end -7 -8) (layer F.SilkS) (width 0.2))
  (fp_line (start -7 -8) (end -10.246951 -8) (layer F.SilkS) (width 0.2))
  (fp_line (start 20.2 -3.5) (end 12.519984 -3.5) (layer F.SilkS) (width 0.2))
  (fp_line (start 5.5 -6.5) (end -5.5 -6.5) (layer F.SilkS) (width 0.2))
  (fp_arc (start 0 0) (end 10.246951 8) (angle -22.4) (layer F.SilkS) (width 0.2))
  (fp_arc (start 0 0) (end -12.519984 3.5) (angle -22.35310478) (layer F.SilkS) (width 0.2))
  (fp_arc (start 0 0) (end -10.246951 -8) (angle -22.4) (layer F.SilkS) (width 0.2))
  (fp_arc (start 0 0) (end 12.519984 -3.5) (angle -22.4) (layer F.SilkS) (width 0.2))
  (pad "" smd circle (at 3.299999 0) (size 3.5 3.5) (layers F.Adhes))
  (pad 2 smd roundrect (at 16.85 0) (size 5.75 6.65) (layers F.Cu F.Paste F.Mask) (roundrect_rratio 0.25)
    (solder_mask_margin -1.2) (solder_paste_margin -1.4))
  (pad "" smd circle (at -3.325 0) (size 3.5 3.5) (layers F.Adhes))
  (pad 1 smd roundrect (at -16.85 0) (size 5.75 6.65) (layers F.Cu F.Paste F.Mask) (roundrect_rratio 0.25)
    (solder_mask_margin -1.2) (solder_paste_margin -1.4))
  (model C:/Users/Local-Admin/OneDrive/E-Gas/E-Gasbottle_0.3/Lib/EGas-Footprints.pretty/3d/cr2450/Holder-CR2450.wrl
    (offset (xyz -13.3 13.3 -4))
    (scale (xyz 0.3937007874015748 0.3937007874015748 0.3937007874015748))
    (rotate (xyz -90 0 0))
  )
  (model C:/Users/Local-Admin/OneDrive/E-Gas/E-Gasbottle_0.3/Lib/EGas-Footprints.pretty/3d/cr2450/CR2450-BATT.wrl
    (offset (xyz -12.1 -12.3 8.4))
    (scale (xyz 0.3937007874015748 0.3937007874015748 0.3937007874015748))
    (rotate (xyz 90 0 0))
  )
)
