EESchema Schematic File Version 4
LIBS:main_pcb-cache
EELAYER 30 0
EELAYER END
$Descr A2 23386 16535
encoding utf-8
Sheet 1 1
Title ""
Date ""
Rev ""
Comp ""
Comment1 ""
Comment2 ""
Comment3 ""
Comment4 ""
$EndDescr
$Comp
L CAM-M8Q:CAM-M8Q IC1
U 1 1 5DBF0462
P 3400 13075
F 0 "IC1" H 4500 13240 50  0000 C CNN
F 1 "CAM-M8Q" H 4500 13149 50  0000 C CNN
F 2 "CAM-M8Q:CAM-M8Q" H 5350 13175 50  0001 L CNN
F 3 "" H 5350 13075 50  0001 L CNN
F 4 "" H 5350 12975 50  0001 L CNN "Description"
F 5 "" H 5350 12875 50  0001 L CNN "Height"
F 6 "" H 5350 12775 50  0001 L CNN "Mouser Part Number"
F 7 "" H 5350 12675 50  0001 L CNN "Mouser Price/Stock"
F 8 "" H 5350 12575 50  0001 L CNN "Manufacturer_Name"
F 9 "" H 5350 12475 50  0001 L CNN "Manufacturer_Part_Number"
	1    3400 13075
	1    0    0    -1  
$EndComp
$Comp
L Device:R R6
U 1 1 5DBF05B0
P 5800 14125
F 0 "R6" V 5700 14125 50  0000 C CNN
F 1 "220R" V 5800 14125 50  0000 C CNN
F 2 "Resistor_SMD:R_0603_REFLOW" V 5730 14125 50  0001 C CNN
F 3 "~" H 5800 14125 50  0001 C CNN
	1    5800 14125
	0    1    1    0   
$EndComp
$Comp
L Device:R R7
U 1 1 5DBF14B1
P 5800 14225
F 0 "R7" V 5900 14225 50  0000 C CNN
F 1 "220R" V 5800 14225 50  0000 C CNN
F 2 "Resistor_SMD:R_0603_REFLOW" V 5730 14225 50  0001 C CNN
F 3 "~" H 5800 14225 50  0001 C CNN
	1    5800 14225
	0    1    1    0   
$EndComp
$Comp
L Device:Ferrite_Bead FB2
U 1 1 5DBF1BF8
P 6225 14125
F 0 "FB2" V 6075 14125 50  0000 C CNN
F 1 "Ferrite_Bead" V 6175 14125 50  0000 C CNN
F 2 "Capacitor_SMD:C_0603_REFLOW" V 6155 14125 50  0001 C CNN
F 3 "~" H 6225 14125 50  0001 C CNN
	1    6225 14125
	0    1    1    0   
$EndComp
$Comp
L Device:Ferrite_Bead FB3
U 1 1 5DBF25B1
P 6225 14225
F 0 "FB3" V 6375 14225 50  0000 C CNN
F 1 "Ferrite_Bead" V 6275 14225 50  0000 C CNN
F 2 "Capacitor_SMD:C_0603_REFLOW" V 6155 14225 50  0001 C CNN
F 3 "~" H 6225 14225 50  0001 C CNN
	1    6225 14225
	0    1    1    0   
$EndComp
Wire Wire Line
	3225 13525 3225 13625
Wire Wire Line
	3225 13525 3400 13525
Wire Wire Line
	3400 13725 3225 13725
Wire Wire Line
	3225 13725 3225 13625
Connection ~ 3225 13625
Wire Wire Line
	3400 13825 3225 13825
Wire Wire Line
	3225 13825 3225 13725
Connection ~ 3225 13725
Wire Wire Line
	3400 13925 3225 13925
Wire Wire Line
	3225 13925 3225 13825
Connection ~ 3225 13825
Wire Wire Line
	3400 14025 3225 14025
Wire Wire Line
	3225 14025 3225 13925
Connection ~ 3225 13925
Wire Wire Line
	3400 14125 3225 14125
Wire Wire Line
	3225 14125 3225 14025
Connection ~ 3225 14025
Wire Wire Line
	3225 14225 3400 14225
Connection ~ 3225 14125
Wire Wire Line
	3225 14125 3225 14225
Wire Wire Line
	3400 14325 3225 14325
Wire Wire Line
	3225 14325 3225 14225
Connection ~ 3225 14225
Wire Wire Line
	3225 14425 3400 14425
Connection ~ 3225 14325
Wire Wire Line
	3400 14525 3225 14525
Wire Wire Line
	3225 14325 3225 14425
Connection ~ 3225 14425
Wire Wire Line
	3225 14625 3400 14625
Wire Wire Line
	3225 14425 3225 14525
Connection ~ 3225 14525
Wire Wire Line
	3400 14725 3225 14725
Wire Wire Line
	3225 14525 3225 14625
Connection ~ 3225 14625
Wire Wire Line
	3400 14825 3225 14825
Wire Wire Line
	3225 14625 3225 14725
Connection ~ 3225 14725
Wire Wire Line
	3225 14725 3225 14825
Wire Wire Line
	5950 14125 6075 14125
Wire Wire Line
	5950 14225 6075 14225
Wire Wire Line
	6375 14125 6425 14125
Wire Wire Line
	6375 14225 6425 14225
Wire Wire Line
	5500 14125 5650 14125
Wire Wire Line
	5500 14225 5650 14225
Text GLabel 5500 13625 2    50   Input ~ 0
RESET_GNSS
$Comp
L Device:C C3
U 1 1 5DC03E6F
P 6175 13475
F 0 "C3" H 6290 13521 50  0000 L CNN
F 1 "DNP" H 6290 13430 50  0000 L CNN
F 2 "Capacitor_SMD:C_0603_REFLOW" H 6213 13325 50  0001 C CNN
F 3 "~" H 6175 13475 50  0001 C CNN
	1    6175 13475
	1    0    0    -1  
$EndComp
$Comp
L Device:R R8
U 1 1 5DC042ED
P 6550 13325
F 0 "R8" V 6343 13325 50  0000 C CNN
F 1 "0R" V 6434 13325 50  0000 C CNN
F 2 "Resistor_SMD:R_0603_REFLOW" V 6480 13325 50  0001 C CNN
F 3 "~" H 6550 13325 50  0001 C CNN
	1    6550 13325
	0    1    1    0   
$EndComp
$Comp
L Device:C C4
U 1 1 5DC045CA
P 6900 13475
F 0 "C4" H 7015 13521 50  0000 L CNN
F 1 "DNP" H 7015 13430 50  0000 L CNN
F 2 "Capacitor_SMD:C_0603_REFLOW" H 6938 13325 50  0001 C CNN
F 3 "~" H 6900 13475 50  0001 C CNN
	1    6900 13475
	1    0    0    -1  
$EndComp
Wire Wire Line
	5500 13325 5650 13325
Connection ~ 6175 13325
Wire Wire Line
	6175 13325 6400 13325
Wire Wire Line
	6700 13325 6900 13325
Connection ~ 6900 13325
Wire Wire Line
	6900 13325 7175 13325
Wire Wire Line
	6175 13625 6175 13700
Wire Wire Line
	6900 13700 6900 13625
Wire Wire Line
	6175 13700 6900 13700
Wire Wire Line
	6900 13800 6900 13700
Connection ~ 6900 13700
$Comp
L power:GND #PWR0101
U 1 1 5DC06E80
P 6900 13800
F 0 "#PWR0101" H 6900 13550 50  0001 C CNN
F 1 "GND" H 6905 13627 50  0000 C CNN
F 2 "" H 6900 13800 50  0001 C CNN
F 3 "" H 6900 13800 50  0001 C CNN
	1    6900 13800
	1    0    0    -1  
$EndComp
$Comp
L power:GND #PWR0102
U 1 1 5DC07393
P 3225 14825
F 0 "#PWR0102" H 3225 14575 50  0001 C CNN
F 1 "GND" H 3230 14652 50  0000 C CNN
F 2 "" H 3225 14825 50  0001 C CNN
F 3 "" H 3225 14825 50  0001 C CNN
	1    3225 14825
	1    0    0    -1  
$EndComp
Connection ~ 3225 14825
$Comp
L Connector:Conn_Coaxial J6
U 1 1 5DC07D97
P 7375 13325
F 0 "J6" H 7475 13300 50  0000 L CNN
F 1 "Conn_Coaxial" H 7475 13209 50  0000 L CNN
F 2 "Connector_Coaxial:U.FL_Hirose_U.FL-R-SMT-1_Vertical" H 7375 13325 50  0001 C CNN
F 3 " ~" H 7375 13325 50  0001 C CNN
	1    7375 13325
	1    0    0    -1  
$EndComp
$Comp
L power:GND #PWR0103
U 1 1 5DC083FC
P 7375 13525
F 0 "#PWR0103" H 7375 13275 50  0001 C CNN
F 1 "GND" H 7380 13352 50  0000 C CNN
F 2 "" H 7375 13525 50  0001 C CNN
F 3 "" H 7375 13525 50  0001 C CNN
	1    7375 13525
	1    0    0    -1  
$EndComp
$Comp
L power:+3V3 #PWR0104
U 1 1 5DC08A88
P 1850 13125
F 0 "#PWR0104" H 1850 12975 50  0001 C CNN
F 1 "+3V3" H 1865 13298 50  0000 C CNN
F 2 "" H 1850 13125 50  0001 C CNN
F 3 "" H 1850 13125 50  0001 C CNN
	1    1850 13125
	1    0    0    -1  
$EndComp
$Comp
L Device:C C1
U 1 1 5DC09637
P 2550 13425
F 0 "C1" H 2665 13471 50  0000 L CNN
F 1 "4.7uF" H 2665 13380 50  0000 L CNN
F 2 "Capacitor_SMD:C_0603_REFLOW" H 2588 13275 50  0001 C CNN
F 3 "~" H 2550 13425 50  0001 C CNN
	1    2550 13425
	1    0    0    -1  
$EndComp
Wire Wire Line
	3225 13625 3400 13625
Wire Wire Line
	2550 13225 2550 13275
Wire Wire Line
	2550 13575 2550 13725
Wire Wire Line
	2550 13725 3225 13725
Wire Wire Line
	2550 13225 2900 13225
Wire Wire Line
	2900 13425 2900 13225
Wire Wire Line
	2900 13425 3400 13425
Connection ~ 2900 13225
Wire Wire Line
	2900 13225 3400 13225
Text GLabel 3400 13325 0    50   Input ~ 0
V_BCKP
Text GLabel 4675 11750 2    50   Output ~ 0
V_BCKP
$Comp
L Device:Battery_Cell BT1
U 1 1 5DC12246
P 3750 12025
F 0 "BT1" H 3868 12121 50  0000 L CNN
F 1 "Battery_Cell" H 3868 12030 50  0000 L CNN
F 2 "Battery_Holders:CR2450_Clip" V 3750 12085 50  0001 C CNN
F 3 "~" V 3750 12085 50  0001 C CNN
	1    3750 12025
	1    0    0    -1  
$EndComp
$Comp
L Device:C C2
U 1 1 5DC12E6F
P 4450 11975
F 0 "C2" H 4565 12021 50  0000 L CNN
F 1 "100nF" H 4565 11930 50  0000 L CNN
F 2 "Capacitor_SMD:C_0603_REFLOW" H 4488 11825 50  0001 C CNN
F 3 "~" H 4450 11975 50  0001 C CNN
	1    4450 11975
	1    0    0    -1  
$EndComp
Wire Wire Line
	3750 11825 3750 11750
Wire Wire Line
	3750 12125 3750 12200
Wire Wire Line
	3750 12200 4450 12200
$Comp
L power:GND #PWR0105
U 1 1 5DC155B0
P 3750 12275
F 0 "#PWR0105" H 3750 12025 50  0001 C CNN
F 1 "GND" H 3755 12102 50  0000 C CNN
F 2 "" H 3750 12275 50  0001 C CNN
F 3 "" H 3750 12275 50  0001 C CNN
	1    3750 12275
	1    0    0    -1  
$EndComp
Wire Wire Line
	3750 12200 3750 12275
Connection ~ 3750 12200
$Comp
L Device:Ferrite_Bead FB1
U 1 1 5DC1935B
P 3575 6125
F 0 "FB1" V 3301 6125 50  0000 C CNN
F 1 "Ferrite_Bead" V 3392 6125 50  0000 C CNN
F 2 "Capacitor_SMD:C_0603_REFLOW" V 3505 6125 50  0001 C CNN
F 3 "~" H 3575 6125 50  0001 C CNN
	1    3575 6125
	0    1    1    0   
$EndComp
Connection ~ 2550 13225
Wire Wire Line
	1850 13225 1850 13125
$Comp
L Connector:Conn_Coaxial J9
U 1 1 5DC33705
P 21675 12275
F 0 "J9" H 21775 12250 50  0000 L CNN
F 1 "Conn_Coaxial" H 21775 12159 50  0000 L CNN
F 2 "Connector:Conn_SMA_Coaxial" H 21675 12275 50  0001 C CNN
F 3 " ~" H 21675 12275 50  0001 C CNN
	1    21675 12275
	1    0    0    -1  
$EndComp
$Comp
L power:GND #PWR0106
U 1 1 5DC3606D
P 20650 13325
F 0 "#PWR0106" H 20650 13075 50  0001 C CNN
F 1 "GND" H 20655 13152 50  0000 C CNN
F 2 "" H 20650 13325 50  0001 C CNN
F 3 "" H 20650 13325 50  0001 C CNN
	1    20650 13325
	1    0    0    -1  
$EndComp
Wire Wire Line
	20550 13175 20550 13250
Wire Wire Line
	20550 13250 20650 13250
Wire Wire Line
	20650 13175 20650 13250
Connection ~ 20650 13250
Wire Wire Line
	20750 13175 20750 13250
Wire Wire Line
	20750 13250 20650 13250
Wire Wire Line
	20650 13250 20650 13325
$Comp
L power:+3V3 #PWR0107
U 1 1 5DC3B392
P 19550 11425
F 0 "#PWR0107" H 19550 11275 50  0001 C CNN
F 1 "+3V3" H 19565 11598 50  0000 C CNN
F 2 "" H 19550 11425 50  0001 C CNN
F 3 "" H 19550 11425 50  0001 C CNN
	1    19550 11425
	1    0    0    -1  
$EndComp
Wire Wire Line
	20150 12275 20025 12275
Wire Wire Line
	20150 12375 20025 12375
Wire Wire Line
	20150 12475 20025 12475
Wire Wire Line
	20150 12575 20025 12575
Wire Wire Line
	20150 12775 20025 12775
$Comp
L power:GND #PWR0108
U 1 1 5DC46961
P 21675 12575
F 0 "#PWR0108" H 21675 12325 50  0001 C CNN
F 1 "GND" H 21680 12402 50  0000 C CNN
F 2 "" H 21675 12575 50  0001 C CNN
F 3 "" H 21675 12575 50  0001 C CNN
	1    21675 12575
	1    0    0    -1  
$EndComp
Wire Wire Line
	21675 12475 21675 12575
$Comp
L Switch:SW_DIP_x01 SW1
U 1 1 5DC0A596
P 21400 9200
F 0 "SW1" H 21400 9467 50  0000 C CNN
F 1 "SW_RESET" H 21400 9376 50  0000 C CNN
F 2 "Button_Switch_SMD:tactile switch" H 21400 9200 50  0001 C CNN
F 3 "~" H 21400 9200 50  0001 C CNN
	1    21400 9200
	1    0    0    -1  
$EndComp
$Comp
L power:GND #PWR0109
U 1 1 5DC0CD79
P 21700 9350
F 0 "#PWR0109" H 21700 9100 50  0001 C CNN
F 1 "GND" H 21705 9177 50  0000 C CNN
F 2 "" H 21700 9350 50  0001 C CNN
F 3 "" H 21700 9350 50  0001 C CNN
	1    21700 9350
	1    0    0    -1  
$EndComp
Wire Wire Line
	21700 9200 21700 9350
Text GLabel 20725 9200 0    50   Input ~ 0
MCU_RESET
$Comp
L power:+3V3 #PWR0110
U 1 1 5DC1244C
P 20900 8650
F 0 "#PWR0110" H 20900 8500 50  0001 C CNN
F 1 "+3V3" H 20915 8823 50  0000 C CNN
F 2 "" H 20900 8650 50  0001 C CNN
F 3 "" H 20900 8650 50  0001 C CNN
	1    20900 8650
	1    0    0    -1  
$EndComp
$Comp
L Device:R R21
U 1 1 5DCD7D84
P 20900 8950
F 0 "R21" H 20970 8996 50  0000 L CNN
F 1 "10K" H 20970 8905 50  0000 L CNN
F 2 "Resistor_SMD:R_0603_REFLOW" V 20830 8950 50  0001 C CNN
F 3 "~" H 20900 8950 50  0001 C CNN
	1    20900 8950
	1    0    0    -1  
$EndComp
Text GLabel 18800 4500 0    50   BiDi ~ 0
SCK_LORA
Text GLabel 18800 4700 0    50   BiDi ~ 0
MOSI_LORA
Text GLabel 18800 4600 0    50   BiDi ~ 0
MISO_LORA
Text GLabel 18800 4400 0    50   BiDi ~ 0
NSS_LORA
$Comp
L Sensor_Motion:LSM9DS1 U1
U 1 1 5DCE711E
P 14050 13700
F 0 "U1" H 14050 12811 50  0000 C CNN
F 1 "LSM9DS1" H 14100 13650 50  0000 C CNN
F 2 "Package_LGA:LGA-24L_3x3.5mm_P0.43mm" H 15550 14450 50  0001 C CNN
F 3 "http://www.st.com/content/ccc/resource/technical/document/datasheet/1e/3f/2a/d6/25/eb/48/46/DM00103319.pdf/files/DM00103319.pdf/jcr:content/translations/en.DM00103319.pdf" H 14050 13800 50  0001 C CNN
	1    14050 13700
	1    0    0    -1  
$EndComp
Wire Wire Line
	13950 14500 13950 14650
Wire Wire Line
	13950 14650 14150 14650
Wire Wire Line
	14150 14650 14150 14500
Wire Wire Line
	14150 14650 15375 14650
Wire Wire Line
	15375 14650 15375 14200
Wire Wire Line
	15375 14200 14750 14200
Connection ~ 14150 14650
Wire Wire Line
	14750 14100 15375 14100
Connection ~ 15375 14200
Wire Wire Line
	14750 14000 15375 14000
Wire Wire Line
	15375 14000 15375 14100
Connection ~ 15375 14100
Wire Wire Line
	15375 14100 15375 14200
Wire Wire Line
	14750 13900 15375 13900
Wire Wire Line
	15375 13900 15375 14000
Connection ~ 15375 14000
Wire Wire Line
	14750 13800 15375 13800
Connection ~ 15375 13900
$Comp
L Device:C C11
U 1 1 5DCF8A37
P 12500 14675
F 0 "C11" H 12615 14721 50  0000 L CNN
F 1 "10n" H 12615 14630 50  0000 L CNN
F 2 "Capacitor_SMD:C_0603_REFLOW" H 12538 14525 50  0001 C CNN
F 3 "~" H 12500 14675 50  0001 C CNN
	1    12500 14675
	1    0    0    -1  
$EndComp
$Comp
L Device:C C13
U 1 1 5DCF919C
P 12925 14675
F 0 "C13" H 13040 14721 50  0000 L CNN
F 1 "100nF" H 13040 14630 50  0000 L CNN
F 2 "Capacitor_SMD:C_0603_REFLOW" H 12963 14525 50  0001 C CNN
F 3 "~" H 12925 14675 50  0001 C CNN
	1    12925 14675
	1    0    0    -1  
$EndComp
Wire Wire Line
	12500 14200 13350 14200
Wire Wire Line
	12500 14200 12500 14525
Wire Wire Line
	12925 14300 12925 14525
Wire Wire Line
	12500 14825 12500 15000
Wire Wire Line
	12500 15000 12700 15000
Wire Wire Line
	12925 15000 12925 14825
Wire Wire Line
	12700 15000 12700 15050
Connection ~ 12700 15000
Wire Wire Line
	12700 15000 12925 15000
$Comp
L power:GND #PWR0111
U 1 1 5DD078B8
P 12700 15050
F 0 "#PWR0111" H 12700 14800 50  0001 C CNN
F 1 "GND" H 12705 14877 50  0000 C CNN
F 2 "" H 12700 15050 50  0001 C CNN
F 3 "" H 12700 15050 50  0001 C CNN
	1    12700 15050
	1    0    0    -1  
$EndComp
Wire Wire Line
	12925 14300 13350 14300
$Comp
L Device:C C16
U 1 1 5DD0B5B3
P 13525 12200
F 0 "C16" H 13640 12246 50  0000 L CNN
F 1 "10uF" H 13640 12155 50  0000 L CNN
F 2 "Capacitor_SMD:C_0603_REFLOW" H 13563 12050 50  0001 C CNN
F 3 "~" H 13525 12200 50  0001 C CNN
	1    13525 12200
	1    0    0    -1  
$EndComp
$Comp
L Device:C C14
U 1 1 5DD0B6AB
P 13075 12200
F 0 "C14" H 13190 12246 50  0000 L CNN
F 1 "100nF" H 13190 12155 50  0000 L CNN
F 2 "Capacitor_SMD:C_0603_REFLOW" H 13113 12050 50  0001 C CNN
F 3 "~" H 13075 12200 50  0001 C CNN
	1    13075 12200
	1    0    0    -1  
$EndComp
Wire Wire Line
	13075 12350 13075 12450
Wire Wire Line
	13075 12450 13325 12450
Wire Wire Line
	13525 12450 13525 12350
Wire Wire Line
	13325 12450 13325 12500
Connection ~ 13325 12450
Wire Wire Line
	13325 12450 13525 12450
$Comp
L power:GND #PWR0112
U 1 1 5DD1C855
P 13325 12500
F 0 "#PWR0112" H 13325 12250 50  0001 C CNN
F 1 "GND" H 13330 12327 50  0000 C CNN
F 2 "" H 13325 12500 50  0001 C CNN
F 3 "" H 13325 12500 50  0001 C CNN
	1    13325 12500
	1    0    0    -1  
$EndComp
Wire Wire Line
	13525 12050 13525 11950
Wire Wire Line
	13525 11950 13075 11950
Wire Wire Line
	13075 11950 13075 12050
Wire Wire Line
	13525 11950 14250 11950
Wire Wire Line
	14250 11950 14250 12800
Wire Wire Line
	14050 12800 14050 12900
Connection ~ 13525 11950
Wire Wire Line
	14150 12900 14150 12800
Wire Wire Line
	14050 12800 14150 12800
Connection ~ 14150 12800
Wire Wire Line
	14150 12800 14250 12800
Wire Wire Line
	14350 12900 14350 12800
Wire Wire Line
	14350 12800 14250 12800
Connection ~ 14250 12800
Wire Wire Line
	14450 12800 14350 12800
Connection ~ 14350 12800
Wire Wire Line
	14450 12800 14450 12900
$Comp
L Device:R R19
U 1 1 5DD45C07
P 15050 13400
F 0 "R19" V 14843 13400 50  0000 C CNN
F 1 "0R" V 14934 13400 50  0000 C CNN
F 2 "Resistor_SMD:R_0603_REFLOW" V 14980 13400 50  0001 C CNN
F 3 "~" H 15050 13400 50  0001 C CNN
	1    15050 13400
	0    1    1    0   
$EndComp
Wire Wire Line
	13075 11950 12850 11950
Wire Wire Line
	12850 11950 12850 11875
Connection ~ 13075 11950
$Comp
L power:+3V3 #PWR0113
U 1 1 5DD4C825
P 12850 11875
F 0 "#PWR0113" H 12850 11725 50  0001 C CNN
F 1 "+3V3" H 12865 12048 50  0000 C CNN
F 2 "" H 12850 11875 50  0001 C CNN
F 3 "" H 12850 11875 50  0001 C CNN
	1    12850 11875
	1    0    0    -1  
$EndComp
Wire Wire Line
	14750 13400 14900 13400
Wire Wire Line
	15200 13400 15375 13400
Wire Wire Line
	15375 13400 15375 13800
Connection ~ 15375 13800
Wire Wire Line
	15375 13800 15375 13900
$Comp
L power:+3V3 #PWR0114
U 1 1 5DD57E39
P 14875 13275
F 0 "#PWR0114" H 14875 13125 50  0001 C CNN
F 1 "+3V3" H 14890 13448 50  0000 C CNN
F 2 "" H 14875 13275 50  0001 C CNN
F 3 "" H 14875 13275 50  0001 C CNN
	1    14875 13275
	1    0    0    -1  
$EndComp
Wire Wire Line
	14750 13300 14875 13300
Wire Wire Line
	14875 13300 14875 13275
$Comp
L power:+3V3 #PWR0115
U 1 1 5DD5DED9
P 12675 13600
F 0 "#PWR0115" H 12675 13450 50  0001 C CNN
F 1 "+3V3" H 12690 13773 50  0000 C CNN
F 2 "" H 12675 13600 50  0001 C CNN
F 3 "" H 12675 13600 50  0001 C CNN
	1    12675 13600
	1    0    0    -1  
$EndComp
Wire Wire Line
	13350 13600 12675 13600
$Comp
L Device:R R17
U 1 1 5DD6F049
P 13200 13700
F 0 "R17" V 13100 13700 50  0000 C CNN
F 1 "0R" V 13200 13700 50  0000 C CNN
F 2 "Resistor_SMD:R_0603_REFLOW" V 13130 13700 50  0001 C CNN
F 3 "~" H 13200 13700 50  0001 C CNN
	1    13200 13700
	0    1    1    0   
$EndComp
$Comp
L power:GND #PWR0116
U 1 1 5DD75442
P 12450 13700
F 0 "#PWR0116" H 12450 13450 50  0001 C CNN
F 1 "GND" H 12455 13527 50  0000 C CNN
F 2 "" H 12450 13700 50  0001 C CNN
F 3 "" H 12450 13700 50  0001 C CNN
	1    12450 13700
	1    0    0    -1  
$EndComp
$Comp
L Device:R R18
U 1 1 5DD7655E
P 13200 14000
F 0 "R18" V 13100 14000 50  0000 C CNN
F 1 "0R" V 13200 14000 50  0000 C CNN
F 2 "Resistor_SMD:R_0603_REFLOW" V 13130 14000 50  0001 C CNN
F 3 "~" H 13200 14000 50  0001 C CNN
	1    13200 14000
	0    1    1    0   
$EndComp
$Comp
L power:+3V3 #PWR0117
U 1 1 5DD77086
P 12125 13975
F 0 "#PWR0117" H 12125 13825 50  0001 C CNN
F 1 "+3V3" H 12140 14148 50  0000 C CNN
F 2 "" H 12125 13975 50  0001 C CNN
F 3 "" H 12125 13975 50  0001 C CNN
	1    12125 13975
	1    0    0    -1  
$EndComp
Wire Wire Line
	12125 14000 12125 13975
Wire Wire Line
	13350 13800 13000 13800
Wire Wire Line
	13350 13900 13000 13900
Wire Wire Line
	14750 13500 14975 13500
Wire Wire Line
	14750 13600 14975 13600
$Comp
L Device:R R10
U 1 1 5DDD3625
P 6925 1625
F 0 "R10" H 6995 1671 50  0000 L CNN
F 1 "10K" H 6995 1580 50  0000 L CNN
F 2 "Resistor_SMD:R_0603_REFLOW" V 6855 1625 50  0001 C CNN
F 3 "~" H 6925 1625 50  0001 C CNN
	1    6925 1625
	1    0    0    -1  
$EndComp
$Comp
L Device:R R5
U 1 1 5DDD3A3C
P 5725 1675
F 0 "R5" H 5795 1721 50  0000 L CNN
F 1 "10K" H 5795 1630 50  0000 L CNN
F 2 "Resistor_SMD:R_0603_REFLOW" V 5655 1675 50  0001 C CNN
F 3 "~" H 5725 1675 50  0001 C CNN
	1    5725 1675
	1    0    0    -1  
$EndComp
Wire Wire Line
	6375 1725 6375 1850
Wire Wire Line
	6375 1850 6650 1850
Wire Wire Line
	6925 1850 6925 1775
Wire Wire Line
	6575 1425 6925 1425
Wire Wire Line
	6925 1425 6925 1475
$Comp
L power:+3V3 #PWR0118
U 1 1 5DDE0C99
P 6650 1950
F 0 "#PWR0118" H 6650 1800 50  0001 C CNN
F 1 "+3V3" H 6665 2123 50  0000 C CNN
F 2 "" H 6650 1950 50  0001 C CNN
F 3 "" H 6650 1950 50  0001 C CNN
	1    6650 1950
	-1   0    0    1   
$EndComp
Wire Wire Line
	6650 1950 6650 1850
Connection ~ 6650 1850
Wire Wire Line
	6650 1850 6925 1850
Wire Wire Line
	5725 1525 5725 1425
Wire Wire Line
	5725 1425 6175 1425
$Comp
L power:+5V #PWR0119
U 1 1 5DDF046D
P 5725 1950
F 0 "#PWR0119" H 5725 1800 50  0001 C CNN
F 1 "+5V" H 5740 2123 50  0000 C CNN
F 2 "" H 5725 1950 50  0001 C CNN
F 3 "" H 5725 1950 50  0001 C CNN
	1    5725 1950
	-1   0    0    1   
$EndComp
Wire Wire Line
	5725 1825 5725 1950
Wire Wire Line
	5725 1425 5525 1425
Connection ~ 5725 1425
Wire Wire Line
	6925 1425 7225 1425
Connection ~ 6925 1425
Text GLabel 7225 1425 2    50   BiDi ~ 0
PWM_ESCL_33
$Comp
L Device:Q_NMOS_GSD Q2
U 1 1 5DE07FB5
P 6350 2775
F 0 "Q2" V 6693 2775 50  0000 C CNN
F 1 "PMF370XN" V 6602 2775 50  0000 C CNN
F 2 "Package_TO_SOT_SMD:SOT-323_SC-70" H 6550 2875 50  0001 C CNN
F 3 "~" H 6350 2775 50  0001 C CNN
	1    6350 2775
	0    -1   -1   0   
$EndComp
$Comp
L Device:R R9
U 1 1 5DE07FBB
P 6900 2875
F 0 "R9" H 6970 2921 50  0000 L CNN
F 1 "10K" H 6970 2830 50  0000 L CNN
F 2 "Resistor_SMD:R_0603_REFLOW" V 6830 2875 50  0001 C CNN
F 3 "~" H 6900 2875 50  0001 C CNN
	1    6900 2875
	1    0    0    -1  
$EndComp
$Comp
L Device:R R4
U 1 1 5DE07FC1
P 5700 2925
F 0 "R4" H 5770 2971 50  0000 L CNN
F 1 "10K" H 5770 2880 50  0000 L CNN
F 2 "Resistor_SMD:R_0603_REFLOW" V 5630 2925 50  0001 C CNN
F 3 "~" H 5700 2925 50  0001 C CNN
	1    5700 2925
	1    0    0    -1  
$EndComp
Wire Wire Line
	6350 2975 6350 3100
Wire Wire Line
	6350 3100 6625 3100
Wire Wire Line
	6900 3100 6900 3025
Wire Wire Line
	6550 2675 6900 2675
Wire Wire Line
	6900 2675 6900 2725
$Comp
L power:+3V3 #PWR0120
U 1 1 5DE07FCC
P 6625 3200
F 0 "#PWR0120" H 6625 3050 50  0001 C CNN
F 1 "+3V3" H 6640 3373 50  0000 C CNN
F 2 "" H 6625 3200 50  0001 C CNN
F 3 "" H 6625 3200 50  0001 C CNN
	1    6625 3200
	-1   0    0    1   
$EndComp
Wire Wire Line
	6625 3200 6625 3100
Connection ~ 6625 3100
Wire Wire Line
	6625 3100 6900 3100
Wire Wire Line
	5700 2775 5700 2675
Wire Wire Line
	5700 2675 6150 2675
$Comp
L power:+5V #PWR0121
U 1 1 5DE07FD7
P 5700 3200
F 0 "#PWR0121" H 5700 3050 50  0001 C CNN
F 1 "+5V" H 5715 3373 50  0000 C CNN
F 2 "" H 5700 3200 50  0001 C CNN
F 3 "" H 5700 3200 50  0001 C CNN
	1    5700 3200
	-1   0    0    1   
$EndComp
Wire Wire Line
	5700 3075 5700 3200
Wire Wire Line
	5700 2675 5500 2675
Connection ~ 5700 2675
Wire Wire Line
	6900 2675 7200 2675
Connection ~ 6900 2675
Text GLabel 7200 2675 2    50   BiDi ~ 0
PWM_ESCR_33
$Comp
L Device:R R3
U 1 1 5DE10959
P 3225 2200
F 0 "R3" H 3295 2246 50  0000 L CNN
F 1 "10K" H 3295 2155 50  0000 L CNN
F 2 "Resistor_SMD:R_0603_REFLOW" V 3155 2200 50  0001 C CNN
F 3 "~" H 3225 2200 50  0001 C CNN
	1    3225 2200
	1    0    0    -1  
$EndComp
$Comp
L Device:R R1
U 1 1 5DE1095F
P 2025 2250
F 0 "R1" H 2095 2296 50  0000 L CNN
F 1 "10K" H 2095 2205 50  0000 L CNN
F 2 "Resistor_SMD:R_0603_REFLOW" V 1955 2250 50  0001 C CNN
F 3 "~" H 2025 2250 50  0001 C CNN
	1    2025 2250
	1    0    0    -1  
$EndComp
Wire Wire Line
	2675 2300 2675 2425
Wire Wire Line
	2675 2425 2950 2425
Wire Wire Line
	3225 2425 3225 2350
Wire Wire Line
	2875 2000 3225 2000
Wire Wire Line
	3225 2000 3225 2050
$Comp
L power:+3V3 #PWR0122
U 1 1 5DE1096A
P 2950 2525
F 0 "#PWR0122" H 2950 2375 50  0001 C CNN
F 1 "+3V3" H 2965 2698 50  0000 C CNN
F 2 "" H 2950 2525 50  0001 C CNN
F 3 "" H 2950 2525 50  0001 C CNN
	1    2950 2525
	-1   0    0    1   
$EndComp
Wire Wire Line
	2950 2525 2950 2425
Connection ~ 2950 2425
Wire Wire Line
	2950 2425 3225 2425
Wire Wire Line
	2025 2100 2025 2000
Wire Wire Line
	2025 2000 2475 2000
$Comp
L power:+5V #PWR0123
U 1 1 5DE10975
P 2025 2525
F 0 "#PWR0123" H 2025 2375 50  0001 C CNN
F 1 "+5V" H 2040 2698 50  0000 C CNN
F 2 "" H 2025 2525 50  0001 C CNN
F 3 "" H 2025 2525 50  0001 C CNN
	1    2025 2525
	-1   0    0    1   
$EndComp
Wire Wire Line
	2025 2400 2025 2525
Wire Wire Line
	2025 2000 1825 2000
Connection ~ 2025 2000
Wire Wire Line
	3225 2000 3525 2000
Connection ~ 3225 2000
Text GLabel 1825 2000 0    50   BiDi ~ 0
PWM_SERVO_5
Text GLabel 3525 2000 2    50   BiDi ~ 0
PWM_SERVO_33
$Comp
L Connector_Generic:Conn_01x03 J2
U 1 1 5DE2A67B
P 3600 8875
F 0 "J2" H 3680 8917 50  0000 L CNN
F 1 "DS18B20" H 3680 8826 50  0000 L CNN
F 2 "Connector_JST:JST_XH_B04B_3P" H 3600 8875 50  0001 C CNN
F 3 "~" H 3600 8875 50  0001 C CNN
	1    3600 8875
	1    0    0    -1  
$EndComp
Text GLabel 2775 8875 0    50   BiDi ~ 0
tempData
$Comp
L Connector_Generic:Conn_01x04 J4
U 1 1 5DE5DEC4
P 6950 8825
F 0 "J4" H 7030 8817 50  0000 L CNN
F 1 "JSN-SR04" H 7030 8726 50  0000 L CNN
F 2 "Connector_JST:JST_XH_B04B_4P" H 6950 8825 50  0001 C CNN
F 3 "~" H 6950 8825 50  0001 C CNN
	1    6950 8825
	1    0    0    -1  
$EndComp
$Comp
L power:GND #PWR0124
U 1 1 5DE5FF45
P 6575 9050
F 0 "#PWR0124" H 6575 8800 50  0001 C CNN
F 1 "GND" H 6580 8877 50  0000 C CNN
F 2 "" H 6575 9050 50  0001 C CNN
F 3 "" H 6575 9050 50  0001 C CNN
	1    6575 9050
	1    0    0    -1  
$EndComp
Wire Wire Line
	6575 9025 6575 9050
Wire Wire Line
	6575 9025 6750 9025
$Comp
L power:+3V3 #PWR0125
U 1 1 5DE7440E
P 6575 8675
F 0 "#PWR0125" H 6575 8525 50  0001 C CNN
F 1 "+3V3" H 6590 8848 50  0000 C CNN
F 2 "" H 6575 8675 50  0001 C CNN
F 3 "" H 6575 8675 50  0001 C CNN
	1    6575 8675
	1    0    0    -1  
$EndComp
Wire Wire Line
	6750 8725 6575 8725
Wire Wire Line
	6575 8725 6575 8675
$Comp
L Connector_Generic:Conn_02x05_Odd_Even J8
U 1 1 5DE89BC8
P 17050 9075
F 0 "J8" H 17100 9492 50  0000 C CNN
F 1 "ST_LINK" H 17100 9401 50  0000 C CNN
F 2 "Connector_JST:STlink" H 17050 9075 50  0001 C CNN
F 3 "~" H 17050 9075 50  0001 C CNN
	1    17050 9075
	1    0    0    -1  
$EndComp
$Comp
L power:+3V3 #PWR0126
U 1 1 5DE8AF5F
P 16275 9175
F 0 "#PWR0126" H 16275 9025 50  0001 C CNN
F 1 "+3V3" H 16290 9348 50  0000 C CNN
F 2 "" H 16275 9175 50  0001 C CNN
F 3 "" H 16275 9175 50  0001 C CNN
	1    16275 9175
	1    0    0    -1  
$EndComp
$Comp
L power:GND #PWR0127
U 1 1 5DE8B1FD
P 15950 9025
F 0 "#PWR0127" H 15950 8775 50  0001 C CNN
F 1 "GND" H 15955 8852 50  0000 C CNN
F 2 "" H 15950 9025 50  0001 C CNN
F 3 "" H 15950 9025 50  0001 C CNN
	1    15950 9025
	1    0    0    -1  
$EndComp
Text GLabel 16850 8875 0    50   Input ~ 0
MCU_RESET
Text GLabel 17350 9075 2    50   BiDi ~ 0
SWCLK
Wire Wire Line
	16850 9175 16275 9175
Wire Wire Line
	17350 9175 17825 9175
$Comp
L power:+3V3 #PWR0128
U 1 1 5DEA1382
P 17825 9175
F 0 "#PWR0128" H 17825 9025 50  0001 C CNN
F 1 "+3V3" H 17840 9348 50  0000 C CNN
F 2 "" H 17825 9175 50  0001 C CNN
F 3 "" H 17825 9175 50  0001 C CNN
	1    17825 9175
	1    0    0    -1  
$EndComp
NoConn ~ 16850 9075
NoConn ~ 16850 9275
NoConn ~ 17350 9275
Wire Wire Line
	16850 8975 15950 8975
Wire Wire Line
	15950 8975 15950 9025
Wire Wire Line
	17350 8975 18225 8975
Wire Wire Line
	18225 8975 18225 9025
$Comp
L power:GND #PWR0129
U 1 1 5DED39B0
P 18225 9025
F 0 "#PWR0129" H 18225 8775 50  0001 C CNN
F 1 "GND" H 18230 8852 50  0000 C CNN
F 2 "" H 18225 9025 50  0001 C CNN
F 3 "" H 18225 9025 50  0001 C CNN
	1    18225 9025
	1    0    0    -1  
$EndComp
Text GLabel 18800 3100 0    50   Input ~ 0
MCU_RESET
$Comp
L Device:R R22
U 1 1 5DCDD4AA
P 21500 2900
F 0 "R22" V 21400 2900 50  0000 C CNN
F 1 "10K" V 21500 2900 50  0000 C CNN
F 2 "Resistor_SMD:R_0603_REFLOW" V 21430 2900 50  0001 C CNN
F 3 "~" H 21500 2900 50  0001 C CNN
	1    21500 2900
	0    1    1    0   
$EndComp
Wire Wire Line
	20900 2900 21350 2900
Wire Wire Line
	21650 2900 21825 2900
Wire Wire Line
	21825 2900 21825 2950
$Comp
L power:GND #PWR0130
U 1 1 5DD073F6
P 21825 2950
F 0 "#PWR0130" H 21825 2700 50  0001 C CNN
F 1 "GND" H 21830 2777 50  0000 C CNN
F 2 "" H 21825 2950 50  0001 C CNN
F 3 "" H 21825 2950 50  0001 C CNN
	1    21825 2950
	1    0    0    -1  
$EndComp
$Comp
L Device:C C18
U 1 1 5DD08C72
P 17875 5650
F 0 "C18" H 17990 5696 50  0000 L CNN
F 1 "4.7uF" H 17990 5605 50  0000 L CNN
F 2 "Capacitor_SMD:C_0603_REFLOW" H 17913 5500 50  0001 C CNN
F 3 "~" H 17875 5650 50  0001 C CNN
	1    17875 5650
	1    0    0    -1  
$EndComp
Wire Wire Line
	18800 5400 17875 5400
Wire Wire Line
	17875 5400 17875 5500
$Comp
L power:GND #PWR0131
U 1 1 5DD13CA0
P 17875 5875
F 0 "#PWR0131" H 17875 5625 50  0001 C CNN
F 1 "GND" H 17880 5702 50  0000 C CNN
F 2 "" H 17875 5875 50  0001 C CNN
F 3 "" H 17875 5875 50  0001 C CNN
	1    17875 5875
	1    0    0    -1  
$EndComp
Wire Wire Line
	17875 5800 17875 5875
$Comp
L Device:R R20
U 1 1 5DD209D6
P 18200 5200
F 0 "R20" V 18100 5200 50  0000 C CNN
F 1 "10K" V 18200 5200 50  0000 C CNN
F 2 "Resistor_SMD:R_0603_REFLOW" V 18130 5200 50  0001 C CNN
F 3 "~" H 18200 5200 50  0001 C CNN
	1    18200 5200
	0    -1   -1   0   
$EndComp
Wire Wire Line
	18800 5200 18350 5200
Wire Wire Line
	17650 5200 17650 5250
$Comp
L power:GND #PWR0132
U 1 1 5DD209DF
P 17650 5250
F 0 "#PWR0132" H 17650 5000 50  0001 C CNN
F 1 "GND" H 17655 5077 50  0000 C CNN
F 2 "" H 17650 5250 50  0001 C CNN
F 3 "" H 17650 5250 50  0001 C CNN
	1    17650 5250
	-1   0    0    -1  
$EndComp
Wire Wire Line
	17650 5200 18050 5200
Text GLabel 18800 4800 0    50   BiDi ~ 0
RESET_LORA
Text Notes 19575 6350 0    50   ~ 0
timer 1 : spi\ntimer 5: pwm\ntimer LP1 : i2c\ntimer 9: uart
$Comp
L Device:Crystal Y1
U 1 1 5DD7E108
P 17000 2700
F 0 "Y1" V 16954 2831 50  0000 L CNN
F 1 "DNP" V 17045 2831 50  0000 L CNN
F 2 "Crystal:Crystal_SMD_3215-2Pin_3.2x1.5mm" H 17000 2700 50  0001 C CNN
F 3 "~" H 17000 2700 50  0001 C CNN
	1    17000 2700
	0    1    1    0   
$EndComp
Text GLabel 20900 3700 2    50   BiDi ~ 0
PWM_SERVO_33
Wire Wire Line
	18800 2700 17475 2700
Wire Wire Line
	18800 2800 17475 2800
Wire Wire Line
	17475 2700 17475 2450
Wire Wire Line
	17475 2450 17000 2450
Wire Wire Line
	17000 2450 17000 2550
Wire Wire Line
	17000 2850 17000 2950
Wire Wire Line
	17000 2950 17475 2950
Wire Wire Line
	17475 2950 17475 2800
Text GLabel 18800 2600 0    50   BiDi ~ 0
PC13
Text GLabel 18800 2900 0    50   BiDi ~ 0
PH0-OSC-IN
Text GLabel 18800 3000 0    50   BiDi ~ 0
PH1-OSC-OUT
Text GLabel 18800 3200 0    50   BiDi ~ 0
PC0
Text GLabel 18800 3300 0    50   BiDi ~ 0
PC1
Text GLabel 18800 3400 0    50   BiDi ~ 0
PC2
Text GLabel 18800 3500 0    50   BiDi ~ 0
PC3
Text GLabel 18800 4000 0    50   BiDi ~ 0
TX_GNSS
Text GLabel 18800 4100 0    50   BiDi ~ 0
RX_GNSS
Text GLabel 6425 14125 2    50   BiDi ~ 0
TX_GNSS
Text GLabel 6425 14225 2    50   BiDi ~ 0
RX_GNSS
Text GLabel 20025 12275 0    50   BiDi ~ 0
SCK_LORA
Text GLabel 20025 12375 0    50   BiDi ~ 0
MOSI_LORA
Text GLabel 20025 12475 0    50   BiDi ~ 0
MISO_LORA
Text GLabel 20025 12775 0    50   BiDi ~ 0
RESET_LORA
Text GLabel 20025 12575 0    50   BiDi ~ 0
NSS_LORA
Text GLabel 18800 4900 0    50   BiDi ~ 0
SC_RESET
Text GLabel 18800 5000 0    50   BiDi ~ 0
ADC_INPUT
Text GLabel 18800 5100 0    50   BiDi ~ 0
ALERT
Text GLabel 18800 5300 0    50   BiDi ~ 0
PB10
Text GLabel 20900 5600 2    50   BiDi ~ 0
LED0
Text GLabel 20900 5500 2    50   BiDi ~ 0
PB13
Text GLabel 20900 5400 2    50   BiDi ~ 0
PB14
Text GLabel 20900 5200 2    50   BiDi ~ 0
DEBUG_TX
Text GLabel 20900 5100 2    50   BiDi ~ 0
DEBUG_RX
Text GLabel 20900 5300 2    50   BiDi ~ 0
LED1
Text GLabel 20900 4900 2    50   BiDi ~ 0
PC9
Text GLabel 20900 4800 2    50   BiDi ~ 0
PA8
Text GLabel 20900 4700 2    50   BiDi ~ 0
ECHO
Text GLabel 20900 4600 2    50   BiDi ~ 0
TRIGGER
Text GLabel 20900 5000 2    50   BiDi ~ 0
LED2
Text GLabel 20900 4400 2    50   BiDi ~ 0
PA12
Text GLabel 17350 8875 2    50   BiDi ~ 0
SWDIO
Text GLabel 20900 4300 2    50   BiDi ~ 0
SWDIO
Text GLabel 20900 4000 2    50   BiDi ~ 0
SWCLK
Text GLabel 20900 3900 2    50   BiDi ~ 0
PA15
Text GLabel 20900 3800 2    50   BiDi ~ 0
PC10
Text GLabel 20900 3600 2    50   BiDi ~ 0
PC12
Text GLabel 20900 3500 2    50   BiDi ~ 0
PB11
Text GLabel 20900 3400 2    50   BiDi ~ 0
PB3
Text GLabel 20900 3200 2    50   BiDi ~ 0
PB5
Text GLabel 20900 3100 2    50   BiDi ~ 0
I2C_SCL
Text GLabel 20900 3000 2    50   BiDi ~ 0
I2C_SDA
Text GLabel 20900 2800 2    50   BiDi ~ 0
PB8
Text GLabel 20900 2700 2    50   BiDi ~ 0
tempData
Text GLabel 11025 5850 2    50   BiDi ~ 0
I2C_SCL
Text GLabel 11025 5550 2    50   BiDi ~ 0
I2C_SDA
$Comp
L power:+3V3 #PWR0134
U 1 1 5DFBE548
P 10450 5525
F 0 "#PWR0134" H 10450 5375 50  0001 C CNN
F 1 "+3V3" H 10465 5698 50  0000 C CNN
F 2 "" H 10450 5525 50  0001 C CNN
F 3 "" H 10450 5525 50  0001 C CNN
	1    10450 5525
	1    0    0    -1  
$EndComp
$Comp
L Device:R R11
U 1 1 5DD470FD
P 10750 5550
F 0 "R11" V 10825 5550 50  0000 C CNN
F 1 "2K2" V 10750 5550 50  0000 C CNN
F 2 "Resistor_SMD:R_0603_REFLOW" V 10680 5550 50  0001 C CNN
F 3 "~" H 10750 5550 50  0001 C CNN
	1    10750 5550
	0    -1   -1   0   
$EndComp
Wire Wire Line
	10450 5525 10450 5550
Wire Wire Line
	10450 5550 10600 5550
$Comp
L power:+3V3 #PWR0135
U 1 1 5DFE9143
P 10450 5825
F 0 "#PWR0135" H 10450 5675 50  0001 C CNN
F 1 "+3V3" H 10465 5998 50  0000 C CNN
F 2 "" H 10450 5825 50  0001 C CNN
F 3 "" H 10450 5825 50  0001 C CNN
	1    10450 5825
	1    0    0    -1  
$EndComp
$Comp
L Device:R R12
U 1 1 5DFE9149
P 10750 5850
F 0 "R12" V 10825 5850 50  0000 C CNN
F 1 "2K2" V 10750 5850 50  0000 C CNN
F 2 "Resistor_SMD:R_0603_REFLOW" V 10680 5850 50  0001 C CNN
F 3 "~" H 10750 5850 50  0001 C CNN
	1    10750 5850
	0    -1   -1   0   
$EndComp
Wire Wire Line
	10450 5825 10450 5850
Wire Wire Line
	10450 5850 10600 5850
Text GLabel 12900 4975 2    50   BiDi ~ 0
LED1
Text GLabel 13375 4975 2    50   BiDi ~ 0
LED2
Text GLabel 20900 4500 2    50   BiDi ~ 0
LED3
Text GLabel 13875 4975 2    50   BiDi ~ 0
LED3
$Comp
L Device:LED D2
U 1 1 5DCF749F
P 12875 5350
F 0 "D2" V 12914 5233 50  0000 R CNN
F 1 "LED" V 12823 5233 50  0000 R CNN
F 2 "LED_SMD:LED_0805_2012Metric" H 12875 5350 50  0001 C CNN
F 3 "~" H 12875 5350 50  0001 C CNN
	1    12875 5350
	0    -1   -1   0   
$EndComp
$Comp
L Device:R R14
U 1 1 5DCFA88C
P 12875 5775
F 0 "R14" H 12945 5821 50  0000 L CNN
F 1 "2K2" H 12945 5730 50  0000 L CNN
F 2 "Resistor_SMD:R_0603_REFLOW" V 12805 5775 50  0001 C CNN
F 3 "~" H 12875 5775 50  0001 C CNN
	1    12875 5775
	1    0    0    -1  
$EndComp
Wire Wire Line
	12875 5625 12875 5500
Text GLabel 12450 4975 2    50   BiDi ~ 0
LED0
$Comp
L Device:LED D1
U 1 1 5DD3487D
P 12400 5350
F 0 "D1" V 12439 5233 50  0000 R CNN
F 1 "LED" V 12348 5233 50  0000 R CNN
F 2 "LED_SMD:LED_0805_2012Metric" H 12400 5350 50  0001 C CNN
F 3 "~" H 12400 5350 50  0001 C CNN
	1    12400 5350
	0    -1   -1   0   
$EndComp
$Comp
L Device:R R13
U 1 1 5DD34889
P 12400 5775
F 0 "R13" H 12470 5821 50  0000 L CNN
F 1 "2K2" H 12470 5730 50  0000 L CNN
F 2 "Resistor_SMD:R_0603_REFLOW" V 12330 5775 50  0001 C CNN
F 3 "~" H 12400 5775 50  0001 C CNN
	1    12400 5775
	1    0    0    -1  
$EndComp
Wire Wire Line
	12400 5625 12400 5500
$Comp
L Device:LED D3
U 1 1 5DD5132E
P 13350 5350
F 0 "D3" V 13389 5233 50  0000 R CNN
F 1 "LED" V 13298 5233 50  0000 R CNN
F 2 "LED_SMD:LED_0805_2012Metric" H 13350 5350 50  0001 C CNN
F 3 "~" H 13350 5350 50  0001 C CNN
	1    13350 5350
	0    -1   -1   0   
$EndComp
$Comp
L Device:R R15
U 1 1 5DD5133A
P 13350 5775
F 0 "R15" H 13420 5821 50  0000 L CNN
F 1 "2K2" H 13420 5730 50  0000 L CNN
F 2 "Resistor_SMD:R_0603_REFLOW" V 13280 5775 50  0001 C CNN
F 3 "~" H 13350 5775 50  0001 C CNN
	1    13350 5775
	1    0    0    -1  
$EndComp
Wire Wire Line
	13350 5625 13350 5500
Text GLabel 18800 4200 0    50   BiDi ~ 0
VSS1
Text GLabel 18800 4300 0    50   BiDi ~ 0
VDD1
Text GLabel 18800 5500 0    50   BiDi ~ 0
VSS2
Text GLabel 18800 5600 0    50   BiDi ~ 0
VDD2
Text GLabel 20900 4200 2    50   BiDi ~ 0
VSS3
Text GLabel 20900 4100 2    50   BiDi ~ 0
VDD3
Text GLabel 20900 2600 2    50   BiDi ~ 0
VSS4
Text GLabel 20900 2500 2    50   BiDi ~ 0
VDD4
Text GLabel 18800 3600 0    50   BiDi ~ 0
VSSA
Text GLabel 18800 3700 0    50   BiDi ~ 0
VDDA
Text GLabel 12900 8225 2    50   BiDi ~ 0
VSSA
Text GLabel 12900 7725 2    50   BiDi ~ 0
VDDA
Text GLabel 10650 9375 2    50   BiDi ~ 0
VSS1
Text GLabel 10650 8925 2    50   BiDi ~ 0
VDD1
Text GLabel 11675 9375 2    50   BiDi ~ 0
VSS2
Text GLabel 11675 8925 2    50   BiDi ~ 0
VDD2
Text GLabel 12875 9350 2    50   BiDi ~ 0
VSS3
Text GLabel 12875 8900 2    50   BiDi ~ 0
VDD3
Text GLabel 13825 9325 2    50   BiDi ~ 0
VSS4
Text GLabel 13825 8875 2    50   BiDi ~ 0
VDD4
$Comp
L Device:C C9
U 1 1 5DE0FF84
P 12075 7975
F 0 "C9" H 12190 8021 50  0000 L CNN
F 1 "100nF" H 12190 7930 50  0000 L CNN
F 2 "Capacitor_SMD:C_0603_REFLOW" H 12113 7825 50  0001 C CNN
F 3 "~" H 12075 7975 50  0001 C CNN
	1    12075 7975
	1    0    0    -1  
$EndComp
$Comp
L Device:C C12
U 1 1 5DE10333
P 12550 7975
F 0 "C12" H 12665 8021 50  0000 L CNN
F 1 "1uF" H 12665 7930 50  0000 L CNN
F 2 "Capacitor_SMD:C_0603_REFLOW" H 12588 7825 50  0001 C CNN
F 3 "~" H 12550 7975 50  0001 C CNN
	1    12550 7975
	1    0    0    -1  
$EndComp
Wire Wire Line
	12550 7725 12325 7725
Wire Wire Line
	12075 7725 12075 7825
Wire Wire Line
	12075 8125 12075 8225
Wire Wire Line
	12075 8225 12325 8225
Wire Wire Line
	12550 8225 12550 8125
$Comp
L power:GND #PWR0140
U 1 1 5DE2FDD8
P 12325 8300
F 0 "#PWR0140" H 12325 8050 50  0001 C CNN
F 1 "GND" H 12330 8127 50  0000 C CNN
F 2 "" H 12325 8300 50  0001 C CNN
F 3 "" H 12325 8300 50  0001 C CNN
	1    12325 8300
	1    0    0    -1  
$EndComp
Wire Wire Line
	12550 8225 12900 8225
Connection ~ 12550 8225
Wire Wire Line
	12550 7725 12550 7825
Wire Wire Line
	12325 8300 12325 8225
Connection ~ 12325 8225
Wire Wire Line
	12325 8225 12550 8225
Wire Wire Line
	12550 7725 12900 7725
Connection ~ 12550 7725
Wire Wire Line
	12325 7725 12325 7650
Connection ~ 12325 7725
Wire Wire Line
	12325 7725 12075 7725
$Comp
L power:+3V3 #PWR0141
U 1 1 5DE7EB84
P 12325 7650
F 0 "#PWR0141" H 12325 7500 50  0001 C CNN
F 1 "+3V3" H 12340 7823 50  0000 C CNN
F 2 "" H 12325 7650 50  0001 C CNN
F 3 "" H 12325 7650 50  0001 C CNN
	1    12325 7650
	1    0    0    -1  
$EndComp
$Comp
L Device:C C6
U 1 1 5DE8FBB3
P 10750 7875
F 0 "C6" H 10865 7921 50  0000 L CNN
F 1 "100nF" H 10865 7830 50  0000 L CNN
F 2 "Capacitor_SMD:C_0603_REFLOW" H 10788 7725 50  0001 C CNN
F 3 "~" H 10750 7875 50  0001 C CNN
	1    10750 7875
	1    0    0    -1  
$EndComp
$Comp
L power:+3V3 #PWR0142
U 1 1 5DE908F6
P 10975 7600
F 0 "#PWR0142" H 10975 7450 50  0001 C CNN
F 1 "+3V3" H 10990 7773 50  0000 C CNN
F 2 "" H 10975 7600 50  0001 C CNN
F 3 "" H 10975 7600 50  0001 C CNN
	1    10975 7600
	1    0    0    -1  
$EndComp
$Comp
L power:GND #PWR0143
U 1 1 5DE912F2
P 11000 8150
F 0 "#PWR0143" H 11000 7900 50  0001 C CNN
F 1 "GND" H 11005 7977 50  0000 C CNN
F 2 "" H 11000 8150 50  0001 C CNN
F 3 "" H 11000 8150 50  0001 C CNN
	1    11000 8150
	1    0    0    -1  
$EndComp
$Comp
L Device:C C7
U 1 1 5DE91D59
P 11225 7875
F 0 "C7" H 11340 7921 50  0000 L CNN
F 1 "10uF" H 11340 7830 50  0000 L CNN
F 2 "Capacitor_SMD:C_0603_REFLOW" H 11263 7725 50  0001 C CNN
F 3 "~" H 11225 7875 50  0001 C CNN
	1    11225 7875
	1    0    0    -1  
$EndComp
Wire Wire Line
	10750 7725 10750 7650
Wire Wire Line
	10750 7650 10975 7650
Wire Wire Line
	11225 7650 11225 7725
Wire Wire Line
	10975 7600 10975 7650
Connection ~ 10975 7650
Wire Wire Line
	10975 7650 11225 7650
Wire Wire Line
	10750 8025 10750 8100
Wire Wire Line
	10750 8100 11000 8100
Wire Wire Line
	11225 8100 11225 8025
Wire Wire Line
	11000 8100 11000 8150
Connection ~ 11000 8100
Wire Wire Line
	11000 8100 11225 8100
$Comp
L Device:C C5
U 1 1 5DEE9A1F
P 10225 9150
F 0 "C5" H 10340 9196 50  0000 L CNN
F 1 "100nF" H 10340 9105 50  0000 L CNN
F 2 "Capacitor_SMD:C_0603_REFLOW" H 10263 9000 50  0001 C CNN
F 3 "~" H 10225 9150 50  0001 C CNN
	1    10225 9150
	1    0    0    -1  
$EndComp
$Comp
L power:+3V3 #PWR0144
U 1 1 5DEE9A25
P 10225 8875
F 0 "#PWR0144" H 10225 8725 50  0001 C CNN
F 1 "+3V3" H 10240 9048 50  0000 C CNN
F 2 "" H 10225 8875 50  0001 C CNN
F 3 "" H 10225 8875 50  0001 C CNN
	1    10225 8875
	1    0    0    -1  
$EndComp
$Comp
L power:GND #PWR0145
U 1 1 5DEE9A2B
P 10225 9425
F 0 "#PWR0145" H 10225 9175 50  0001 C CNN
F 1 "GND" H 10230 9252 50  0000 C CNN
F 2 "" H 10225 9425 50  0001 C CNN
F 3 "" H 10225 9425 50  0001 C CNN
	1    10225 9425
	1    0    0    -1  
$EndComp
Wire Wire Line
	10225 9300 10225 9375
Wire Wire Line
	10225 8875 10225 8925
Wire Wire Line
	10225 8925 10650 8925
Connection ~ 10225 8925
Wire Wire Line
	10225 8925 10225 9000
Wire Wire Line
	10225 9375 10650 9375
$Comp
L Device:C C15
U 1 1 5DF47F26
P 13400 9100
F 0 "C15" H 13515 9146 50  0000 L CNN
F 1 "100nF" H 13515 9055 50  0000 L CNN
F 2 "Capacitor_SMD:C_0603_REFLOW" H 13438 8950 50  0001 C CNN
F 3 "~" H 13400 9100 50  0001 C CNN
	1    13400 9100
	1    0    0    -1  
$EndComp
$Comp
L power:+3V3 #PWR0146
U 1 1 5DF47F2C
P 13400 8825
F 0 "#PWR0146" H 13400 8675 50  0001 C CNN
F 1 "+3V3" H 13415 8998 50  0000 C CNN
F 2 "" H 13400 8825 50  0001 C CNN
F 3 "" H 13400 8825 50  0001 C CNN
	1    13400 8825
	1    0    0    -1  
$EndComp
$Comp
L power:GND #PWR0147
U 1 1 5DF47F32
P 13400 9375
F 0 "#PWR0147" H 13400 9125 50  0001 C CNN
F 1 "GND" H 13405 9202 50  0000 C CNN
F 2 "" H 13400 9375 50  0001 C CNN
F 3 "" H 13400 9375 50  0001 C CNN
	1    13400 9375
	1    0    0    -1  
$EndComp
Wire Wire Line
	13400 9250 13400 9325
Wire Wire Line
	13400 8825 13400 8875
Wire Wire Line
	13400 8875 13825 8875
Connection ~ 13400 8875
Wire Wire Line
	13400 8875 13400 8950
Wire Wire Line
	13400 9325 13825 9325
$Comp
L Device:C C10
U 1 1 5DF5AAF5
P 12450 9125
F 0 "C10" H 12565 9171 50  0000 L CNN
F 1 "100nF" H 12565 9080 50  0000 L CNN
F 2 "Capacitor_SMD:C_0603_REFLOW" H 12488 8975 50  0001 C CNN
F 3 "~" H 12450 9125 50  0001 C CNN
	1    12450 9125
	1    0    0    -1  
$EndComp
$Comp
L power:+3V3 #PWR0148
U 1 1 5DF5AAFB
P 12450 8850
F 0 "#PWR0148" H 12450 8700 50  0001 C CNN
F 1 "+3V3" H 12465 9023 50  0000 C CNN
F 2 "" H 12450 8850 50  0001 C CNN
F 3 "" H 12450 8850 50  0001 C CNN
	1    12450 8850
	1    0    0    -1  
$EndComp
$Comp
L power:GND #PWR0149
U 1 1 5DF5AB01
P 12450 9400
F 0 "#PWR0149" H 12450 9150 50  0001 C CNN
F 1 "GND" H 12455 9227 50  0000 C CNN
F 2 "" H 12450 9400 50  0001 C CNN
F 3 "" H 12450 9400 50  0001 C CNN
	1    12450 9400
	1    0    0    -1  
$EndComp
Wire Wire Line
	12450 9275 12450 9350
Wire Wire Line
	12450 8850 12450 8900
Wire Wire Line
	12450 8900 12875 8900
Connection ~ 12450 8900
Wire Wire Line
	12450 8900 12450 8975
Wire Wire Line
	12450 9350 12875 9350
$Comp
L Device:C C8
U 1 1 5DF6E4D0
P 11250 9150
F 0 "C8" H 11365 9196 50  0000 L CNN
F 1 "100nF" H 11365 9105 50  0000 L CNN
F 2 "Capacitor_SMD:C_0603_REFLOW" H 11288 9000 50  0001 C CNN
F 3 "~" H 11250 9150 50  0001 C CNN
	1    11250 9150
	1    0    0    -1  
$EndComp
$Comp
L power:+3V3 #PWR0150
U 1 1 5DF6E4D6
P 11250 8875
F 0 "#PWR0150" H 11250 8725 50  0001 C CNN
F 1 "+3V3" H 11265 9048 50  0000 C CNN
F 2 "" H 11250 8875 50  0001 C CNN
F 3 "" H 11250 8875 50  0001 C CNN
	1    11250 8875
	1    0    0    -1  
$EndComp
$Comp
L power:GND #PWR0151
U 1 1 5DF6E4DC
P 11250 9425
F 0 "#PWR0151" H 11250 9175 50  0001 C CNN
F 1 "GND" H 11255 9252 50  0000 C CNN
F 2 "" H 11250 9425 50  0001 C CNN
F 3 "" H 11250 9425 50  0001 C CNN
	1    11250 9425
	1    0    0    -1  
$EndComp
Wire Wire Line
	11250 9300 11250 9375
Wire Wire Line
	11250 8875 11250 8925
Wire Wire Line
	11250 8925 11675 8925
Connection ~ 11250 8925
Wire Wire Line
	11250 8925 11250 9000
Wire Wire Line
	11250 9375 11675 9375
$Comp
L power:+3V3 #PWR0152
U 1 1 5DFBE961
P 18650 2500
F 0 "#PWR0152" H 18650 2350 50  0001 C CNN
F 1 "+3V3" H 18665 2673 50  0000 C CNN
F 2 "" H 18650 2500 50  0001 C CNN
F 3 "" H 18650 2500 50  0001 C CNN
	1    18650 2500
	1    0    0    -1  
$EndComp
Wire Wire Line
	18650 2500 18800 2500
Connection ~ 12450 9350
Wire Wire Line
	12450 9350 12450 9400
Connection ~ 11250 9375
Wire Wire Line
	11250 9375 11250 9425
Connection ~ 10225 9375
Wire Wire Line
	10225 9375 10225 9425
Connection ~ 13400 9325
Wire Wire Line
	13400 9325 13400 9375
$Comp
L Connector:TestPoint TP10
U 1 1 5E0A92C3
P 11650 1650
F 0 "TP10" V 11650 1838 50  0000 L CNN
F 1 "TestPoint" V 11695 1838 50  0001 L CNN
F 2 "TestPoint:TestPoint_Pad_D2.0mm_(pogo)" H 11850 1650 50  0001 C CNN
F 3 "~" H 11850 1650 50  0001 C CNN
	1    11650 1650
	0    1    1    0   
$EndComp
Text GLabel 6750 8825 0    50   BiDi ~ 0
TRIGGER
Text GLabel 6750 8925 0    50   BiDi ~ 0
ECHO
Wire Wire Line
	10900 5550 11025 5550
Wire Wire Line
	11025 5850 10900 5850
$Comp
L Connector_Generic:Conn_01x03 J1
U 1 1 5DCFCF82
P 2050 6100
F 0 "J1" H 2130 6142 50  0000 L CNN
F 1 "Aandrijving" H 2130 6051 50  0000 L CNN
F 2 "Connector_JST:JST_XH_B04B_3P" H 2050 6100 50  0001 C CNN
F 3 "~" H 2050 6100 50  0001 C CNN
	1    2050 6100
	1    0    0    -1  
$EndComp
Text GLabel 1850 6000 0    50   BiDi ~ 0
PWM_ESCL_5
Text GLabel 1850 6200 0    50   BiDi ~ 0
PWM_ESCR_5
Text GLabel 1850 6100 0    50   BiDi ~ 0
PWM_SERVO_5
$Comp
L Connector_Generic:Conn_01x03 J3
U 1 1 5DD189CB
P 4675 6125
F 0 "J3" H 4755 6167 50  0000 L CNN
F 1 "Voeding" H 4755 6076 50  0000 L CNN
F 2 "Connector_JST:JST_XH_B04B_3P" H 4675 6125 50  0001 C CNN
F 3 "~" H 4675 6125 50  0001 C CNN
	1    4675 6125
	1    0    0    -1  
$EndComp
$Comp
L power:+5V #PWR0153
U 1 1 5DD1A0E9
P 4000 5875
F 0 "#PWR0153" H 4000 5725 50  0001 C CNN
F 1 "+5V" H 4015 6048 50  0000 C CNN
F 2 "" H 4000 5875 50  0001 C CNN
F 3 "" H 4000 5875 50  0001 C CNN
	1    4000 5875
	1    0    0    -1  
$EndComp
Wire Wire Line
	4475 6025 4000 6025
Wire Wire Line
	4000 6025 4000 5875
$Comp
L power:+3V3 #PWR0154
U 1 1 5DD3066F
P 3125 6050
F 0 "#PWR0154" H 3125 5900 50  0001 C CNN
F 1 "+3V3" H 3140 6223 50  0000 C CNN
F 2 "" H 3125 6050 50  0001 C CNN
F 3 "" H 3125 6050 50  0001 C CNN
	1    3125 6050
	1    0    0    -1  
$EndComp
$Comp
L power:GND #PWR0155
U 1 1 5DD47EB8
P 4325 6275
F 0 "#PWR0155" H 4325 6025 50  0001 C CNN
F 1 "GND" H 4330 6102 50  0000 C CNN
F 2 "" H 4325 6275 50  0001 C CNN
F 3 "" H 4325 6275 50  0001 C CNN
	1    4325 6275
	1    0    0    -1  
$EndComp
Wire Wire Line
	4475 6225 4325 6225
Wire Wire Line
	4325 6225 4325 6275
$Comp
L Connector_Generic:Conn_01x03 J5
U 1 1 5DD5E658
P 6525 6075
F 0 "J5" H 6605 6117 50  0000 L CNN
F 1 "Kortsluit" H 6605 6026 50  0000 L CNN
F 2 "Connector_JST:JST_XH_B04B_3P" H 6525 6075 50  0001 C CNN
F 3 "~" H 6525 6075 50  0001 C CNN
	1    6525 6075
	1    0    0    -1  
$EndComp
Text GLabel 5525 1425 0    50   BiDi ~ 0
PWM_ESCL_5
Text GLabel 5500 2675 0    50   BiDi ~ 0
PWM_ESCR_5
Text GLabel 18800 3900 0    50   BiDi ~ 0
PWM_ESCL_33
Text GLabel 18800 3800 0    50   BiDi ~ 0
PWM_ESCR_33
Text GLabel 20900 3300 2    50   BiDi ~ 0
PB4
$Comp
L Connector_Generic:Conn_02x05_Counter_Clockwise J7
U 1 1 5DE12033
P 12575 1800
F 0 "J7" H 12625 2217 50  0000 C CNN
F 1 "Unused" H 12625 2126 50  0000 C CNN
F 2 "Connector_PinHeader_2.54mm:PinHeader_2x05_P2.54mm_Vertical" H 12575 1800 50  0001 C CNN
F 3 "~" H 12575 1800 50  0001 C CNN
	1    12575 1800
	1    0    0    -1  
$EndComp
NoConn ~ 12875 1600
NoConn ~ 12875 1700
NoConn ~ 12875 1800
NoConn ~ 12875 1900
NoConn ~ 12375 2000
NoConn ~ 12875 2000
NoConn ~ 12375 1900
NoConn ~ 12375 1800
NoConn ~ 12375 1700
NoConn ~ 12375 1600
Text GLabel 11650 1650 0    50   BiDi ~ 0
PH0-OSC-IN
Text GLabel 11650 1550 0    50   BiDi ~ 0
PH1-OSC-OUT
Text GLabel 11625 2975 0    50   BiDi ~ 0
PB13
Text GLabel 11650 1825 0    50   BiDi ~ 0
PA8
Text GLabel 11650 1925 0    50   BiDi ~ 0
PA12
Text GLabel 11650 2025 0    50   BiDi ~ 0
PA15
Text GLabel 11625 2875 0    50   BiDi ~ 0
PB11
Text GLabel 11625 2375 0    50   BiDi ~ 0
PB3
Text GLabel 11625 2475 0    50   BiDi ~ 0
PB4
Text GLabel 11625 2575 0    50   BiDi ~ 0
PB5
Text GLabel 11625 2675 0    50   BiDi ~ 0
PB8
Text GLabel 11625 2775 0    50   BiDi ~ 0
PB10
$Comp
L Connector:TestPoint TP22
U 1 1 5E0CB7D0
P 13000 13800
F 0 "TP22" V 13000 13988 50  0000 L CNN
F 1 "TestPoint" V 13045 13988 50  0001 L CNN
F 2 "TestPoint:TestPoint_Pad_D2.0mm_(pogo)" H 13200 13800 50  0001 C CNN
F 3 "~" H 13200 13800 50  0001 C CNN
	1    13000 13800
	0    -1   -1   0   
$EndComp
$Comp
L Connector:TestPoint TP23
U 1 1 5E0CC16A
P 13000 13900
F 0 "TP23" V 13000 14088 50  0000 L CNN
F 1 "TestPoint" V 13045 14088 50  0001 L CNN
F 2 "TestPoint:TestPoint_Pad_D2.0mm_(pogo)" H 13200 13900 50  0001 C CNN
F 3 "~" H 13200 13900 50  0001 C CNN
	1    13000 13900
	0    -1   -1   0   
$EndComp
$Comp
L Connector:TestPoint TP24
U 1 1 5E0CC476
P 14975 13500
F 0 "TP24" V 14975 13688 50  0000 L CNN
F 1 "TestPoint" V 15020 13688 50  0001 L CNN
F 2 "TestPoint:TestPoint_Pad_D2.0mm_(pogo)" H 15175 13500 50  0001 C CNN
F 3 "~" H 15175 13500 50  0001 C CNN
	1    14975 13500
	0    1    1    0   
$EndComp
$Comp
L Connector:TestPoint TP25
U 1 1 5E0CD077
P 14975 13600
F 0 "TP25" V 14975 13788 50  0000 L CNN
F 1 "TestPoint" V 15020 13788 50  0001 L CNN
F 2 "TestPoint:TestPoint_Pad_D2.0mm_(pogo)" H 15175 13600 50  0001 C CNN
F 3 "~" H 15175 13600 50  0001 C CNN
	1    14975 13600
	0    1    1    0   
$EndComp
$Comp
L Connector:TestPoint TP9
U 1 1 5E0CDD8A
P 11650 1550
F 0 "TP9" V 11650 1738 50  0000 L CNN
F 1 "TestPoint" V 11695 1738 50  0001 L CNN
F 2 "TestPoint:TestPoint_Pad_D2.0mm_(pogo)" H 11850 1550 50  0001 C CNN
F 3 "~" H 11850 1550 50  0001 C CNN
	1    11650 1550
	0    1    1    0   
$EndComp
$Comp
L Connector:TestPoint TP12
U 1 1 5E0D03D3
P 11650 1925
F 0 "TP12" V 11650 2113 50  0000 L CNN
F 1 "TestPoint" V 11695 2113 50  0001 L CNN
F 2 "TestPoint:TestPoint_Pad_D2.0mm_(pogo)" H 11850 1925 50  0001 C CNN
F 3 "~" H 11850 1925 50  0001 C CNN
	1    11650 1925
	0    1    1    0   
$EndComp
$Comp
L Connector:TestPoint TP11
U 1 1 5E0D03D9
P 11650 1825
F 0 "TP11" V 11650 2013 50  0000 L CNN
F 1 "TestPoint" V 11695 2013 50  0001 L CNN
F 2 "TestPoint:TestPoint_Pad_D2.0mm_(pogo)" H 11850 1825 50  0001 C CNN
F 3 "~" H 11850 1825 50  0001 C CNN
	1    11650 1825
	0    1    1    0   
$EndComp
$Comp
L Connector:TestPoint TP13
U 1 1 5E101102
P 11650 2025
F 0 "TP13" V 11650 2213 50  0000 L CNN
F 1 "TestPoint" V 11695 2213 50  0001 L CNN
F 2 "TestPoint:TestPoint_Pad_D2.0mm_(pogo)" H 11850 2025 50  0001 C CNN
F 3 "~" H 11850 2025 50  0001 C CNN
	1    11650 2025
	0    1    1    0   
$EndComp
$Comp
L Connector:TestPoint TP2
U 1 1 5E102244
P 11625 2475
F 0 "TP2" V 11625 2663 50  0000 L CNN
F 1 "TestPoint" V 11670 2663 50  0001 L CNN
F 2 "TestPoint:TestPoint_Pad_D2.0mm_(pogo)" H 11825 2475 50  0001 C CNN
F 3 "~" H 11825 2475 50  0001 C CNN
	1    11625 2475
	0    1    1    0   
$EndComp
$Comp
L Connector:TestPoint TP1
U 1 1 5E10224A
P 11625 2375
F 0 "TP1" V 11625 2563 50  0000 L CNN
F 1 "TestPoint" V 11670 2563 50  0001 L CNN
F 2 "TestPoint:TestPoint_Pad_D2.0mm_(pogo)" H 11825 2375 50  0001 C CNN
F 3 "~" H 11825 2375 50  0001 C CNN
	1    11625 2375
	0    1    1    0   
$EndComp
$Comp
L Connector:TestPoint TP3
U 1 1 5E102250
P 11625 2575
F 0 "TP3" V 11625 2763 50  0000 L CNN
F 1 "TestPoint" V 11670 2763 50  0001 L CNN
F 2 "TestPoint:TestPoint_Pad_D2.0mm_(pogo)" H 11825 2575 50  0001 C CNN
F 3 "~" H 11825 2575 50  0001 C CNN
	1    11625 2575
	0    1    1    0   
$EndComp
$Comp
L Connector:TestPoint TP5
U 1 1 5E11981E
P 11625 2775
F 0 "TP5" V 11625 2963 50  0000 L CNN
F 1 "TestPoint" V 11670 2963 50  0001 L CNN
F 2 "TestPoint:TestPoint_Pad_D2.0mm_(pogo)" H 11825 2775 50  0001 C CNN
F 3 "~" H 11825 2775 50  0001 C CNN
	1    11625 2775
	0    1    1    0   
$EndComp
$Comp
L Connector:TestPoint TP4
U 1 1 5E119824
P 11625 2675
F 0 "TP4" V 11625 2863 50  0000 L CNN
F 1 "TestPoint" V 11670 2863 50  0001 L CNN
F 2 "TestPoint:TestPoint_Pad_D2.0mm_(pogo)" H 11825 2675 50  0001 C CNN
F 3 "~" H 11825 2675 50  0001 C CNN
	1    11625 2675
	0    1    1    0   
$EndComp
$Comp
L Connector:TestPoint TP6
U 1 1 5E11982A
P 11625 2875
F 0 "TP6" V 11625 3063 50  0000 L CNN
F 1 "TestPoint" V 11670 3063 50  0001 L CNN
F 2 "TestPoint:TestPoint_Pad_D2.0mm_(pogo)" H 11825 2875 50  0001 C CNN
F 3 "~" H 11825 2875 50  0001 C CNN
	1    11625 2875
	0    1    1    0   
$EndComp
$Comp
L Connector:TestPoint TP7
U 1 1 5E18B326
P 11625 2975
F 0 "TP7" V 11625 3163 50  0000 L CNN
F 1 "TestPoint" V 11670 3163 50  0001 L CNN
F 2 "TestPoint:TestPoint_Pad_D2.0mm_(pogo)" H 11825 2975 50  0001 C CNN
F 3 "~" H 11825 2975 50  0001 C CNN
	1    11625 2975
	0    1    1    0   
$EndComp
Wire Wire Line
	4450 12200 4450 12125
Wire Wire Line
	3750 11750 4450 11750
Wire Wire Line
	4450 11825 4450 11750
Connection ~ 4450 11750
Wire Wire Line
	4450 11750 4675 11750
Wire Wire Line
	20725 9200 20900 9200
Wire Wire Line
	20900 9100 20900 9200
Connection ~ 20900 9200
Wire Wire Line
	20900 9200 21100 9200
Wire Wire Line
	20900 8650 20900 8800
$Comp
L Device:Q_NMOS_GSD Q3
U 1 1 5E3EE7AD
P 6375 1525
F 0 "Q3" V 6718 1525 50  0000 C CNN
F 1 "PMF370XN" V 6627 1525 50  0000 C CNN
F 2 "Package_TO_SOT_SMD:SOT-323_SC-70" H 6575 1625 50  0001 C CNN
F 3 "~" H 6375 1525 50  0001 C CNN
	1    6375 1525
	0    -1   -1   0   
$EndComp
$Comp
L Device:Q_NMOS_GSD Q1
U 1 1 5E3EEF02
P 2675 2100
F 0 "Q1" V 3018 2100 50  0000 C CNN
F 1 "PMF370XN" V 2927 2100 50  0000 C CNN
F 2 "Package_TO_SOT_SMD:SOT-323_SC-70" H 2875 2200 50  0001 C CNN
F 3 "~" H 2675 2100 50  0001 C CNN
	1    2675 2100
	0    -1   -1   0   
$EndComp
$Comp
L Connector:TestPoint TP8
U 1 1 5E18B32C
P 11625 3075
F 0 "TP8" V 11625 3263 50  0000 L CNN
F 1 "TestPoint" V 11670 3263 50  0001 L CNN
F 2 "TestPoint:TestPoint_Pad_D2.0mm_(pogo)" H 11825 3075 50  0001 C CNN
F 3 "~" H 11825 3075 50  0001 C CNN
	1    11625 3075
	0    1    1    0   
$EndComp
$Comp
L Connector:TestPoint TP21
U 1 1 5E15DB4C
P 12525 3100
F 0 "TP21" V 12525 3288 50  0000 L CNN
F 1 "TestPoint" V 12570 3288 50  0001 L CNN
F 2 "TestPoint:TestPoint_Pad_D2.0mm_(pogo)" H 12725 3100 50  0001 C CNN
F 3 "~" H 12725 3100 50  0001 C CNN
	1    12525 3100
	0    1    1    0   
$EndComp
$Comp
L Connector:TestPoint TP20
U 1 1 5E15DB46
P 12525 3000
F 0 "TP20" V 12525 3188 50  0000 L CNN
F 1 "TestPoint" V 12570 3188 50  0001 L CNN
F 2 "TestPoint:TestPoint_Pad_D2.0mm_(pogo)" H 12725 3000 50  0001 C CNN
F 3 "~" H 12725 3000 50  0001 C CNN
	1    12525 3000
	0    1    1    0   
$EndComp
$Comp
L Connector:TestPoint TP19
U 1 1 5E14693D
P 12525 2900
F 0 "TP19" V 12525 3088 50  0000 L CNN
F 1 "TestPoint" V 12570 3088 50  0001 L CNN
F 2 "TestPoint:TestPoint_Pad_D2.0mm_(pogo)" H 12725 2900 50  0001 C CNN
F 3 "~" H 12725 2900 50  0001 C CNN
	1    12525 2900
	0    1    1    0   
$EndComp
$Comp
L Connector:TestPoint TP17
U 1 1 5E146937
P 12525 2700
F 0 "TP17" V 12525 2888 50  0000 L CNN
F 1 "TestPoint" V 12570 2888 50  0001 L CNN
F 2 "TestPoint:TestPoint_Pad_D2.0mm_(pogo)" H 12725 2700 50  0001 C CNN
F 3 "~" H 12725 2700 50  0001 C CNN
	1    12525 2700
	0    1    1    0   
$EndComp
$Comp
L Connector:TestPoint TP18
U 1 1 5E146931
P 12525 2800
F 0 "TP18" V 12525 2988 50  0000 L CNN
F 1 "TestPoint" V 12570 2988 50  0001 L CNN
F 2 "TestPoint:TestPoint_Pad_D2.0mm_(pogo)" H 12725 2800 50  0001 C CNN
F 3 "~" H 12725 2800 50  0001 C CNN
	1    12525 2800
	0    1    1    0   
$EndComp
$Comp
L Connector:TestPoint TP16
U 1 1 5E1300FF
P 12525 2600
F 0 "TP16" V 12525 2788 50  0000 L CNN
F 1 "TestPoint" V 12570 2788 50  0001 L CNN
F 2 "TestPoint:TestPoint_Pad_D2.0mm_(pogo)" H 12725 2600 50  0001 C CNN
F 3 "~" H 12725 2600 50  0001 C CNN
	1    12525 2600
	0    1    1    0   
$EndComp
$Comp
L Connector:TestPoint TP14
U 1 1 5E1300F9
P 12525 2400
F 0 "TP14" V 12525 2588 50  0000 L CNN
F 1 "TestPoint" V 12570 2588 50  0001 L CNN
F 2 "TestPoint:TestPoint_Pad_D2.0mm_(pogo)" H 12725 2400 50  0001 C CNN
F 3 "~" H 12725 2400 50  0001 C CNN
	1    12525 2400
	0    1    1    0   
$EndComp
$Comp
L Connector:TestPoint TP15
U 1 1 5E1300F3
P 12525 2500
F 0 "TP15" V 12525 2688 50  0000 L CNN
F 1 "TestPoint" V 12570 2688 50  0001 L CNN
F 2 "TestPoint:TestPoint_Pad_D2.0mm_(pogo)" H 12725 2500 50  0001 C CNN
F 3 "~" H 12725 2500 50  0001 C CNN
	1    12525 2500
	0    1    1    0   
$EndComp
Text GLabel 12525 3000 0    50   BiDi ~ 0
PC12
Text GLabel 12525 2900 0    50   BiDi ~ 0
PC10
Text GLabel 12525 2800 0    50   BiDi ~ 0
PC9
Text GLabel 11625 3075 0    50   BiDi ~ 0
PB14
Text GLabel 12525 2700 0    50   BiDi ~ 0
PC3
Text GLabel 12525 2600 0    50   BiDi ~ 0
PC2
Text GLabel 12525 2500 0    50   BiDi ~ 0
PC1
Text GLabel 12525 2400 0    50   BiDi ~ 0
PC0
Text GLabel 12525 3100 0    50   BiDi ~ 0
PC13
Wire Notes Line
	8800 475  8800 16050
Wire Notes Line
	18675 14800 18675 10275
Wire Notes Line
	18675 10275 18700 10275
Wire Notes Line
	475  10225 22950 10225
Wire Notes Line
	8800 3950 475  3950
Wire Notes Line
	8800 7075 500  7075
Wire Notes Line
	500  7075 500  7100
$Comp
L power:+3V3 #PWR0156
U 1 1 5E8806AC
P 2925 8150
F 0 "#PWR0156" H 2925 8000 50  0001 C CNN
F 1 "+3V3" H 2940 8323 50  0000 C CNN
F 2 "" H 2925 8150 50  0001 C CNN
F 3 "" H 2925 8150 50  0001 C CNN
	1    2925 8150
	1    0    0    -1  
$EndComp
Wire Wire Line
	2925 8425 2925 8300
$Comp
L Device:R R2
U 1 1 5E897083
P 2925 8575
F 0 "R2" V 2825 8575 50  0000 C CNN
F 1 "4K7" V 2925 8575 50  0000 C CNN
F 2 "Resistor_SMD:R_0603_REFLOW" V 2855 8575 50  0001 C CNN
F 3 "~" H 2925 8575 50  0001 C CNN
	1    2925 8575
	1    0    0    -1  
$EndComp
Wire Wire Line
	2925 8300 3175 8300
Connection ~ 2925 8300
Wire Wire Line
	2925 8300 2925 8150
Wire Wire Line
	3175 8775 3400 8775
Wire Wire Line
	3175 8300 3175 8775
Wire Wire Line
	3400 8875 2925 8875
Wire Wire Line
	2925 8875 2925 8725
Wire Wire Line
	2775 8875 2925 8875
Connection ~ 2925 8875
$Comp
L power:GND #PWR0157
U 1 1 5E93788F
P 3200 9075
F 0 "#PWR0157" H 3200 8825 50  0001 C CNN
F 1 "GND" H 3205 8902 50  0000 C CNN
F 2 "" H 3200 9075 50  0001 C CNN
F 3 "" H 3200 9075 50  0001 C CNN
	1    3200 9075
	1    0    0    -1  
$EndComp
Wire Wire Line
	3400 8975 3200 8975
Wire Wire Line
	3200 8975 3200 9075
Wire Notes Line
	9275 9975 22925 9975
Wire Notes Line
	15300 475  15300 9925
Wire Notes Line
	9275 500  9275 9975
Wire Notes Line
	9275 4100 15275 4100
Wire Notes Line
	22900 6950 22900 6975
Wire Notes Line
	9275 6950 22900 6950
Text Notes 725  10800 0    276  ~ 0
GNSS\n
Text Notes 650  7550 0    276  ~ 0
ULTRASOON + TEMPERATUUR\n
Text Notes 575  4500 0    276  ~ 0
CONNECTORS FROM FEEDER PCB
Text Notes 525  975  0    276  ~ 0
LEVEL SHIFTER\n
Text Notes 9525 950  0    276  ~ 0
UNUSED PINS \n
Text Notes 9475 4950 0    276  ~ 0
I2C & LEDS\n\n
Text Notes 15475 7450 0    276  ~ 0
STLINK 
Text Notes 15550 1000 0    276  ~ 0
MCU\n
Text Notes 9200 10825 0    276  ~ 0
IMU
Text Notes 19000 10800 0    276  ~ 0
LORA
$Comp
L Device:C C17
U 1 1 5EBE525E
P 16650 2450
F 0 "C17" V 16398 2450 50  0000 C CNN
F 1 "DNP" V 16489 2450 50  0000 C CNN
F 2 "Capacitor_SMD:C_0603_REFLOW" H 16688 2300 50  0001 C CNN
F 3 "~" H 16650 2450 50  0001 C CNN
	1    16650 2450
	0    1    1    0   
$EndComp
$Comp
L Device:C C19
U 1 1 5EBE6635
P 16650 2950
F 0 "C19" V 16398 2950 50  0000 C CNN
F 1 "DNP" V 16489 2950 50  0000 C CNN
F 2 "Capacitor_SMD:C_0603_REFLOW" H 16688 2800 50  0001 C CNN
F 3 "~" H 16650 2950 50  0001 C CNN
	1    16650 2950
	0    1    1    0   
$EndComp
Wire Wire Line
	16800 2950 17000 2950
Connection ~ 17000 2950
Wire Wire Line
	16800 2450 17000 2450
Connection ~ 17000 2450
Wire Wire Line
	16500 2450 16300 2450
Wire Wire Line
	16300 2450 16300 2700
Wire Wire Line
	16300 2950 16500 2950
Wire Wire Line
	16300 2700 16100 2700
Wire Wire Line
	16100 2700 16100 2800
Connection ~ 16300 2700
Wire Wire Line
	16300 2700 16300 2950
$Comp
L power:GND #PWR0133
U 1 1 5EC57E50
P 16100 2800
F 0 "#PWR0133" H 16100 2550 50  0001 C CNN
F 1 "GND" H 16105 2627 50  0000 C CNN
F 2 "" H 16100 2800 50  0001 C CNN
F 3 "" H 16100 2800 50  0001 C CNN
	1    16100 2800
	1    0    0    -1  
$EndComp
$Comp
L power:GND #PWR0158
U 1 1 5ECEF5E1
P 21900 15100
F 0 "#PWR0158" H 21900 14850 50  0001 C CNN
F 1 "GND" H 21905 14927 50  0000 C CNN
F 2 "" H 21900 15100 50  0001 C CNN
F 3 "" H 21900 15100 50  0001 C CNN
	1    21900 15100
	1    0    0    -1  
$EndComp
Text GLabel 21925 15000 2    50   BiDi ~ 0
GND
Wire Wire Line
	21900 15100 21900 15000
Wire Wire Line
	21900 15000 21925 15000
$Comp
L power:+3V3 #PWR0159
U 1 1 5ED26823
P 20825 15175
F 0 "#PWR0159" H 20825 15025 50  0001 C CNN
F 1 "+3V3" H 20840 15348 50  0000 C CNN
F 2 "" H 20825 15175 50  0001 C CNN
F 3 "" H 20825 15175 50  0001 C CNN
	1    20825 15175
	1    0    0    -1  
$EndComp
Text GLabel 20950 15300 2    50   BiDi ~ 0
3V3
Wire Wire Line
	20950 15300 20825 15300
Wire Wire Line
	20825 15300 20825 15175
Text GLabel 6025 12025 0    50   BiDi ~ 0
TX_GNSS
$Comp
L Connector_Generic:Conn_01x02 J10
U 1 1 5EDE9A68
P 6225 11925
F 0 "J10" H 6305 11917 50  0000 L CNN
F 1 "GNSS_DEBUG" H 6305 11826 50  0000 L CNN
F 2 "Connector_PinHeader_2.54mm:PinHeader_1x02_P2.54mm_Vertical" H 6225 11925 50  0001 C CNN
F 3 "~" H 6225 11925 50  0001 C CNN
	1    6225 11925
	1    0    0    -1  
$EndComp
Text GLabel 6025 11925 0    50   BiDi ~ 0
RX_GNSS
Text GLabel 6325 6175 0    50   BiDi ~ 0
ADC_INPUT
Text GLabel 6325 6075 0    50   BiDi ~ 0
SC_RESET
Text GLabel 6325 5975 0    50   BiDi ~ 0
ALERT
NoConn ~ 5500 14625
NoConn ~ 5500 14725
NoConn ~ 5500 14825
$Comp
L Connector:TestPoint TP27
U 1 1 5EF07BC2
P 5500 14425
F 0 "TP27" V 5500 14613 50  0000 L CNN
F 1 "TestPoint" V 5545 14613 50  0001 L CNN
F 2 "TestPoint:TestPoint_Pad_D2.0mm_(pogo)" H 5700 14425 50  0001 C CNN
F 3 "~" H 5700 14425 50  0001 C CNN
	1    5500 14425
	0    1    1    0   
$EndComp
$Comp
L Device:R R24
U 1 1 5EF095E1
P 5800 14525
F 0 "R24" V 5900 14525 50  0000 C CNN
F 1 "10K" V 5800 14525 50  0000 C CNN
F 2 "Resistor_SMD:R_0603_REFLOW" V 5730 14525 50  0001 C CNN
F 3 "~" H 5800 14525 50  0001 C CNN
	1    5800 14525
	0    1    1    0   
$EndComp
$Comp
L power:+3V3 #PWR0136
U 1 1 5EF09BA0
P 6550 14475
F 0 "#PWR0136" H 6550 14325 50  0001 C CNN
F 1 "+3V3" H 6565 14648 50  0000 C CNN
F 2 "" H 6550 14475 50  0001 C CNN
F 3 "" H 6550 14475 50  0001 C CNN
	1    6550 14475
	1    0    0    -1  
$EndComp
Wire Wire Line
	5950 14525 6550 14525
Wire Wire Line
	6550 14525 6550 14475
Wire Wire Line
	5500 14525 5650 14525
Wire Wire Line
	5500 13225 5650 13225
Wire Wire Line
	5650 13225 5650 13325
Connection ~ 5650 13325
$Comp
L Device:R R26
U 1 1 5EF862D4
P 7625 12125
F 0 "R26" V 7525 12075 50  0000 L CNN
F 1 "2K2" V 7625 12050 50  0000 L CNN
F 2 "Resistor_SMD:R_0603_REFLOW" V 7555 12125 50  0001 C CNN
F 3 "~" H 7625 12125 50  0001 C CNN
	1    7625 12125
	0    -1   -1   0   
$EndComp
$Comp
L Device:R R25
U 1 1 5EF86F58
P 7625 11975
F 0 "R25" V 7700 11900 50  0000 L CNN
F 1 "2K2" V 7625 11900 50  0000 L CNN
F 2 "Resistor_SMD:R_0603_REFLOW" V 7555 11975 50  0001 C CNN
F 3 "~" H 7625 11975 50  0001 C CNN
	1    7625 11975
	0    -1   -1   0   
$EndComp
Wire Wire Line
	7775 12125 7875 12125
Wire Wire Line
	7775 11975 7875 11975
Wire Wire Line
	5650 13325 6175 13325
Text GLabel 5500 13425 2    50   BiDi ~ 0
LNA_EN
Text GLabel 8075 12050 2    50   BiDi ~ 0
LNA_EN
Wire Wire Line
	8075 12050 7875 12050
Connection ~ 7875 12050
Wire Wire Line
	7875 12050 7875 11975
Wire Wire Line
	7875 12050 7875 12125
$Comp
L power:+3V3 #PWR0137
U 1 1 5F0203AC
P 7250 11900
F 0 "#PWR0137" H 7250 11750 50  0001 C CNN
F 1 "+3V3" H 7265 12073 50  0000 C CNN
F 2 "" H 7250 11900 50  0001 C CNN
F 3 "" H 7250 11900 50  0001 C CNN
	1    7250 11900
	1    0    0    -1  
$EndComp
$Comp
L power:GND #PWR0138
U 1 1 5F0205B7
P 7250 12175
F 0 "#PWR0138" H 7250 11925 50  0001 C CNN
F 1 "GND" H 7255 12002 50  0000 C CNN
F 2 "" H 7250 12175 50  0001 C CNN
F 3 "" H 7250 12175 50  0001 C CNN
	1    7250 12175
	1    0    0    -1  
$EndComp
Wire Wire Line
	7475 11975 7250 11975
Wire Wire Line
	7250 11975 7250 11900
Wire Wire Line
	7250 12175 7250 12125
Wire Wire Line
	7250 12125 7475 12125
Text GLabel 5500 13525 2    50   BiDi ~ 0
TIMEPULSE
Text GLabel 2650 11150 2    50   BiDi ~ 0
TIMEPULSE
$Comp
L Device:LED D5
U 1 1 5F13A643
P 2600 11500
F 0 "D5" V 2639 11383 50  0000 R CNN
F 1 "LED" V 2548 11383 50  0000 R CNN
F 2 "LED_SMD:LED_0805_2012Metric" H 2600 11500 50  0001 C CNN
F 3 "~" H 2600 11500 50  0001 C CNN
	1    2600 11500
	0    -1   -1   0   
$EndComp
$Comp
L Device:R R23
U 1 1 5F13A64F
P 2600 11925
F 0 "R23" H 2670 11971 50  0000 L CNN
F 1 "2K2" H 2670 11880 50  0000 L CNN
F 2 "Resistor_SMD:R_0603_REFLOW" V 2530 11925 50  0001 C CNN
F 3 "~" H 2600 11925 50  0001 C CNN
	1    2600 11925
	1    0    0    -1  
$EndComp
Wire Wire Line
	2600 12075 2600 12200
Wire Wire Line
	2600 11775 2600 11650
$Comp
L power:GND #PWR0139
U 1 1 5F170ED7
P 2600 12200
F 0 "#PWR0139" H 2600 11950 50  0001 C CNN
F 1 "GND" H 2605 12027 50  0000 C CNN
F 2 "" H 2600 12200 50  0001 C CNN
F 3 "" H 2600 12200 50  0001 C CNN
	1    2600 12200
	1    0    0    -1  
$EndComp
Wire Wire Line
	2600 11150 2650 11150
Wire Wire Line
	2600 11150 2600 11350
Wire Wire Line
	12400 4975 12450 4975
Wire Wire Line
	12400 4975 12400 5200
Wire Wire Line
	12875 4975 12900 4975
Wire Wire Line
	12875 4975 12875 5200
Wire Wire Line
	13350 4975 13375 4975
Wire Wire Line
	13350 4975 13350 5200
Wire Wire Line
	13850 4975 13875 4975
Wire Wire Line
	13350 5925 13350 6050
$Comp
L power:GND #PWR0160
U 1 1 5F2DD1FE
P 13350 6050
F 0 "#PWR0160" H 13350 5800 50  0001 C CNN
F 1 "GND" H 13355 5877 50  0000 C CNN
F 2 "" H 13350 6050 50  0001 C CNN
F 3 "" H 13350 6050 50  0001 C CNN
	1    13350 6050
	1    0    0    -1  
$EndComp
Wire Wire Line
	12875 5925 12875 6050
$Comp
L power:GND #PWR0161
U 1 1 5F2F7A5A
P 12875 6050
F 0 "#PWR0161" H 12875 5800 50  0001 C CNN
F 1 "GND" H 12880 5877 50  0000 C CNN
F 2 "" H 12875 6050 50  0001 C CNN
F 3 "" H 12875 6050 50  0001 C CNN
	1    12875 6050
	1    0    0    -1  
$EndComp
Wire Wire Line
	12400 5925 12400 6050
$Comp
L power:GND #PWR0162
U 1 1 5F312628
P 12400 6050
F 0 "#PWR0162" H 12400 5800 50  0001 C CNN
F 1 "GND" H 12405 5877 50  0000 C CNN
F 2 "" H 12400 6050 50  0001 C CNN
F 3 "" H 12400 6050 50  0001 C CNN
	1    12400 6050
	1    0    0    -1  
$EndComp
Text GLabel 14650 5000 2    50   BiDi ~ 0
SWDIO
$Comp
L power:GND #PWR0163
U 1 1 5F2C2B67
P 13850 6050
F 0 "#PWR0163" H 13850 5800 50  0001 C CNN
F 1 "GND" H 13855 5877 50  0000 C CNN
F 2 "" H 13850 6050 50  0001 C CNN
F 3 "" H 13850 6050 50  0001 C CNN
	1    13850 6050
	1    0    0    -1  
$EndComp
Wire Wire Line
	13850 5925 13850 6050
Wire Wire Line
	13850 4975 13850 5200
Wire Wire Line
	13850 5625 13850 5500
$Comp
L Device:R R16
U 1 1 5DD5FAF4
P 13850 5775
F 0 "R16" H 13920 5821 50  0000 L CNN
F 1 "2K2" H 13920 5730 50  0000 L CNN
F 2 "Resistor_SMD:R_0603_REFLOW" V 13780 5775 50  0001 C CNN
F 3 "~" H 13850 5775 50  0001 C CNN
	1    13850 5775
	1    0    0    -1  
$EndComp
$Comp
L Device:LED D4
U 1 1 5DD5FAE8
P 13850 5350
F 0 "D4" V 13889 5233 50  0000 R CNN
F 1 "LED" V 13798 5233 50  0000 R CNN
F 2 "LED_SMD:LED_0805_2012Metric" H 13850 5350 50  0001 C CNN
F 3 "~" H 13850 5350 50  0001 C CNN
	1    13850 5350
	0    -1   -1   0   
$EndComp
$Comp
L power:GND #PWR0164
U 1 1 5F3AC8A5
P 14600 6100
F 0 "#PWR0164" H 14600 5850 50  0001 C CNN
F 1 "GND" H 14605 5927 50  0000 C CNN
F 2 "" H 14600 6100 50  0001 C CNN
F 3 "" H 14600 6100 50  0001 C CNN
	1    14600 6100
	1    0    0    -1  
$EndComp
Wire Wire Line
	14600 5975 14600 6100
Wire Wire Line
	14600 5675 14600 5550
$Comp
L Device:R R27
U 1 1 5F3AC8AE
P 14600 5825
F 0 "R27" H 14670 5871 50  0000 L CNN
F 1 "2K2" H 14670 5780 50  0000 L CNN
F 2 "Resistor_SMD:R_0603_REFLOW" V 14530 5825 50  0001 C CNN
F 3 "~" H 14600 5825 50  0001 C CNN
	1    14600 5825
	1    0    0    -1  
$EndComp
$Comp
L Device:LED D6
U 1 1 5F3AC8B4
P 14600 5400
F 0 "D6" V 14639 5283 50  0000 R CNN
F 1 "LED" V 14548 5283 50  0000 R CNN
F 2 "LED_SMD:LED_0805_2012Metric" H 14600 5400 50  0001 C CNN
F 3 "~" H 14600 5400 50  0001 C CNN
	1    14600 5400
	0    -1   -1   0   
$EndComp
Wire Wire Line
	14600 5000 14650 5000
Wire Wire Line
	14600 5000 14600 5250
Wire Wire Line
	12125 14000 13050 14000
Wire Wire Line
	12450 13700 13050 13700
Text GLabel 19200 8425 0    50   BiDi ~ 0
DEBUG_TX
Text GLabel 19200 8525 0    50   BiDi ~ 0
DEBUG_RX
$Comp
L Connector_Generic:Conn_01x02 J12
U 1 1 5EDB5A15
P 19400 8425
F 0 "J12" H 19480 8417 50  0000 L CNN
F 1 "UART_DEBUG" H 19480 8326 50  0000 L CNN
F 2 "Connector_PinHeader_2.54mm:PinHeader_1x02_P2.54mm_Vertical" H 19400 8425 50  0001 C CNN
F 3 "~" H 19400 8425 50  0001 C CNN
	1    19400 8425
	1    0    0    -1  
$EndComp
Text GLabel 21850 11375 0    50   BiDi ~ 0
NSS_LORA
Text GLabel 21850 11275 0    50   BiDi ~ 0
SCK_LORA
Text GLabel 21850 11175 0    50   BiDi ~ 0
MOSI_LORA
Text GLabel 21850 11075 0    50   BiDi ~ 0
MISO_LORA
Text GLabel 21850 11475 0    50   BiDi ~ 0
RESET_LORA
Text GLabel 16200 5800 0    50   BiDi ~ 0
SC_RESET
Text GLabel 16200 5900 0    50   BiDi ~ 0
ADC_INPUT
Text GLabel 16200 6000 0    50   BiDi ~ 0
ALERT
Text GLabel 16200 5600 0    50   BiDi ~ 0
ECHO
Text GLabel 16200 5700 0    50   BiDi ~ 0
TRIGGER
Text GLabel 19200 8200 0    50   BiDi ~ 0
I2C_SCL
Text GLabel 19200 8100 0    50   BiDi ~ 0
I2C_SDA
Text GLabel 19200 8000 0    50   BiDi ~ 0
tempData
$Comp
L Connector_Generic:Conn_01x03 J11
U 1 1 5F66BBA6
P 19400 8100
F 0 "J11" H 19480 8142 50  0000 L CNN
F 1 "I2C" H 19480 8051 50  0000 L CNN
F 2 "Connector_PinHeader_2.54mm:PinHeader_1x03_P2.54mm_Vertical" H 19400 8100 50  0001 C CNN
F 3 "~" H 19400 8100 50  0001 C CNN
	1    19400 8100
	1    0    0    -1  
$EndComp
$Comp
L Connector_Generic:Conn_01x05 J13
U 1 1 5F66EBC8
P 22050 11275
F 0 "J13" H 22130 11317 50  0000 L CNN
F 1 "SPI" H 22130 11226 50  0000 L CNN
F 2 "Connector_PinHeader_2.54mm:PinHeader_1x05_P2.54mm_Vertical" H 22050 11275 50  0001 C CNN
F 3 "~" H 22050 11275 50  0001 C CNN
	1    22050 11275
	1    0    0    -1  
$EndComp
$Comp
L Connector:TestPoint TP37
U 1 1 5F6E3284
P 16200 6000
F 0 "TP37" V 16200 6188 50  0000 L CNN
F 1 "TestPoint" V 16245 6188 50  0001 L CNN
F 2 "TestPoint:TestPoint_Pad_D2.0mm_(pogo)" H 16400 6000 50  0001 C CNN
F 3 "~" H 16400 6000 50  0001 C CNN
	1    16200 6000
	0    1    1    0   
$EndComp
$Comp
L Connector:TestPoint TP35
U 1 1 5F6E328A
P 16200 5800
F 0 "TP35" V 16200 5988 50  0000 L CNN
F 1 "TestPoint" V 16245 5988 50  0001 L CNN
F 2 "TestPoint:TestPoint_Pad_D2.0mm_(pogo)" H 16400 5800 50  0001 C CNN
F 3 "~" H 16400 5800 50  0001 C CNN
	1    16200 5800
	0    1    1    0   
$EndComp
$Comp
L Connector:TestPoint TP36
U 1 1 5F6E3290
P 16200 5900
F 0 "TP36" V 16200 6088 50  0000 L CNN
F 1 "TestPoint" V 16245 6088 50  0001 L CNN
F 2 "TestPoint:TestPoint_Pad_D2.0mm_(pogo)" H 16400 5900 50  0001 C CNN
F 3 "~" H 16400 5900 50  0001 C CNN
	1    16200 5900
	0    1    1    0   
$EndComp
$Comp
L Connector:TestPoint TP30
U 1 1 5F6FE257
P 16200 5600
F 0 "TP30" V 16200 5788 50  0000 L CNN
F 1 "TestPoint" V 16245 5788 50  0001 L CNN
F 2 "TestPoint:TestPoint_Pad_D2.0mm_(pogo)" H 16400 5600 50  0001 C CNN
F 3 "~" H 16400 5600 50  0001 C CNN
	1    16200 5600
	0    1    1    0   
$EndComp
$Comp
L Connector:TestPoint TP31
U 1 1 5F6FE25D
P 16200 5700
F 0 "TP31" V 16200 5888 50  0000 L CNN
F 1 "TestPoint" V 16245 5888 50  0001 L CNN
F 2 "TestPoint:TestPoint_Pad_D2.0mm_(pogo)" H 16400 5700 50  0001 C CNN
F 3 "~" H 16400 5700 50  0001 C CNN
	1    16200 5700
	0    1    1    0   
$EndComp
$Comp
L power:+5V #PWR0165
U 1 1 5F71EE4D
P 7950 5350
F 0 "#PWR0165" H 7950 5200 50  0001 C CNN
F 1 "+5V" V 7965 5523 50  0000 C CNN
F 2 "" H 7950 5350 50  0001 C CNN
F 3 "" H 7950 5350 50  0001 C CNN
	1    7950 5350
	0    -1   -1   0   
$EndComp
$Comp
L Connector:TestPoint TP26
U 1 1 5F74060A
P 7950 5350
F 0 "TP26" V 7950 5538 50  0000 L CNN
F 1 "TestPoint" V 7995 5538 50  0001 L CNN
F 2 "TestPoint:TestPoint_Pad_D2.0mm_(pogo)" H 8150 5350 50  0001 C CNN
F 3 "~" H 8150 5350 50  0001 C CNN
	1    7950 5350
	0    1    1    0   
$EndComp
$Comp
L power:+3V3 #PWR0166
U 1 1 5F75DE4B
P 7950 5725
F 0 "#PWR0166" H 7950 5575 50  0001 C CNN
F 1 "+3V3" V 7965 5853 50  0000 L CNN
F 2 "" H 7950 5725 50  0001 C CNN
F 3 "" H 7950 5725 50  0001 C CNN
	1    7950 5725
	0    -1   -1   0   
$EndComp
$Comp
L power:GND #PWR0167
U 1 1 5F75DE51
P 7950 5975
F 0 "#PWR0167" H 7950 5725 50  0001 C CNN
F 1 "GND" V 7955 5847 50  0000 R CNN
F 2 "" H 7950 5975 50  0001 C CNN
F 3 "" H 7950 5975 50  0001 C CNN
	1    7950 5975
	0    1    1    0   
$EndComp
$Comp
L Connector:TestPoint TP41
U 1 1 5F75DE57
P 7950 5975
F 0 "TP41" V 7950 6163 50  0000 L CNN
F 1 "TestPoint" V 7995 6163 50  0001 L CNN
F 2 "TestPoint:TestPoint_Pad_D2.0mm_(pogo)" H 8150 5975 50  0001 C CNN
F 3 "~" H 8150 5975 50  0001 C CNN
	1    7950 5975
	0    1    1    0   
$EndComp
$Comp
L Connector:TestPoint TP32
U 1 1 5F75DE5D
P 7950 5725
F 0 "TP32" V 7950 5913 50  0000 L CNN
F 1 "TestPoint" V 7995 5913 50  0001 L CNN
F 2 "TestPoint:TestPoint_Pad_D2.0mm_(pogo)" H 8150 5725 50  0001 C CNN
F 3 "~" H 8150 5725 50  0001 C CNN
	1    7950 5725
	0    1    1    0   
$EndComp
$Comp
L power:+3V3 #PWR0168
U 1 1 5F7B11B4
P 7950 5600
F 0 "#PWR0168" H 7950 5450 50  0001 C CNN
F 1 "+3V3" V 7965 5728 50  0000 L CNN
F 2 "" H 7950 5600 50  0001 C CNN
F 3 "" H 7950 5600 50  0001 C CNN
	1    7950 5600
	0    -1   -1   0   
$EndComp
$Comp
L Connector:TestPoint TP29
U 1 1 5F7B11BA
P 7950 5600
F 0 "TP29" V 7950 5788 50  0000 L CNN
F 1 "TestPoint" V 7995 5788 50  0001 L CNN
F 2 "TestPoint:TestPoint_Pad_D2.0mm_(pogo)" H 8150 5600 50  0001 C CNN
F 3 "~" H 8150 5600 50  0001 C CNN
	1    7950 5600
	0    1    1    0   
$EndComp
$Comp
L power:+3V3 #PWR0169
U 1 1 5F7CC39B
P 7950 5475
F 0 "#PWR0169" H 7950 5325 50  0001 C CNN
F 1 "+3V3" V 7965 5603 50  0000 L CNN
F 2 "" H 7950 5475 50  0001 C CNN
F 3 "" H 7950 5475 50  0001 C CNN
	1    7950 5475
	0    -1   -1   0   
$EndComp
$Comp
L Connector:TestPoint TP28
U 1 1 5F7CC3A1
P 7950 5475
F 0 "TP28" V 7950 5663 50  0000 L CNN
F 1 "TestPoint" V 7995 5663 50  0001 L CNN
F 2 "TestPoint:TestPoint_Pad_D2.0mm_(pogo)" H 8150 5475 50  0001 C CNN
F 3 "~" H 8150 5475 50  0001 C CNN
	1    7950 5475
	0    1    1    0   
$EndComp
$Comp
L power:GND #PWR0170
U 1 1 5F81EE04
P 7950 5850
F 0 "#PWR0170" H 7950 5600 50  0001 C CNN
F 1 "GND" V 7955 5722 50  0000 R CNN
F 2 "" H 7950 5850 50  0001 C CNN
F 3 "" H 7950 5850 50  0001 C CNN
	1    7950 5850
	0    1    1    0   
$EndComp
$Comp
L Connector:TestPoint TP33
U 1 1 5F81EE0A
P 7950 5850
F 0 "TP33" V 7950 6038 50  0000 L CNN
F 1 "TestPoint" V 7995 6038 50  0001 L CNN
F 2 "TestPoint:TestPoint_Pad_D2.0mm_(pogo)" H 8150 5850 50  0001 C CNN
F 3 "~" H 8150 5850 50  0001 C CNN
	1    7950 5850
	0    1    1    0   
$EndComp
$Comp
L power:GND #PWR0171
U 1 1 5F8AF16D
P 7950 6225
F 0 "#PWR0171" H 7950 5975 50  0001 C CNN
F 1 "GND" V 7955 6097 50  0000 R CNN
F 2 "" H 7950 6225 50  0001 C CNN
F 3 "" H 7950 6225 50  0001 C CNN
	1    7950 6225
	0    1    1    0   
$EndComp
$Comp
L Connector:TestPoint TP43
U 1 1 5F8AF173
P 7950 6225
F 0 "TP43" V 7950 6413 50  0000 L CNN
F 1 "TestPoint" V 7995 6413 50  0001 L CNN
F 2 "TestPoint:TestPoint_Pad_D2.0mm_(pogo)" H 8150 6225 50  0001 C CNN
F 3 "~" H 8150 6225 50  0001 C CNN
	1    7950 6225
	0    1    1    0   
$EndComp
$Comp
L power:GND #PWR0172
U 1 1 5F8AF179
P 7950 6100
F 0 "#PWR0172" H 7950 5850 50  0001 C CNN
F 1 "GND" V 7955 5972 50  0000 R CNN
F 2 "" H 7950 6100 50  0001 C CNN
F 3 "" H 7950 6100 50  0001 C CNN
	1    7950 6100
	0    1    1    0   
$EndComp
$Comp
L Connector:TestPoint TP42
U 1 1 5F8AF17F
P 7950 6100
F 0 "TP42" V 7950 6288 50  0000 L CNN
F 1 "TestPoint" V 7995 6288 50  0001 L CNN
F 2 "TestPoint:TestPoint_Pad_D2.0mm_(pogo)" H 8150 6100 50  0001 C CNN
F 3 "~" H 8150 6100 50  0001 C CNN
	1    7950 6100
	0    1    1    0   
$EndComp
$Comp
L power:GND #PWR0173
U 1 1 5F901D70
P 7950 6350
F 0 "#PWR0173" H 7950 6100 50  0001 C CNN
F 1 "GND" V 7955 6222 50  0000 R CNN
F 2 "" H 7950 6350 50  0001 C CNN
F 3 "" H 7950 6350 50  0001 C CNN
	1    7950 6350
	0    1    1    0   
$EndComp
$Comp
L Connector:TestPoint TP44
U 1 1 5F901D76
P 7950 6350
F 0 "TP44" V 7950 6538 50  0000 L CNN
F 1 "TestPoint" V 7995 6538 50  0001 L CNN
F 2 "TestPoint:TestPoint_Pad_D2.0mm_(pogo)" H 8150 6350 50  0001 C CNN
F 3 "~" H 8150 6350 50  0001 C CNN
	1    7950 6350
	0    1    1    0   
$EndComp
$Comp
L power:GND #PWR0174
U 1 1 5F93A8D2
P 7950 6475
F 0 "#PWR0174" H 7950 6225 50  0001 C CNN
F 1 "GND" V 7955 6347 50  0000 R CNN
F 2 "" H 7950 6475 50  0001 C CNN
F 3 "" H 7950 6475 50  0001 C CNN
	1    7950 6475
	0    1    1    0   
$EndComp
$Comp
L Connector:TestPoint TP45
U 1 1 5F93A8D8
P 7950 6475
F 0 "TP45" V 7950 6663 50  0000 L CNN
F 1 "TestPoint" V 7995 6663 50  0001 L CNN
F 2 "TestPoint:TestPoint_Pad_D2.0mm_(pogo)" H 8150 6475 50  0001 C CNN
F 3 "~" H 8150 6475 50  0001 C CNN
	1    7950 6475
	0    1    1    0   
$EndComp
$Comp
L power:GND #PWR0175
U 1 1 5F93A8DE
P 7950 6600
F 0 "#PWR0175" H 7950 6350 50  0001 C CNN
F 1 "GND" V 7955 6472 50  0000 R CNN
F 2 "" H 7950 6600 50  0001 C CNN
F 3 "" H 7950 6600 50  0001 C CNN
	1    7950 6600
	0    1    1    0   
$EndComp
$Comp
L Connector:TestPoint TP46
U 1 1 5F93A8E4
P 7950 6600
F 0 "TP46" V 7950 6788 50  0000 L CNN
F 1 "TestPoint" V 7995 6788 50  0001 L CNN
F 2 "TestPoint:TestPoint_Pad_D2.0mm_(pogo)" H 8150 6600 50  0001 C CNN
F 3 "~" H 8150 6600 50  0001 C CNN
	1    7950 6600
	0    1    1    0   
$EndComp
Wire Wire Line
	1850 13225 2550 13225
$Comp
L Device:C C21
U 1 1 5DD8B4E2
P 3850 6275
F 0 "C21" H 3965 6321 50  0000 L CNN
F 1 "100nF" H 3965 6230 50  0000 L CNN
F 2 "Capacitor_SMD:C_0603_REFLOW" H 3888 6125 50  0001 C CNN
F 3 "~" H 3850 6275 50  0001 C CNN
	1    3850 6275
	1    0    0    -1  
$EndComp
$Comp
L Device:C C20
U 1 1 5DD8C38B
P 3125 6275
F 0 "C20" H 3240 6321 50  0000 L CNN
F 1 "100nF" H 3240 6230 50  0000 L CNN
F 2 "Capacitor_SMD:C_0603_REFLOW" H 3163 6125 50  0001 C CNN
F 3 "~" H 3125 6275 50  0001 C CNN
	1    3125 6275
	1    0    0    -1  
$EndComp
Wire Wire Line
	3125 6125 3425 6125
Wire Wire Line
	3725 6125 3850 6125
Wire Wire Line
	3850 6125 4475 6125
Connection ~ 3850 6125
Wire Wire Line
	3850 6425 3500 6425
Wire Wire Line
	3125 6125 3125 6050
Connection ~ 3125 6125
$Comp
L power:GND #PWR01
U 1 1 5DE18038
P 3500 6425
F 0 "#PWR01" H 3500 6175 50  0001 C CNN
F 1 "GND" H 3505 6252 50  0000 C CNN
F 2 "" H 3500 6425 50  0001 C CNN
F 3 "" H 3500 6425 50  0001 C CNN
	1    3500 6425
	1    0    0    -1  
$EndComp
Connection ~ 3500 6425
Wire Wire Line
	3500 6425 3125 6425
$Comp
L STM32F410RBT6:STM32F410RBT6 IC2
U 1 1 5DCC32A4
P 18800 2450
F 0 "IC2" H 19825 2650 50  0000 L CNN
F 1 "STM32F410RBT6" H 19550 2550 50  0000 L CNN
F 2 "STM32F410RBT6:QFP50P1200X1200X160-64N" H 20750 2950 50  0001 L CNN
F 3 "https://componentsearchengine.com/Datasheets/1/STM32F410RBT6.pdf" H 20750 2850 50  0001 L CNN
F 4 "STMicroelectronics STM32F410RBT6, 32bit ARM Cortex M4 MCU, 100MHz, 128 kB Flash, 64-Pin LQFP" H 20750 2750 50  0001 L CNN "Description"
F 5 "1.6" H 20750 2650 50  0001 L CNN "Height"
F 6 "511-STM32F410RBT6" H 20750 2550 50  0001 L CNN "Mouser Part Number"
F 7 "https://www.mouser.com/Search/Refine.aspx?Keyword=511-STM32F410RBT6" H 20750 2450 50  0001 L CNN "Mouser Price/Stock"
F 8 "STMicroelectronics" H 20750 2350 50  0001 L CNN "Manufacturer_Name"
F 9 "STM32F410RBT6" H 20750 2250 50  0001 L CNN "Manufacturer_Part_Number"
	1    18800 2450
	1    0    0    -1  
$EndComp
$Comp
L power:GND #PWR0176
U 1 1 5DD5BEE2
P 14150 14800
F 0 "#PWR0176" H 14150 14550 50  0001 C CNN
F 1 "GND" H 14155 14627 50  0000 C CNN
F 2 "" H 14150 14800 50  0001 C CNN
F 3 "" H 14150 14800 50  0001 C CNN
	1    14150 14800
	1    0    0    -1  
$EndComp
Wire Wire Line
	14150 14650 14150 14800
Text GLabel 13350 13300 0    50   BiDi ~ 0
I2C_SCL
Text GLabel 13350 13400 0    50   BiDi ~ 0
I2C_SDA
Text GLabel 5500 13925 2    50   BiDi ~ 0
I2C_SCL
Text GLabel 5500 13825 2    50   BiDi ~ 0
I2C_SDA
$Comp
L Mechanical:Fiducial FID1
U 1 1 5DF18811
P 21375 7250
F 0 "FID1" H 21460 7296 50  0000 L CNN
F 1 "Fiducial" H 21460 7205 50  0000 L CNN
F 2 "Fiducial:Fiducial_DUAL_0.5mm_Mask1.5mm" H 21375 7250 50  0001 C CNN
F 3 "~" H 21375 7250 50  0001 C CNN
	1    21375 7250
	1    0    0    -1  
$EndComp
$Comp
L Mechanical:Fiducial FID2
U 1 1 5DF198E4
P 21375 7425
F 0 "FID2" H 21460 7471 50  0000 L CNN
F 1 "Fiducial" H 21460 7380 50  0000 L CNN
F 2 "Fiducial:Fiducial_DUAL_0.5mm_Mask1.5mm" H 21375 7425 50  0001 C CNN
F 3 "~" H 21375 7425 50  0001 C CNN
	1    21375 7425
	1    0    0    -1  
$EndComp
$Comp
L Mechanical:Fiducial FID3
U 1 1 5DF19ABD
P 21375 7600
F 0 "FID3" H 21460 7646 50  0000 L CNN
F 1 "Fiducial" H 21460 7555 50  0000 L CNN
F 2 "Fiducial:Fiducial_DUAL_0.5mm_Mask1.5mm" H 21375 7600 50  0001 C CNN
F 3 "~" H 21375 7600 50  0001 C CNN
	1    21375 7600
	1    0    0    -1  
$EndComp
$Comp
L Connector:TestPoint TP50
U 1 1 5DF65FA5
P 21150 12875
F 0 "TP50" V 21150 13063 50  0000 L CNN
F 1 "TestPoint" V 21195 13063 50  0001 L CNN
F 2 "TestPoint:TestPoint_Pad_D2.0mm_(pogo)" H 21350 12875 50  0001 C CNN
F 3 "~" H 21350 12875 50  0001 C CNN
	1    21150 12875
	0    1    1    0   
$EndComp
$Comp
L Connector:TestPoint TP48
U 1 1 5DF65FAB
P 21150 12675
F 0 "TP48" V 21150 12863 50  0000 L CNN
F 1 "TestPoint" V 21195 12863 50  0001 L CNN
F 2 "TestPoint:TestPoint_Pad_D2.0mm_(pogo)" H 21350 12675 50  0001 C CNN
F 3 "~" H 21350 12675 50  0001 C CNN
	1    21150 12675
	0    1    1    0   
$EndComp
$Comp
L Connector:TestPoint TP49
U 1 1 5DF65FB1
P 21150 12775
F 0 "TP49" V 21150 12963 50  0000 L CNN
F 1 "TestPoint" V 21195 12963 50  0001 L CNN
F 2 "TestPoint:TestPoint_Pad_D2.0mm_(pogo)" H 21350 12775 50  0001 C CNN
F 3 "~" H 21350 12775 50  0001 C CNN
	1    21150 12775
	0    1    1    0   
$EndComp
$Comp
L Connector:TestPoint TP40
U 1 1 5DF65FB7
P 21150 12475
F 0 "TP40" V 21150 12663 50  0000 L CNN
F 1 "TestPoint" V 21195 12663 50  0001 L CNN
F 2 "TestPoint:TestPoint_Pad_D2.0mm_(pogo)" H 21350 12475 50  0001 C CNN
F 3 "~" H 21350 12475 50  0001 C CNN
	1    21150 12475
	0    1    1    0   
$EndComp
$Comp
L Connector:TestPoint TP47
U 1 1 5DF65FBD
P 21150 12575
F 0 "TP47" V 21150 12763 50  0000 L CNN
F 1 "TestPoint" V 21195 12763 50  0001 L CNN
F 2 "TestPoint:TestPoint_Pad_D2.0mm_(pogo)" H 21350 12575 50  0001 C CNN
F 3 "~" H 21350 12575 50  0001 C CNN
	1    21150 12575
	0    1    1    0   
$EndComp
Wire Wire Line
	21150 12275 21475 12275
$Comp
L Connector:TestPoint TP51
U 1 1 5DFD8365
P 21150 12975
F 0 "TP51" V 21150 13163 50  0000 L CNN
F 1 "TestPoint" V 21195 13163 50  0001 L CNN
F 2 "TestPoint:TestPoint_Pad_D2.0mm_(pogo)" H 21350 12975 50  0001 C CNN
F 3 "~" H 21350 12975 50  0001 C CNN
	1    21150 12975
	0    1    1    0   
$EndComp
Text Notes 9325 7325 0    276  ~ 0
DECOUPLE CAPS
$Comp
L Mechanical:MountingHole H1
U 1 1 5DD7C982
P 22100 7275
F 0 "H1" H 22200 7321 50  0000 L CNN
F 1 "MountingHole" H 22200 7230 50  0000 L CNN
F 2 "MountingHole:MountingHole_3.2_mm" H 22100 7275 50  0001 C CNN
F 3 "~" H 22100 7275 50  0001 C CNN
	1    22100 7275
	1    0    0    -1  
$EndComp
$Comp
L Mechanical:MountingHole H2
U 1 1 5DD7DEF0
P 22100 7450
F 0 "H2" H 22200 7496 50  0000 L CNN
F 1 "MountingHole" H 22200 7405 50  0000 L CNN
F 2 "MountingHole:MountingHole_3.2_mm" H 22100 7450 50  0001 C CNN
F 3 "~" H 22100 7450 50  0001 C CNN
	1    22100 7450
	1    0    0    -1  
$EndComp
$Comp
L Mechanical:MountingHole H3
U 1 1 5DD7E10C
P 22100 7650
F 0 "H3" H 22200 7696 50  0000 L CNN
F 1 "MountingHole" H 22200 7605 50  0000 L CNN
F 2 "MountingHole:MountingHole_3.2_mm" H 22100 7650 50  0001 C CNN
F 3 "~" H 22100 7650 50  0001 C CNN
	1    22100 7650
	1    0    0    -1  
$EndComp
$Comp
L Mechanical:MountingHole H4
U 1 1 5DD7E280
P 22100 7850
F 0 "H4" H 22200 7896 50  0000 L CNN
F 1 "MountingHole" H 22200 7805 50  0000 L CNN
F 2 "MountingHole:MountingHole_3.2_mm" H 22100 7850 50  0001 C CNN
F 3 "~" H 22100 7850 50  0001 C CNN
	1    22100 7850
	1    0    0    -1  
$EndComp
$Comp
L Device:C C23
U 1 1 5DF5793C
P 20175 11725
F 0 "C23" H 20290 11771 50  0000 L CNN
F 1 "100nF" H 20290 11680 50  0000 L CNN
F 2 "Capacitor_SMD:C_0603_REFLOW" H 20213 11575 50  0001 C CNN
F 3 "~" H 20175 11725 50  0001 C CNN
	1    20175 11725
	1    0    0    -1  
$EndComp
$Comp
L Device:C C22
U 1 1 5DF58114
P 19825 11725
F 0 "C22" H 19940 11771 50  0000 L CNN
F 1 "1uF" H 19940 11680 50  0000 L CNN
F 2 "Capacitor_SMD:C_0603_REFLOW" H 19863 11575 50  0001 C CNN
F 3 "~" H 19825 11725 50  0001 C CNN
	1    19825 11725
	1    0    0    -1  
$EndComp
Wire Wire Line
	19550 11425 19550 11500
Wire Wire Line
	20650 11500 20650 12075
Wire Wire Line
	19550 11500 19825 11500
Wire Wire Line
	20175 11575 20175 11500
Connection ~ 20175 11500
Wire Wire Line
	20175 11500 20650 11500
Wire Wire Line
	19825 11575 19825 11500
Connection ~ 19825 11500
Wire Wire Line
	19825 11500 20175 11500
$Comp
L RF_Module:RFM95W-868S2 U2
U 1 1 5DCC362B
P 20650 12575
F 0 "U2" H 20650 13256 50  0000 C CNN
F 1 "RFM95W-915S2" H 20650 13165 50  0000 C CNN
F 2 "RF:RFM95W" H 17350 14225 50  0001 C CNN
F 3 "https://www.hoperf.com/data/upload/portal/20181127/5bfcbea20e9ef.pdf" H 17350 14225 50  0001 C CNN
	1    20650 12575
	1    0    0    -1  
$EndComp
$Comp
L power:GND #PWR0177
U 1 1 5E096C14
P 19975 11975
F 0 "#PWR0177" H 19975 11725 50  0001 C CNN
F 1 "GND" H 19980 11802 50  0000 C CNN
F 2 "" H 19975 11975 50  0001 C CNN
F 3 "" H 19975 11975 50  0001 C CNN
	1    19975 11975
	1    0    0    -1  
$EndComp
Wire Wire Line
	19825 11875 19825 11925
Wire Wire Line
	19825 11925 19975 11925
Wire Wire Line
	19975 11925 19975 11975
Wire Wire Line
	19975 11925 20175 11925
Wire Wire Line
	20175 11925 20175 11875
Connection ~ 19975 11925
$EndSCHEMATC
