(export (version D)
  (design
    (source C:\Users\jens\Documents\smart-floating-lab-positiebepaling\KiCad\4_Modules\Main_PCB\main_pcb.sch)
    (date "17-11-2019 22:33:19")
    (tool "Eeschema (5.1.4)-1")
    (sheet (number 1) (name /) (tstamps /)
      (title_block
        (title)
        (company)
        (rev)
        (date)
        (source main_pcb.sch)
        (comment (number 1) (value ""))
        (comment (number 2) (value ""))
        (comment (number 3) (value ""))
        (comment (number 4) (value "")))))
  (components
    (comp (ref IC1)
      (value CAM-M8Q)
      (footprint CAM-M8Q:CAM-M8Q)
      (libsource (lib CAM-M8Q) (part CAM-M8Q) (description "Concurrent GNSS Antenna Modules"))
      (sheetpath (names /) (tstamps /))
      (tstamp 5DBF0462))
    (comp (ref R6)
      (value 220R)
      (footprint Resistor_SMD:R_0603_REFLOW)
      (datasheet ~)
      (libsource (lib Device) (part R) (description Resistor))
      (sheetpath (names /) (tstamps /))
      (tstamp 5DBF05B0))
    (comp (ref R7)
      (value 220R)
      (footprint Resistor_SMD:R_0603_REFLOW)
      (datasheet ~)
      (libsource (lib Device) (part R) (description Resistor))
      (sheetpath (names /) (tstamps /))
      (tstamp 5DBF14B1))
    (comp (ref FB2)
      (value Ferrite_Bead)
      (footprint Capacitor_SMD:C_0603_REFLOW)
      (datasheet ~)
      (libsource (lib Device) (part Ferrite_Bead) (description "Ferrite bead"))
      (sheetpath (names /) (tstamps /))
      (tstamp 5DBF1BF8))
    (comp (ref FB3)
      (value Ferrite_Bead)
      (footprint Capacitor_SMD:C_0603_REFLOW)
      (datasheet ~)
      (libsource (lib Device) (part Ferrite_Bead) (description "Ferrite bead"))
      (sheetpath (names /) (tstamps /))
      (tstamp 5DBF25B1))
    (comp (ref C3)
      (value DNP)
      (footprint Capacitor_SMD:C_0603_REFLOW)
      (datasheet ~)
      (libsource (lib Device) (part C) (description "Unpolarized capacitor"))
      (sheetpath (names /) (tstamps /))
      (tstamp 5DC03E6F))
    (comp (ref R8)
      (value 0R)
      (footprint Resistor_SMD:R_0603_REFLOW)
      (datasheet ~)
      (libsource (lib Device) (part R) (description Resistor))
      (sheetpath (names /) (tstamps /))
      (tstamp 5DC042ED))
    (comp (ref C4)
      (value DNP)
      (footprint Capacitor_SMD:C_0603_REFLOW)
      (datasheet ~)
      (libsource (lib Device) (part C) (description "Unpolarized capacitor"))
      (sheetpath (names /) (tstamps /))
      (tstamp 5DC045CA))
    (comp (ref J6)
      (value Conn_Coaxial)
      (footprint Connector_Coaxial:U.FL_Hirose_U.FL-R-SMT-1_Vertical)
      (datasheet " ~")
      (libsource (lib Connector) (part Conn_Coaxial) (description "coaxial connector (BNC, SMA, SMB, SMC, Cinch/RCA, ...)"))
      (sheetpath (names /) (tstamps /))
      (tstamp 5DC07D97))
    (comp (ref C1)
      (value 4.7uF)
      (footprint Capacitor_SMD:C_0603_REFLOW)
      (datasheet ~)
      (libsource (lib Device) (part C) (description "Unpolarized capacitor"))
      (sheetpath (names /) (tstamps /))
      (tstamp 5DC09637))
    (comp (ref BT1)
      (value Battery_Cell)
      (footprint Battery_Holders:CR2450_Clip)
      (datasheet ~)
      (libsource (lib Device) (part Battery_Cell) (description "Single-cell battery"))
      (sheetpath (names /) (tstamps /))
      (tstamp 5DC12246))
    (comp (ref C2)
      (value 100nF)
      (footprint Capacitor_SMD:C_0603_REFLOW)
      (datasheet ~)
      (libsource (lib Device) (part C) (description "Unpolarized capacitor"))
      (sheetpath (names /) (tstamps /))
      (tstamp 5DC12E6F))
    (comp (ref FB1)
      (value Ferrite_Bead)
      (footprint Capacitor_SMD:C_0603_REFLOW)
      (datasheet ~)
      (libsource (lib Device) (part Ferrite_Bead) (description "Ferrite bead"))
      (sheetpath (names /) (tstamps /))
      (tstamp 5DC1935B))
    (comp (ref J9)
      (value Conn_Coaxial)
      (footprint Connector:Conn_SMA_Coaxial)
      (datasheet " ~")
      (libsource (lib Connector) (part Conn_Coaxial) (description "coaxial connector (BNC, SMA, SMB, SMC, Cinch/RCA, ...)"))
      (sheetpath (names /) (tstamps /))
      (tstamp 5DC33705))
    (comp (ref SW1)
      (value SW_RESET)
      (footprint "Button_Switch_SMD:tactile switch")
      (datasheet ~)
      (libsource (lib Switch) (part SW_DIP_x01) (description "1x DIP Switch, Single Pole Single Throw (SPST) switch, small symbol"))
      (sheetpath (names /) (tstamps /))
      (tstamp 5DC0A596))
    (comp (ref R21)
      (value 10K)
      (footprint Resistor_SMD:R_0603_REFLOW)
      (datasheet ~)
      (libsource (lib Device) (part R) (description Resistor))
      (sheetpath (names /) (tstamps /))
      (tstamp 5DCD7D84))
    (comp (ref U1)
      (value LSM9DS1)
      (footprint Package_LGA:LGA-24L_3x3.5mm_P0.43mm)
      (datasheet http://www.st.com/content/ccc/resource/technical/document/datasheet/1e/3f/2a/d6/25/eb/48/46/DM00103319.pdf/files/DM00103319.pdf/jcr:content/translations/en.DM00103319.pdf)
      (libsource (lib Sensor_Motion) (part LSM9DS1) (description "I2C SPI 9 axis IMU accelerometer gyroscope magnetometer"))
      (sheetpath (names /) (tstamps /))
      (tstamp 5DCE711E))
    (comp (ref C11)
      (value 10n)
      (footprint Capacitor_SMD:C_0603_REFLOW)
      (datasheet ~)
      (libsource (lib Device) (part C) (description "Unpolarized capacitor"))
      (sheetpath (names /) (tstamps /))
      (tstamp 5DCF8A37))
    (comp (ref C13)
      (value 100nF)
      (footprint Capacitor_SMD:C_0603_REFLOW)
      (datasheet ~)
      (libsource (lib Device) (part C) (description "Unpolarized capacitor"))
      (sheetpath (names /) (tstamps /))
      (tstamp 5DCF919C))
    (comp (ref C16)
      (value 10uF)
      (footprint Capacitor_SMD:C_0603_REFLOW)
      (datasheet ~)
      (libsource (lib Device) (part C) (description "Unpolarized capacitor"))
      (sheetpath (names /) (tstamps /))
      (tstamp 5DD0B5B3))
    (comp (ref C14)
      (value 100nF)
      (footprint Capacitor_SMD:C_0603_REFLOW)
      (datasheet ~)
      (libsource (lib Device) (part C) (description "Unpolarized capacitor"))
      (sheetpath (names /) (tstamps /))
      (tstamp 5DD0B6AB))
    (comp (ref R19)
      (value 0R)
      (footprint Resistor_SMD:R_0603_REFLOW)
      (datasheet ~)
      (libsource (lib Device) (part R) (description Resistor))
      (sheetpath (names /) (tstamps /))
      (tstamp 5DD45C07))
    (comp (ref R17)
      (value 0R)
      (footprint Resistor_SMD:R_0603_REFLOW)
      (datasheet ~)
      (libsource (lib Device) (part R) (description Resistor))
      (sheetpath (names /) (tstamps /))
      (tstamp 5DD6F049))
    (comp (ref R18)
      (value 0R)
      (footprint Resistor_SMD:R_0603_REFLOW)
      (datasheet ~)
      (libsource (lib Device) (part R) (description Resistor))
      (sheetpath (names /) (tstamps /))
      (tstamp 5DD7655E))
    (comp (ref R10)
      (value 10K)
      (footprint Resistor_SMD:R_0603_REFLOW)
      (datasheet ~)
      (libsource (lib Device) (part R) (description Resistor))
      (sheetpath (names /) (tstamps /))
      (tstamp 5DDD3625))
    (comp (ref R5)
      (value 10K)
      (footprint Resistor_SMD:R_0603_REFLOW)
      (datasheet ~)
      (libsource (lib Device) (part R) (description Resistor))
      (sheetpath (names /) (tstamps /))
      (tstamp 5DDD3A3C))
    (comp (ref Q2)
      (value PMF370XN)
      (footprint Package_TO_SOT_SMD:SOT-323_SC-70)
      (datasheet ~)
      (libsource (lib Device) (part Q_NMOS_GSD) (description "N-MOSFET transistor, gate/source/drain"))
      (sheetpath (names /) (tstamps /))
      (tstamp 5DE07FB5))
    (comp (ref R9)
      (value 10K)
      (footprint Resistor_SMD:R_0603_REFLOW)
      (datasheet ~)
      (libsource (lib Device) (part R) (description Resistor))
      (sheetpath (names /) (tstamps /))
      (tstamp 5DE07FBB))
    (comp (ref R4)
      (value 10K)
      (footprint Resistor_SMD:R_0603_REFLOW)
      (datasheet ~)
      (libsource (lib Device) (part R) (description Resistor))
      (sheetpath (names /) (tstamps /))
      (tstamp 5DE07FC1))
    (comp (ref R3)
      (value 10K)
      (footprint Resistor_SMD:R_0603_REFLOW)
      (datasheet ~)
      (libsource (lib Device) (part R) (description Resistor))
      (sheetpath (names /) (tstamps /))
      (tstamp 5DE10959))
    (comp (ref R1)
      (value 10K)
      (footprint Resistor_SMD:R_0603_REFLOW)
      (datasheet ~)
      (libsource (lib Device) (part R) (description Resistor))
      (sheetpath (names /) (tstamps /))
      (tstamp 5DE1095F))
    (comp (ref J2)
      (value DS18B20)
      (footprint Connector_JST:JST_XH_B04B_3P)
      (datasheet ~)
      (libsource (lib Connector_Generic) (part Conn_01x03) (description "Generic connector, single row, 01x03, script generated (kicad-library-utils/schlib/autogen/connector/)"))
      (sheetpath (names /) (tstamps /))
      (tstamp 5DE2A67B))
    (comp (ref J4)
      (value JSN-SR04)
      (footprint Connector_JST:JST_XH_B04B_4P)
      (datasheet ~)
      (libsource (lib Connector_Generic) (part Conn_01x04) (description "Generic connector, single row, 01x04, script generated (kicad-library-utils/schlib/autogen/connector/)"))
      (sheetpath (names /) (tstamps /))
      (tstamp 5DE5DEC4))
    (comp (ref J8)
      (value ST_LINK)
      (footprint Connector_JST:STlink)
      (datasheet ~)
      (libsource (lib Connector_Generic) (part Conn_02x05_Odd_Even) (description "Generic connector, double row, 02x05, odd/even pin numbering scheme (row 1 odd numbers, row 2 even numbers), script generated (kicad-library-utils/schlib/autogen/connector/)"))
      (sheetpath (names /) (tstamps /))
      (tstamp 5DE89BC8))
    (comp (ref R22)
      (value 10K)
      (footprint Resistor_SMD:R_0603_REFLOW)
      (datasheet ~)
      (libsource (lib Device) (part R) (description Resistor))
      (sheetpath (names /) (tstamps /))
      (tstamp 5DCDD4AA))
    (comp (ref C18)
      (value 4.7uF)
      (footprint Capacitor_SMD:C_0603_REFLOW)
      (datasheet ~)
      (libsource (lib Device) (part C) (description "Unpolarized capacitor"))
      (sheetpath (names /) (tstamps /))
      (tstamp 5DD08C72))
    (comp (ref R20)
      (value 10K)
      (footprint Resistor_SMD:R_0603_REFLOW)
      (datasheet ~)
      (libsource (lib Device) (part R) (description Resistor))
      (sheetpath (names /) (tstamps /))
      (tstamp 5DD209D6))
    (comp (ref Y1)
      (value DNP)
      (footprint Crystal:Crystal_SMD_3215-2Pin_3.2x1.5mm)
      (datasheet ~)
      (libsource (lib Device) (part Crystal) (description "Two pin crystal"))
      (sheetpath (names /) (tstamps /))
      (tstamp 5DD7E108))
    (comp (ref R11)
      (value 2K2)
      (footprint Resistor_SMD:R_0603_REFLOW)
      (datasheet ~)
      (libsource (lib Device) (part R) (description Resistor))
      (sheetpath (names /) (tstamps /))
      (tstamp 5DD470FD))
    (comp (ref R12)
      (value 2K2)
      (footprint Resistor_SMD:R_0603_REFLOW)
      (datasheet ~)
      (libsource (lib Device) (part R) (description Resistor))
      (sheetpath (names /) (tstamps /))
      (tstamp 5DFE9149))
    (comp (ref D2)
      (value LED)
      (footprint LED_SMD:LED_0805_2012Metric)
      (datasheet ~)
      (libsource (lib Device) (part LED) (description "Light emitting diode"))
      (sheetpath (names /) (tstamps /))
      (tstamp 5DCF749F))
    (comp (ref R14)
      (value 2K2)
      (footprint Resistor_SMD:R_0603_REFLOW)
      (datasheet ~)
      (libsource (lib Device) (part R) (description Resistor))
      (sheetpath (names /) (tstamps /))
      (tstamp 5DCFA88C))
    (comp (ref D1)
      (value LED)
      (footprint LED_SMD:LED_0805_2012Metric)
      (datasheet ~)
      (libsource (lib Device) (part LED) (description "Light emitting diode"))
      (sheetpath (names /) (tstamps /))
      (tstamp 5DD3487D))
    (comp (ref R13)
      (value 2K2)
      (footprint Resistor_SMD:R_0603_REFLOW)
      (datasheet ~)
      (libsource (lib Device) (part R) (description Resistor))
      (sheetpath (names /) (tstamps /))
      (tstamp 5DD34889))
    (comp (ref D3)
      (value LED)
      (footprint LED_SMD:LED_0805_2012Metric)
      (datasheet ~)
      (libsource (lib Device) (part LED) (description "Light emitting diode"))
      (sheetpath (names /) (tstamps /))
      (tstamp 5DD5132E))
    (comp (ref R15)
      (value 2K2)
      (footprint Resistor_SMD:R_0603_REFLOW)
      (datasheet ~)
      (libsource (lib Device) (part R) (description Resistor))
      (sheetpath (names /) (tstamps /))
      (tstamp 5DD5133A))
    (comp (ref C9)
      (value 100nF)
      (footprint Capacitor_SMD:C_0603_REFLOW)
      (datasheet ~)
      (libsource (lib Device) (part C) (description "Unpolarized capacitor"))
      (sheetpath (names /) (tstamps /))
      (tstamp 5DE0FF84))
    (comp (ref C12)
      (value 1uF)
      (footprint Capacitor_SMD:C_0603_REFLOW)
      (datasheet ~)
      (libsource (lib Device) (part C) (description "Unpolarized capacitor"))
      (sheetpath (names /) (tstamps /))
      (tstamp 5DE10333))
    (comp (ref C6)
      (value 100nF)
      (footprint Capacitor_SMD:C_0603_REFLOW)
      (datasheet ~)
      (libsource (lib Device) (part C) (description "Unpolarized capacitor"))
      (sheetpath (names /) (tstamps /))
      (tstamp 5DE8FBB3))
    (comp (ref C7)
      (value 10uF)
      (footprint Capacitor_SMD:C_0603_REFLOW)
      (datasheet ~)
      (libsource (lib Device) (part C) (description "Unpolarized capacitor"))
      (sheetpath (names /) (tstamps /))
      (tstamp 5DE91D59))
    (comp (ref C5)
      (value 100nF)
      (footprint Capacitor_SMD:C_0603_REFLOW)
      (datasheet ~)
      (libsource (lib Device) (part C) (description "Unpolarized capacitor"))
      (sheetpath (names /) (tstamps /))
      (tstamp 5DEE9A1F))
    (comp (ref C15)
      (value 100nF)
      (footprint Capacitor_SMD:C_0603_REFLOW)
      (datasheet ~)
      (libsource (lib Device) (part C) (description "Unpolarized capacitor"))
      (sheetpath (names /) (tstamps /))
      (tstamp 5DF47F26))
    (comp (ref C10)
      (value 100nF)
      (footprint Capacitor_SMD:C_0603_REFLOW)
      (datasheet ~)
      (libsource (lib Device) (part C) (description "Unpolarized capacitor"))
      (sheetpath (names /) (tstamps /))
      (tstamp 5DF5AAF5))
    (comp (ref C8)
      (value 100nF)
      (footprint Capacitor_SMD:C_0603_REFLOW)
      (datasheet ~)
      (libsource (lib Device) (part C) (description "Unpolarized capacitor"))
      (sheetpath (names /) (tstamps /))
      (tstamp 5DF6E4D0))
    (comp (ref TP10)
      (value TestPoint)
      (footprint "TestPoint:TestPoint_Pad_D2.0mm_(pogo)")
      (datasheet ~)
      (libsource (lib Connector) (part TestPoint) (description "test point"))
      (sheetpath (names /) (tstamps /))
      (tstamp 5E0A92C3))
    (comp (ref J1)
      (value Aandrijving)
      (footprint Connector_JST:JST_XH_B04B_3P)
      (datasheet ~)
      (libsource (lib Connector_Generic) (part Conn_01x03) (description "Generic connector, single row, 01x03, script generated (kicad-library-utils/schlib/autogen/connector/)"))
      (sheetpath (names /) (tstamps /))
      (tstamp 5DCFCF82))
    (comp (ref J3)
      (value Voeding)
      (footprint Connector_JST:JST_XH_B04B_3P)
      (datasheet ~)
      (libsource (lib Connector_Generic) (part Conn_01x03) (description "Generic connector, single row, 01x03, script generated (kicad-library-utils/schlib/autogen/connector/)"))
      (sheetpath (names /) (tstamps /))
      (tstamp 5DD189CB))
    (comp (ref J5)
      (value Kortsluit)
      (footprint Connector_JST:JST_XH_B04B_3P)
      (datasheet ~)
      (libsource (lib Connector_Generic) (part Conn_01x03) (description "Generic connector, single row, 01x03, script generated (kicad-library-utils/schlib/autogen/connector/)"))
      (sheetpath (names /) (tstamps /))
      (tstamp 5DD5E658))
    (comp (ref J7)
      (value Unused)
      (footprint Connector_PinHeader_2.54mm:PinHeader_2x05_P2.54mm_Vertical)
      (datasheet ~)
      (libsource (lib Connector_Generic) (part Conn_02x05_Counter_Clockwise) (description "Generic connector, double row, 02x05, counter clockwise pin numbering scheme (similar to DIP packge numbering), script generated (kicad-library-utils/schlib/autogen/connector/)"))
      (sheetpath (names /) (tstamps /))
      (tstamp 5DE12033))
    (comp (ref TP22)
      (value TestPoint)
      (footprint "TestPoint:TestPoint_Pad_D2.0mm_(pogo)")
      (datasheet ~)
      (libsource (lib Connector) (part TestPoint) (description "test point"))
      (sheetpath (names /) (tstamps /))
      (tstamp 5E0CB7D0))
    (comp (ref TP23)
      (value TestPoint)
      (footprint "TestPoint:TestPoint_Pad_D2.0mm_(pogo)")
      (datasheet ~)
      (libsource (lib Connector) (part TestPoint) (description "test point"))
      (sheetpath (names /) (tstamps /))
      (tstamp 5E0CC16A))
    (comp (ref TP24)
      (value TestPoint)
      (footprint "TestPoint:TestPoint_Pad_D2.0mm_(pogo)")
      (datasheet ~)
      (libsource (lib Connector) (part TestPoint) (description "test point"))
      (sheetpath (names /) (tstamps /))
      (tstamp 5E0CC476))
    (comp (ref TP25)
      (value TestPoint)
      (footprint "TestPoint:TestPoint_Pad_D2.0mm_(pogo)")
      (datasheet ~)
      (libsource (lib Connector) (part TestPoint) (description "test point"))
      (sheetpath (names /) (tstamps /))
      (tstamp 5E0CD077))
    (comp (ref TP9)
      (value TestPoint)
      (footprint "TestPoint:TestPoint_Pad_D2.0mm_(pogo)")
      (datasheet ~)
      (libsource (lib Connector) (part TestPoint) (description "test point"))
      (sheetpath (names /) (tstamps /))
      (tstamp 5E0CDD8A))
    (comp (ref TP12)
      (value TestPoint)
      (footprint "TestPoint:TestPoint_Pad_D2.0mm_(pogo)")
      (datasheet ~)
      (libsource (lib Connector) (part TestPoint) (description "test point"))
      (sheetpath (names /) (tstamps /))
      (tstamp 5E0D03D3))
    (comp (ref TP11)
      (value TestPoint)
      (footprint "TestPoint:TestPoint_Pad_D2.0mm_(pogo)")
      (datasheet ~)
      (libsource (lib Connector) (part TestPoint) (description "test point"))
      (sheetpath (names /) (tstamps /))
      (tstamp 5E0D03D9))
    (comp (ref TP13)
      (value TestPoint)
      (footprint "TestPoint:TestPoint_Pad_D2.0mm_(pogo)")
      (datasheet ~)
      (libsource (lib Connector) (part TestPoint) (description "test point"))
      (sheetpath (names /) (tstamps /))
      (tstamp 5E101102))
    (comp (ref TP2)
      (value TestPoint)
      (footprint "TestPoint:TestPoint_Pad_D2.0mm_(pogo)")
      (datasheet ~)
      (libsource (lib Connector) (part TestPoint) (description "test point"))
      (sheetpath (names /) (tstamps /))
      (tstamp 5E102244))
    (comp (ref TP1)
      (value TestPoint)
      (footprint "TestPoint:TestPoint_Pad_D2.0mm_(pogo)")
      (datasheet ~)
      (libsource (lib Connector) (part TestPoint) (description "test point"))
      (sheetpath (names /) (tstamps /))
      (tstamp 5E10224A))
    (comp (ref TP3)
      (value TestPoint)
      (footprint "TestPoint:TestPoint_Pad_D2.0mm_(pogo)")
      (datasheet ~)
      (libsource (lib Connector) (part TestPoint) (description "test point"))
      (sheetpath (names /) (tstamps /))
      (tstamp 5E102250))
    (comp (ref TP5)
      (value TestPoint)
      (footprint "TestPoint:TestPoint_Pad_D2.0mm_(pogo)")
      (datasheet ~)
      (libsource (lib Connector) (part TestPoint) (description "test point"))
      (sheetpath (names /) (tstamps /))
      (tstamp 5E11981E))
    (comp (ref TP4)
      (value TestPoint)
      (footprint "TestPoint:TestPoint_Pad_D2.0mm_(pogo)")
      (datasheet ~)
      (libsource (lib Connector) (part TestPoint) (description "test point"))
      (sheetpath (names /) (tstamps /))
      (tstamp 5E119824))
    (comp (ref TP6)
      (value TestPoint)
      (footprint "TestPoint:TestPoint_Pad_D2.0mm_(pogo)")
      (datasheet ~)
      (libsource (lib Connector) (part TestPoint) (description "test point"))
      (sheetpath (names /) (tstamps /))
      (tstamp 5E11982A))
    (comp (ref TP7)
      (value TestPoint)
      (footprint "TestPoint:TestPoint_Pad_D2.0mm_(pogo)")
      (datasheet ~)
      (libsource (lib Connector) (part TestPoint) (description "test point"))
      (sheetpath (names /) (tstamps /))
      (tstamp 5E18B326))
    (comp (ref Q3)
      (value PMF370XN)
      (footprint Package_TO_SOT_SMD:SOT-323_SC-70)
      (datasheet ~)
      (libsource (lib Device) (part Q_NMOS_GSD) (description "N-MOSFET transistor, gate/source/drain"))
      (sheetpath (names /) (tstamps /))
      (tstamp 5E3EE7AD))
    (comp (ref Q1)
      (value PMF370XN)
      (footprint Package_TO_SOT_SMD:SOT-323_SC-70)
      (datasheet ~)
      (libsource (lib Device) (part Q_NMOS_GSD) (description "N-MOSFET transistor, gate/source/drain"))
      (sheetpath (names /) (tstamps /))
      (tstamp 5E3EEF02))
    (comp (ref TP8)
      (value TestPoint)
      (footprint "TestPoint:TestPoint_Pad_D2.0mm_(pogo)")
      (datasheet ~)
      (libsource (lib Connector) (part TestPoint) (description "test point"))
      (sheetpath (names /) (tstamps /))
      (tstamp 5E18B32C))
    (comp (ref TP21)
      (value TestPoint)
      (footprint "TestPoint:TestPoint_Pad_D2.0mm_(pogo)")
      (datasheet ~)
      (libsource (lib Connector) (part TestPoint) (description "test point"))
      (sheetpath (names /) (tstamps /))
      (tstamp 5E15DB4C))
    (comp (ref TP20)
      (value TestPoint)
      (footprint "TestPoint:TestPoint_Pad_D2.0mm_(pogo)")
      (datasheet ~)
      (libsource (lib Connector) (part TestPoint) (description "test point"))
      (sheetpath (names /) (tstamps /))
      (tstamp 5E15DB46))
    (comp (ref TP19)
      (value TestPoint)
      (footprint "TestPoint:TestPoint_Pad_D2.0mm_(pogo)")
      (datasheet ~)
      (libsource (lib Connector) (part TestPoint) (description "test point"))
      (sheetpath (names /) (tstamps /))
      (tstamp 5E14693D))
    (comp (ref TP17)
      (value TestPoint)
      (footprint "TestPoint:TestPoint_Pad_D2.0mm_(pogo)")
      (datasheet ~)
      (libsource (lib Connector) (part TestPoint) (description "test point"))
      (sheetpath (names /) (tstamps /))
      (tstamp 5E146937))
    (comp (ref TP18)
      (value TestPoint)
      (footprint "TestPoint:TestPoint_Pad_D2.0mm_(pogo)")
      (datasheet ~)
      (libsource (lib Connector) (part TestPoint) (description "test point"))
      (sheetpath (names /) (tstamps /))
      (tstamp 5E146931))
    (comp (ref TP16)
      (value TestPoint)
      (footprint "TestPoint:TestPoint_Pad_D2.0mm_(pogo)")
      (datasheet ~)
      (libsource (lib Connector) (part TestPoint) (description "test point"))
      (sheetpath (names /) (tstamps /))
      (tstamp 5E1300FF))
    (comp (ref TP14)
      (value TestPoint)
      (footprint "TestPoint:TestPoint_Pad_D2.0mm_(pogo)")
      (datasheet ~)
      (libsource (lib Connector) (part TestPoint) (description "test point"))
      (sheetpath (names /) (tstamps /))
      (tstamp 5E1300F9))
    (comp (ref TP15)
      (value TestPoint)
      (footprint "TestPoint:TestPoint_Pad_D2.0mm_(pogo)")
      (datasheet ~)
      (libsource (lib Connector) (part TestPoint) (description "test point"))
      (sheetpath (names /) (tstamps /))
      (tstamp 5E1300F3))
    (comp (ref R2)
      (value 4K7)
      (footprint Resistor_SMD:R_0603_REFLOW)
      (datasheet ~)
      (libsource (lib Device) (part R) (description Resistor))
      (sheetpath (names /) (tstamps /))
      (tstamp 5E897083))
    (comp (ref C17)
      (value DNP)
      (footprint Capacitor_SMD:C_0603_REFLOW)
      (datasheet ~)
      (libsource (lib Device) (part C) (description "Unpolarized capacitor"))
      (sheetpath (names /) (tstamps /))
      (tstamp 5EBE525E))
    (comp (ref C19)
      (value DNP)
      (footprint Capacitor_SMD:C_0603_REFLOW)
      (datasheet ~)
      (libsource (lib Device) (part C) (description "Unpolarized capacitor"))
      (sheetpath (names /) (tstamps /))
      (tstamp 5EBE6635))
    (comp (ref J10)
      (value GNSS_DEBUG)
      (footprint Connector_PinHeader_2.54mm:PinHeader_1x02_P2.54mm_Vertical)
      (datasheet ~)
      (libsource (lib Connector_Generic) (part Conn_01x02) (description "Generic connector, single row, 01x02, script generated (kicad-library-utils/schlib/autogen/connector/)"))
      (sheetpath (names /) (tstamps /))
      (tstamp 5EDE9A68))
    (comp (ref TP27)
      (value TestPoint)
      (footprint "TestPoint:TestPoint_Pad_D2.0mm_(pogo)")
      (datasheet ~)
      (libsource (lib Connector) (part TestPoint) (description "test point"))
      (sheetpath (names /) (tstamps /))
      (tstamp 5EF07BC2))
    (comp (ref R24)
      (value 10K)
      (footprint Resistor_SMD:R_0603_REFLOW)
      (datasheet ~)
      (libsource (lib Device) (part R) (description Resistor))
      (sheetpath (names /) (tstamps /))
      (tstamp 5EF095E1))
    (comp (ref R26)
      (value 2K2)
      (footprint Resistor_SMD:R_0603_REFLOW)
      (datasheet ~)
      (libsource (lib Device) (part R) (description Resistor))
      (sheetpath (names /) (tstamps /))
      (tstamp 5EF862D4))
    (comp (ref R25)
      (value 2K2)
      (footprint Resistor_SMD:R_0603_REFLOW)
      (datasheet ~)
      (libsource (lib Device) (part R) (description Resistor))
      (sheetpath (names /) (tstamps /))
      (tstamp 5EF86F58))
    (comp (ref D5)
      (value LED)
      (footprint LED_SMD:LED_0805_2012Metric)
      (datasheet ~)
      (libsource (lib Device) (part LED) (description "Light emitting diode"))
      (sheetpath (names /) (tstamps /))
      (tstamp 5F13A643))
    (comp (ref R23)
      (value 2K2)
      (footprint Resistor_SMD:R_0603_REFLOW)
      (datasheet ~)
      (libsource (lib Device) (part R) (description Resistor))
      (sheetpath (names /) (tstamps /))
      (tstamp 5F13A64F))
    (comp (ref R16)
      (value 2K2)
      (footprint Resistor_SMD:R_0603_REFLOW)
      (datasheet ~)
      (libsource (lib Device) (part R) (description Resistor))
      (sheetpath (names /) (tstamps /))
      (tstamp 5DD5FAF4))
    (comp (ref D4)
      (value LED)
      (footprint LED_SMD:LED_0805_2012Metric)
      (datasheet ~)
      (libsource (lib Device) (part LED) (description "Light emitting diode"))
      (sheetpath (names /) (tstamps /))
      (tstamp 5DD5FAE8))
    (comp (ref R27)
      (value 2K2)
      (footprint Resistor_SMD:R_0603_REFLOW)
      (datasheet ~)
      (libsource (lib Device) (part R) (description Resistor))
      (sheetpath (names /) (tstamps /))
      (tstamp 5F3AC8AE))
    (comp (ref D6)
      (value LED)
      (footprint LED_SMD:LED_0805_2012Metric)
      (datasheet ~)
      (libsource (lib Device) (part LED) (description "Light emitting diode"))
      (sheetpath (names /) (tstamps /))
      (tstamp 5F3AC8B4))
    (comp (ref J12)
      (value UART_DEBUG)
      (footprint Connector_PinHeader_2.54mm:PinHeader_1x02_P2.54mm_Vertical)
      (datasheet ~)
      (libsource (lib Connector_Generic) (part Conn_01x02) (description "Generic connector, single row, 01x02, script generated (kicad-library-utils/schlib/autogen/connector/)"))
      (sheetpath (names /) (tstamps /))
      (tstamp 5EDB5A15))
    (comp (ref J11)
      (value I2C)
      (footprint Connector_PinHeader_2.54mm:PinHeader_1x03_P2.54mm_Vertical)
      (datasheet ~)
      (libsource (lib Connector_Generic) (part Conn_01x03) (description "Generic connector, single row, 01x03, script generated (kicad-library-utils/schlib/autogen/connector/)"))
      (sheetpath (names /) (tstamps /))
      (tstamp 5F66BBA6))
    (comp (ref J13)
      (value SPI)
      (footprint Connector_PinHeader_2.54mm:PinHeader_1x05_P2.54mm_Vertical)
      (datasheet ~)
      (libsource (lib Connector_Generic) (part Conn_01x05) (description "Generic connector, single row, 01x05, script generated (kicad-library-utils/schlib/autogen/connector/)"))
      (sheetpath (names /) (tstamps /))
      (tstamp 5F66EBC8))
    (comp (ref TP37)
      (value TestPoint)
      (footprint "TestPoint:TestPoint_Pad_D2.0mm_(pogo)")
      (datasheet ~)
      (libsource (lib Connector) (part TestPoint) (description "test point"))
      (sheetpath (names /) (tstamps /))
      (tstamp 5F6E3284))
    (comp (ref TP35)
      (value TestPoint)
      (footprint "TestPoint:TestPoint_Pad_D2.0mm_(pogo)")
      (datasheet ~)
      (libsource (lib Connector) (part TestPoint) (description "test point"))
      (sheetpath (names /) (tstamps /))
      (tstamp 5F6E328A))
    (comp (ref TP36)
      (value TestPoint)
      (footprint "TestPoint:TestPoint_Pad_D2.0mm_(pogo)")
      (datasheet ~)
      (libsource (lib Connector) (part TestPoint) (description "test point"))
      (sheetpath (names /) (tstamps /))
      (tstamp 5F6E3290))
    (comp (ref TP30)
      (value TestPoint)
      (footprint "TestPoint:TestPoint_Pad_D2.0mm_(pogo)")
      (datasheet ~)
      (libsource (lib Connector) (part TestPoint) (description "test point"))
      (sheetpath (names /) (tstamps /))
      (tstamp 5F6FE257))
    (comp (ref TP31)
      (value TestPoint)
      (footprint "TestPoint:TestPoint_Pad_D2.0mm_(pogo)")
      (datasheet ~)
      (libsource (lib Connector) (part TestPoint) (description "test point"))
      (sheetpath (names /) (tstamps /))
      (tstamp 5F6FE25D))
    (comp (ref TP26)
      (value TestPoint)
      (footprint "TestPoint:TestPoint_Pad_D2.0mm_(pogo)")
      (datasheet ~)
      (libsource (lib Connector) (part TestPoint) (description "test point"))
      (sheetpath (names /) (tstamps /))
      (tstamp 5F74060A))
    (comp (ref TP41)
      (value TestPoint)
      (footprint "TestPoint:TestPoint_Pad_D2.0mm_(pogo)")
      (datasheet ~)
      (libsource (lib Connector) (part TestPoint) (description "test point"))
      (sheetpath (names /) (tstamps /))
      (tstamp 5F75DE57))
    (comp (ref TP32)
      (value TestPoint)
      (footprint "TestPoint:TestPoint_Pad_D2.0mm_(pogo)")
      (datasheet ~)
      (libsource (lib Connector) (part TestPoint) (description "test point"))
      (sheetpath (names /) (tstamps /))
      (tstamp 5F75DE5D))
    (comp (ref TP29)
      (value TestPoint)
      (footprint "TestPoint:TestPoint_Pad_D2.0mm_(pogo)")
      (datasheet ~)
      (libsource (lib Connector) (part TestPoint) (description "test point"))
      (sheetpath (names /) (tstamps /))
      (tstamp 5F7B11BA))
    (comp (ref TP28)
      (value TestPoint)
      (footprint "TestPoint:TestPoint_Pad_D2.0mm_(pogo)")
      (datasheet ~)
      (libsource (lib Connector) (part TestPoint) (description "test point"))
      (sheetpath (names /) (tstamps /))
      (tstamp 5F7CC3A1))
    (comp (ref TP33)
      (value TestPoint)
      (footprint "TestPoint:TestPoint_Pad_D2.0mm_(pogo)")
      (datasheet ~)
      (libsource (lib Connector) (part TestPoint) (description "test point"))
      (sheetpath (names /) (tstamps /))
      (tstamp 5F81EE0A))
    (comp (ref TP43)
      (value TestPoint)
      (footprint "TestPoint:TestPoint_Pad_D2.0mm_(pogo)")
      (datasheet ~)
      (libsource (lib Connector) (part TestPoint) (description "test point"))
      (sheetpath (names /) (tstamps /))
      (tstamp 5F8AF173))
    (comp (ref TP42)
      (value TestPoint)
      (footprint "TestPoint:TestPoint_Pad_D2.0mm_(pogo)")
      (datasheet ~)
      (libsource (lib Connector) (part TestPoint) (description "test point"))
      (sheetpath (names /) (tstamps /))
      (tstamp 5F8AF17F))
    (comp (ref TP44)
      (value TestPoint)
      (footprint "TestPoint:TestPoint_Pad_D2.0mm_(pogo)")
      (datasheet ~)
      (libsource (lib Connector) (part TestPoint) (description "test point"))
      (sheetpath (names /) (tstamps /))
      (tstamp 5F901D76))
    (comp (ref TP45)
      (value TestPoint)
      (footprint "TestPoint:TestPoint_Pad_D2.0mm_(pogo)")
      (datasheet ~)
      (libsource (lib Connector) (part TestPoint) (description "test point"))
      (sheetpath (names /) (tstamps /))
      (tstamp 5F93A8D8))
    (comp (ref TP46)
      (value TestPoint)
      (footprint "TestPoint:TestPoint_Pad_D2.0mm_(pogo)")
      (datasheet ~)
      (libsource (lib Connector) (part TestPoint) (description "test point"))
      (sheetpath (names /) (tstamps /))
      (tstamp 5F93A8E4))
    (comp (ref C21)
      (value 100nF)
      (footprint Capacitor_SMD:C_0603_REFLOW)
      (datasheet ~)
      (libsource (lib Device) (part C) (description "Unpolarized capacitor"))
      (sheetpath (names /) (tstamps /))
      (tstamp 5DD8B4E2))
    (comp (ref C20)
      (value 100nF)
      (footprint Capacitor_SMD:C_0603_REFLOW)
      (datasheet ~)
      (libsource (lib Device) (part C) (description "Unpolarized capacitor"))
      (sheetpath (names /) (tstamps /))
      (tstamp 5DD8C38B))
    (comp (ref IC2)
      (value STM32F410RBT6)
      (footprint STM32F410RBT6:QFP50P1200X1200X160-64N)
      (datasheet https://componentsearchengine.com/Datasheets/1/STM32F410RBT6.pdf)
      (fields
        (field (name Description) "STMicroelectronics STM32F410RBT6, 32bit ARM Cortex M4 MCU, 100MHz, 128 kB Flash, 64-Pin LQFP")
        (field (name Height) 1.6)
        (field (name Manufacturer_Name) STMicroelectronics)
        (field (name Manufacturer_Part_Number) STM32F410RBT6)
        (field (name "Mouser Part Number") 511-STM32F410RBT6)
        (field (name "Mouser Price/Stock") https://www.mouser.com/Search/Refine.aspx?Keyword=511-STM32F410RBT6))
      (libsource (lib STM32F410RBT6) (part STM32F410RBT6) (description "STMicroelectronics STM32F410RBT6, 32bit ARM Cortex M4 MCU, 100MHz, 128 kB Flash, 64-Pin LQFP"))
      (sheetpath (names /) (tstamps /))
      (tstamp 5DCC32A4))
    (comp (ref FID1)
      (value Fiducial)
      (footprint Fiducial:Fiducial_DUAL_0.5mm_Mask1.5mm)
      (datasheet ~)
      (libsource (lib Mechanical) (part Fiducial) (description "Fiducial Marker"))
      (sheetpath (names /) (tstamps /))
      (tstamp 5DF18811))
    (comp (ref FID2)
      (value Fiducial)
      (footprint Fiducial:Fiducial_DUAL_0.5mm_Mask1.5mm)
      (datasheet ~)
      (libsource (lib Mechanical) (part Fiducial) (description "Fiducial Marker"))
      (sheetpath (names /) (tstamps /))
      (tstamp 5DF198E4))
    (comp (ref FID3)
      (value Fiducial)
      (footprint Fiducial:Fiducial_DUAL_0.5mm_Mask1.5mm)
      (datasheet ~)
      (libsource (lib Mechanical) (part Fiducial) (description "Fiducial Marker"))
      (sheetpath (names /) (tstamps /))
      (tstamp 5DF19ABD))
    (comp (ref TP50)
      (value TestPoint)
      (footprint "TestPoint:TestPoint_Pad_D2.0mm_(pogo)")
      (datasheet ~)
      (libsource (lib Connector) (part TestPoint) (description "test point"))
      (sheetpath (names /) (tstamps /))
      (tstamp 5DF65FA5))
    (comp (ref TP48)
      (value TestPoint)
      (footprint "TestPoint:TestPoint_Pad_D2.0mm_(pogo)")
      (datasheet ~)
      (libsource (lib Connector) (part TestPoint) (description "test point"))
      (sheetpath (names /) (tstamps /))
      (tstamp 5DF65FAB))
    (comp (ref TP49)
      (value TestPoint)
      (footprint "TestPoint:TestPoint_Pad_D2.0mm_(pogo)")
      (datasheet ~)
      (libsource (lib Connector) (part TestPoint) (description "test point"))
      (sheetpath (names /) (tstamps /))
      (tstamp 5DF65FB1))
    (comp (ref TP40)
      (value TestPoint)
      (footprint "TestPoint:TestPoint_Pad_D2.0mm_(pogo)")
      (datasheet ~)
      (libsource (lib Connector) (part TestPoint) (description "test point"))
      (sheetpath (names /) (tstamps /))
      (tstamp 5DF65FB7))
    (comp (ref TP47)
      (value TestPoint)
      (footprint "TestPoint:TestPoint_Pad_D2.0mm_(pogo)")
      (datasheet ~)
      (libsource (lib Connector) (part TestPoint) (description "test point"))
      (sheetpath (names /) (tstamps /))
      (tstamp 5DF65FBD))
    (comp (ref TP51)
      (value TestPoint)
      (footprint "TestPoint:TestPoint_Pad_D2.0mm_(pogo)")
      (datasheet ~)
      (libsource (lib Connector) (part TestPoint) (description "test point"))
      (sheetpath (names /) (tstamps /))
      (tstamp 5DFD8365))
    (comp (ref H1)
      (value MountingHole)
      (footprint MountingHole:MountingHole_3.2_mm)
      (datasheet ~)
      (libsource (lib Mechanical) (part MountingHole) (description "Mounting Hole without connection"))
      (sheetpath (names /) (tstamps /))
      (tstamp 5DD7C982))
    (comp (ref H2)
      (value MountingHole)
      (footprint MountingHole:MountingHole_3.2_mm)
      (datasheet ~)
      (libsource (lib Mechanical) (part MountingHole) (description "Mounting Hole without connection"))
      (sheetpath (names /) (tstamps /))
      (tstamp 5DD7DEF0))
    (comp (ref H3)
      (value MountingHole)
      (footprint MountingHole:MountingHole_3.2_mm)
      (datasheet ~)
      (libsource (lib Mechanical) (part MountingHole) (description "Mounting Hole without connection"))
      (sheetpath (names /) (tstamps /))
      (tstamp 5DD7E10C))
    (comp (ref H4)
      (value MountingHole)
      (footprint MountingHole:MountingHole_3.2_mm)
      (datasheet ~)
      (libsource (lib Mechanical) (part MountingHole) (description "Mounting Hole without connection"))
      (sheetpath (names /) (tstamps /))
      (tstamp 5DD7E280))
    (comp (ref C23)
      (value 100nF)
      (footprint Capacitor_SMD:C_0603_REFLOW)
      (datasheet ~)
      (libsource (lib Device) (part C) (description "Unpolarized capacitor"))
      (sheetpath (names /) (tstamps /))
      (tstamp 5DF5793C))
    (comp (ref C22)
      (value 1uF)
      (footprint Capacitor_SMD:C_0603_REFLOW)
      (datasheet ~)
      (libsource (lib Device) (part C) (description "Unpolarized capacitor"))
      (sheetpath (names /) (tstamps /))
      (tstamp 5DF58114))
    (comp (ref U2)
      (value RFM95W-915S2)
      (footprint RF:RFM95W)
      (datasheet https://www.hoperf.com/data/upload/portal/20181127/5bfcbea20e9ef.pdf)
      (libsource (lib RF_Module) (part RFM95W-868S2) (description "Low power long range transceiver module, SPI and parallel interface, 868 MHz, spreading factor 6 to12, bandwith 7.8 to 500kHz, -111 to -148 dBm, SMD-16, DIP-16"))
      (sheetpath (names /) (tstamps /))
      (tstamp 5DCC362B)))
  (libparts
    (libpart (lib CAM-M8Q) (part CAM-M8Q)
      (description "Concurrent GNSS Antenna Modules")
      (docs https://www.u-blox.com/sites/default/files/CAM-M8-FW3_DataSheet_%28UBX-15031574%29.pdf)
      (fields
        (field (name Reference) IC)
        (field (name Value) CAM-M8Q)
        (field (name Footprint) CAM-M8Q)
        (field (name Datasheet) https://www.u-blox.com/sites/default/files/CAM-M8-FW3_DataSheet_%28UBX-15031574%29.pdf)
        (field (name Description) "Concurrent GNSS Antenna Modules")
        (field (name Manufacturer_Name) U-Blox)
        (field (name Manufacturer_Part_Number) CAM-M8Q))
      (pins
        (pin (num 1) (name VCC_IO) (type unspc))
        (pin (num 2) (name RESERVED_1) (type unspc))
        (pin (num 3) (name SDA_/_SPI_CS_N) (type unspc))
        (pin (num 4) (name GND_1) (type unspc))
        (pin (num 5) (name GND_2) (type unspc))
        (pin (num 6) (name SCL_/_SPI_CLK) (type unspc))
        (pin (num 7) (name EXTINT) (type unspc))
        (pin (num 8) (name V_BCKP) (type unspc))
        (pin (num 9) (name VCC) (type unspc))
        (pin (num 10) (name GND_3) (type unspc))
        (pin (num 11) (name GND_4) (type unspc))
        (pin (num 12) (name GND_5) (type unspc))
        (pin (num 13) (name GND_6) (type unspc))
        (pin (num 14) (name GND_7) (type unspc))
        (pin (num 15) (name GND_8) (type unspc))
        (pin (num 16) (name RF_OUT) (type unspc))
        (pin (num 17) (name RF_IN) (type unspc))
        (pin (num 18) (name GND_9) (type unspc))
        (pin (num 19) (name GND_10) (type unspc))
        (pin (num 20) (name D_SEL) (type unspc))
        (pin (num 21) (name GND_11) (type unspc))
        (pin (num 22) (name GND_12) (type unspc))
        (pin (num 23) (name RESET_N) (type unspc))
        (pin (num 24) (name SAFEBOOT_N) (type unspc))
        (pin (num 25) (name TXD_/_SPI_MISO) (type unspc))
        (pin (num 26) (name RXD_/_SPI_MOSI) (type unspc))
        (pin (num 27) (name GND_13) (type unspc))
        (pin (num 28) (name RESERVED_2) (type unspc))
        (pin (num 29) (name TIMEPULSE) (type unspc))
        (pin (num 30) (name LNA_EN) (type unspc))
        (pin (num 31) (name GND_14) (type unspc))))
    (libpart (lib Connector) (part Conn_Coaxial)
      (description "coaxial connector (BNC, SMA, SMB, SMC, Cinch/RCA, ...)")
      (docs " ~")
      (footprints
        (fp *BNC*)
        (fp *SMA*)
        (fp *SMB*)
        (fp *SMC*)
        (fp *Cinch*))
      (fields
        (field (name Reference) J)
        (field (name Value) Conn_Coaxial))
      (pins
        (pin (num 1) (name In) (type passive))
        (pin (num 2) (name Ext) (type passive))))
    (libpart (lib Connector) (part TestPoint)
      (description "test point")
      (docs ~)
      (footprints
        (fp Pin*)
        (fp Test*))
      (fields
        (field (name Reference) TP)
        (field (name Value) TestPoint))
      (pins
        (pin (num 1) (name 1) (type passive))))
    (libpart (lib Connector_Generic) (part Conn_01x02)
      (description "Generic connector, single row, 01x02, script generated (kicad-library-utils/schlib/autogen/connector/)")
      (docs ~)
      (footprints
        (fp Connector*:*_1x??_*))
      (fields
        (field (name Reference) J)
        (field (name Value) Conn_01x02))
      (pins
        (pin (num 1) (name Pin_1) (type passive))
        (pin (num 2) (name Pin_2) (type passive))))
    (libpart (lib Connector_Generic) (part Conn_01x03)
      (description "Generic connector, single row, 01x03, script generated (kicad-library-utils/schlib/autogen/connector/)")
      (docs ~)
      (footprints
        (fp Connector*:*_1x??_*))
      (fields
        (field (name Reference) J)
        (field (name Value) Conn_01x03))
      (pins
        (pin (num 1) (name Pin_1) (type passive))
        (pin (num 2) (name Pin_2) (type passive))
        (pin (num 3) (name Pin_3) (type passive))))
    (libpart (lib Connector_Generic) (part Conn_01x04)
      (description "Generic connector, single row, 01x04, script generated (kicad-library-utils/schlib/autogen/connector/)")
      (docs ~)
      (footprints
        (fp Connector*:*_1x??_*))
      (fields
        (field (name Reference) J)
        (field (name Value) Conn_01x04))
      (pins
        (pin (num 1) (name Pin_1) (type passive))
        (pin (num 2) (name Pin_2) (type passive))
        (pin (num 3) (name Pin_3) (type passive))
        (pin (num 4) (name Pin_4) (type passive))))
    (libpart (lib Connector_Generic) (part Conn_01x05)
      (description "Generic connector, single row, 01x05, script generated (kicad-library-utils/schlib/autogen/connector/)")
      (docs ~)
      (footprints
        (fp Connector*:*_1x??_*))
      (fields
        (field (name Reference) J)
        (field (name Value) Conn_01x05))
      (pins
        (pin (num 1) (name Pin_1) (type passive))
        (pin (num 2) (name Pin_2) (type passive))
        (pin (num 3) (name Pin_3) (type passive))
        (pin (num 4) (name Pin_4) (type passive))
        (pin (num 5) (name Pin_5) (type passive))))
    (libpart (lib Connector_Generic) (part Conn_02x05_Counter_Clockwise)
      (description "Generic connector, double row, 02x05, counter clockwise pin numbering scheme (similar to DIP packge numbering), script generated (kicad-library-utils/schlib/autogen/connector/)")
      (docs ~)
      (footprints
        (fp Connector*:*_2x??_*))
      (fields
        (field (name Reference) J)
        (field (name Value) Conn_02x05_Counter_Clockwise))
      (pins
        (pin (num 1) (name Pin_1) (type passive))
        (pin (num 2) (name Pin_2) (type passive))
        (pin (num 3) (name Pin_3) (type passive))
        (pin (num 4) (name Pin_4) (type passive))
        (pin (num 5) (name Pin_5) (type passive))
        (pin (num 6) (name Pin_6) (type passive))
        (pin (num 7) (name Pin_7) (type passive))
        (pin (num 8) (name Pin_8) (type passive))
        (pin (num 9) (name Pin_9) (type passive))
        (pin (num 10) (name Pin_10) (type passive))))
    (libpart (lib Connector_Generic) (part Conn_02x05_Odd_Even)
      (description "Generic connector, double row, 02x05, odd/even pin numbering scheme (row 1 odd numbers, row 2 even numbers), script generated (kicad-library-utils/schlib/autogen/connector/)")
      (docs ~)
      (footprints
        (fp Connector*:*_2x??_*))
      (fields
        (field (name Reference) J)
        (field (name Value) Conn_02x05_Odd_Even))
      (pins
        (pin (num 1) (name Pin_1) (type passive))
        (pin (num 2) (name Pin_2) (type passive))
        (pin (num 3) (name Pin_3) (type passive))
        (pin (num 4) (name Pin_4) (type passive))
        (pin (num 5) (name Pin_5) (type passive))
        (pin (num 6) (name Pin_6) (type passive))
        (pin (num 7) (name Pin_7) (type passive))
        (pin (num 8) (name Pin_8) (type passive))
        (pin (num 9) (name Pin_9) (type passive))
        (pin (num 10) (name Pin_10) (type passive))))
    (libpart (lib Device) (part Battery_Cell)
      (description "Single-cell battery")
      (docs ~)
      (fields
        (field (name Reference) BT)
        (field (name Value) Battery_Cell))
      (pins
        (pin (num 1) (name +) (type passive))
        (pin (num 2) (name -) (type passive))))
    (libpart (lib Device) (part C)
      (description "Unpolarized capacitor")
      (docs ~)
      (footprints
        (fp C_*))
      (fields
        (field (name Reference) C)
        (field (name Value) C))
      (pins
        (pin (num 1) (name ~) (type passive))
        (pin (num 2) (name ~) (type passive))))
    (libpart (lib Device) (part Crystal)
      (description "Two pin crystal")
      (docs ~)
      (footprints
        (fp Crystal*))
      (fields
        (field (name Reference) Y)
        (field (name Value) Crystal))
      (pins
        (pin (num 1) (name 1) (type passive))
        (pin (num 2) (name 2) (type passive))))
    (libpart (lib Device) (part Ferrite_Bead)
      (description "Ferrite bead")
      (docs ~)
      (footprints
        (fp Inductor_*)
        (fp L_*)
        (fp *Ferrite*))
      (fields
        (field (name Reference) FB)
        (field (name Value) Ferrite_Bead))
      (pins
        (pin (num 1) (name ~) (type passive))
        (pin (num 2) (name ~) (type passive))))
    (libpart (lib Device) (part LED)
      (description "Light emitting diode")
      (docs ~)
      (footprints
        (fp LED*)
        (fp LED_SMD:*)
        (fp LED_THT:*))
      (fields
        (field (name Reference) D)
        (field (name Value) LED))
      (pins
        (pin (num 1) (name K) (type passive))
        (pin (num 2) (name A) (type passive))))
    (libpart (lib Device) (part Q_NMOS_GSD)
      (description "N-MOSFET transistor, gate/source/drain")
      (docs ~)
      (fields
        (field (name Reference) Q)
        (field (name Value) Q_NMOS_GSD))
      (pins
        (pin (num 1) (name G) (type input))
        (pin (num 2) (name S) (type passive))
        (pin (num 3) (name D) (type passive))))
    (libpart (lib Device) (part R)
      (description Resistor)
      (docs ~)
      (footprints
        (fp R_*))
      (fields
        (field (name Reference) R)
        (field (name Value) R))
      (pins
        (pin (num 1) (name ~) (type passive))
        (pin (num 2) (name ~) (type passive))))
    (libpart (lib Mechanical) (part Fiducial)
      (description "Fiducial Marker")
      (docs ~)
      (footprints
        (fp Fiducial*))
      (fields
        (field (name Reference) FID)
        (field (name Value) Fiducial)))
    (libpart (lib Mechanical) (part MountingHole)
      (description "Mounting Hole without connection")
      (docs ~)
      (footprints
        (fp MountingHole*))
      (fields
        (field (name Reference) H)
        (field (name Value) MountingHole)))
    (libpart (lib RF_Module) (part RFM95W-868S2)
      (aliases
        (alias RFM95W-915S2)
        (alias RFM96W-315S2)
        (alias RFM96W-433S2)
        (alias RFM97W-868S2)
        (alias RFM97W-915S2)
        (alias RFM98W-315S2)
        (alias RFM98W-433S2)
        (alias RFM69HCW))
      (description "Low power long range transceiver module, SPI and parallel interface, 868 MHz, spreading factor 6 to12, bandwith 7.8 to 500kHz, -111 to -148 dBm, SMD-16, DIP-16")
      (docs https://www.hoperf.com/data/upload/portal/20181127/5bfcbea20e9ef.pdf)
      (footprints
        (fp HOPERF*RFM9XW*))
      (fields
        (field (name Reference) U)
        (field (name Value) RFM95W-868S2))
      (pins
        (pin (num 1) (name GND) (type power_in))
        (pin (num 2) (name MISO) (type output))
        (pin (num 3) (name MOSI) (type input))
        (pin (num 4) (name SCK) (type input))
        (pin (num 5) (name NSS) (type input))
        (pin (num 6) (name RESET) (type BiDi))
        (pin (num 7) (name DIO5) (type BiDi))
        (pin (num 8) (name GND) (type power_in))
        (pin (num 9) (name ANT) (type BiDi))
        (pin (num 10) (name GND) (type power_in))
        (pin (num 11) (name DIO3) (type BiDi))
        (pin (num 12) (name DIO4) (type BiDi))
        (pin (num 13) (name 3.3V) (type power_in))
        (pin (num 14) (name DIO0) (type BiDi))
        (pin (num 15) (name DIO1) (type BiDi))
        (pin (num 16) (name DIO2) (type BiDi))))
    (libpart (lib STM32F410RBT6) (part STM32F410RBT6)
      (description "STMicroelectronics STM32F410RBT6, 32bit ARM Cortex M4 MCU, 100MHz, 128 kB Flash, 64-Pin LQFP")
      (docs https://componentsearchengine.com/Datasheets/1/STM32F410RBT6.pdf)
      (fields
        (field (name Reference) IC)
        (field (name Value) STM32F410RBT6)
        (field (name Footprint) QFP50P1200X1200X160-64N)
        (field (name Datasheet) https://componentsearchengine.com/Datasheets/1/STM32F410RBT6.pdf)
        (field (name Description) "STMicroelectronics STM32F410RBT6, 32bit ARM Cortex M4 MCU, 100MHz, 128 kB Flash, 64-Pin LQFP")
        (field (name Height) 1.6)
        (field (name "Mouser Part Number") 511-STM32F410RBT6)
        (field (name "Mouser Price/Stock") https://www.mouser.com/Search/Refine.aspx?Keyword=511-STM32F410RBT6)
        (field (name Manufacturer_Name) STMicroelectronics)
        (field (name Manufacturer_Part_Number) STM32F410RBT6))
      (pins
        (pin (num 1) (name VBAT) (type unspc))
        (pin (num 2) (name PC13) (type unspc))
        (pin (num 3) (name PC14-_OSC32_IN) (type unspc))
        (pin (num 4) (name PC15-_OSC32_OUT) (type unspc))
        (pin (num 5) (name PH0_-_OSC_IN) (type unspc))
        (pin (num 6) (name PH1_-_OSC_OUT) (type unspc))
        (pin (num 7) (name NRST) (type unspc))
        (pin (num 8) (name PC0) (type unspc))
        (pin (num 9) (name PC1) (type unspc))
        (pin (num 10) (name PC2) (type unspc))
        (pin (num 11) (name PC3) (type unspc))
        (pin (num 12) (name VSSA/VREF-) (type unspc))
        (pin (num 13) (name VDDA/VREF+) (type unspc))
        (pin (num 14) (name PA0) (type unspc))
        (pin (num 15) (name PA1) (type unspc))
        (pin (num 16) (name PA2) (type unspc))
        (pin (num 17) (name PA3) (type unspc))
        (pin (num 18) (name VSS_1) (type unspc))
        (pin (num 19) (name VDD_1) (type unspc))
        (pin (num 20) (name PA4) (type unspc))
        (pin (num 21) (name PA5) (type unspc))
        (pin (num 22) (name PA6) (type unspc))
        (pin (num 23) (name PA7) (type unspc))
        (pin (num 24) (name PC4) (type unspc))
        (pin (num 25) (name PC5) (type unspc))
        (pin (num 26) (name PB0) (type unspc))
        (pin (num 27) (name PB1) (type unspc))
        (pin (num 28) (name PB2) (type unspc))
        (pin (num 29) (name PB10) (type unspc))
        (pin (num 30) (name VCAP_1) (type unspc))
        (pin (num 31) (name VSS_2) (type unspc))
        (pin (num 32) (name VDD_2) (type unspc))
        (pin (num 33) (name PB12) (type unspc))
        (pin (num 34) (name PB13) (type unspc))
        (pin (num 35) (name PB14) (type unspc))
        (pin (num 36) (name PB15) (type unspc))
        (pin (num 37) (name PC6) (type unspc))
        (pin (num 38) (name PC7) (type unspc))
        (pin (num 39) (name PC8) (type unspc))
        (pin (num 40) (name PC9) (type unspc))
        (pin (num 41) (name PA8) (type unspc))
        (pin (num 42) (name PA9) (type unspc))
        (pin (num 43) (name PA10) (type unspc))
        (pin (num 44) (name PA11) (type unspc))
        (pin (num 45) (name PA12) (type unspc))
        (pin (num 46) (name PA13) (type unspc))
        (pin (num 47) (name VSS_3) (type unspc))
        (pin (num 48) (name VDD_3) (type unspc))
        (pin (num 49) (name PA14) (type unspc))
        (pin (num 50) (name PA15) (type unspc))
        (pin (num 51) (name PC10) (type unspc))
        (pin (num 52) (name PC11) (type unspc))
        (pin (num 53) (name PC12) (type unspc))
        (pin (num 54) (name PB11) (type unspc))
        (pin (num 55) (name PB3) (type unspc))
        (pin (num 56) (name PB4) (type unspc))
        (pin (num 57) (name PB5) (type unspc))
        (pin (num 58) (name PB6) (type unspc))
        (pin (num 59) (name PB7) (type unspc))
        (pin (num 60) (name BOOT0) (type unspc))
        (pin (num 61) (name PB8) (type unspc))
        (pin (num 62) (name PB9) (type unspc))
        (pin (num 63) (name VSS_4) (type unspc))
        (pin (num 64) (name VDD_4) (type unspc))))
    (libpart (lib Sensor_Motion) (part LSM9DS1)
      (description "I2C SPI 9 axis IMU accelerometer gyroscope magnetometer")
      (docs http://www.st.com/content/ccc/resource/technical/document/datasheet/1e/3f/2a/d6/25/eb/48/46/DM00103319.pdf/files/DM00103319.pdf/jcr:content/translations/en.DM00103319.pdf)
      (footprints
        (fp LGA*3x3.5mm*P0.43mm*))
      (fields
        (field (name Reference) U)
        (field (name Value) LSM9DS1)
        (field (name Footprint) Package_LGA:LGA-24L_3x3.5mm_P0.43mm))
      (pins
        (pin (num 1) (name VDDIO) (type power_in))
        (pin (num 2) (name SCL/SPC) (type input))
        (pin (num 3) (name VDDIO) (type power_in))
        (pin (num 4) (name SDA/SDI/SDO) (type BiDi))
        (pin (num 5) (name SDO_A/G) (type output))
        (pin (num 6) (name SDO_M) (type output))
        (pin (num 7) (name CS_A/G) (type input))
        (pin (num 8) (name CS_M) (type input))
        (pin (num 9) (name DRDY_M) (type output))
        (pin (num 10) (name INT_M) (type output))
        (pin (num 11) (name INT1_A/G) (type output))
        (pin (num 12) (name INT2_A/G) (type output))
        (pin (num 13) (name DEN_A/G) (type input))
        (pin (num 14) (name RES) (type BiDi))
        (pin (num 15) (name RES) (type BiDi))
        (pin (num 16) (name RES) (type BiDi))
        (pin (num 17) (name RES) (type BiDi))
        (pin (num 18) (name RES) (type BiDi))
        (pin (num 19) (name GND) (type power_in))
        (pin (num 20) (name GND) (type power_in))
        (pin (num 21) (name CAP) (type passive))
        (pin (num 22) (name VDD) (type power_in))
        (pin (num 23) (name VDD) (type power_in))
        (pin (num 24) (name C1) (type passive))))
    (libpart (lib Switch) (part SW_DIP_x01)
      (description "1x DIP Switch, Single Pole Single Throw (SPST) switch, small symbol")
      (docs ~)
      (footprints
        (fp SW?DIP?x1*))
      (fields
        (field (name Reference) SW)
        (field (name Value) SW_DIP_x01))
      (pins
        (pin (num 1) (name ~) (type passive))
        (pin (num 2) (name ~) (type passive)))))
  (libraries
    (library (logical CAM-M8Q)
      (uri "C:/Users/jens/Documents/smart-floating-lab-positiebepaling/KiCad/4_Modules/LIBS for chips/CAM-M8Q.lib"))
    (library (logical Connector)
      (uri C:\Users\jens\Documents\KiCad\1_Symbols/Connector.lib))
    (library (logical Connector_Generic)
      (uri C:\Users\jens\Documents\KiCad\1_Symbols/Connector_Generic.lib))
    (library (logical Device)
      (uri C:\Users\jens\Documents\KiCad\1_Symbols/Device.lib))
    (library (logical Mechanical)
      (uri C:\Users\jens\Documents\KiCad\1_Symbols/Mechanical.lib))
    (library (logical RF_Module)
      (uri C:\Users\jens\Documents\KiCad\1_Symbols/RF_Module.lib))
    (library (logical STM32F410RBT6)
      (uri "C:/Users/jens/Documents/smart-floating-lab-positiebepaling/KiCad/4_Modules/LIBS for chips/STM32F410RBT6.lib"))
    (library (logical Sensor_Motion)
      (uri C:\Users\jens\Documents\KiCad\1_Symbols/Sensor_Motion.lib))
    (library (logical Switch)
      (uri C:\Users\jens\Documents\KiCad\1_Symbols/Switch.lib)))
  (nets
    (net (code 1) (name PB8)
      (node (ref IC2) (pin 61))
      (node (ref TP4) (pin 1)))
    (net (code 2) (name MCU_RESET)
      (node (ref SW1) (pin 1))
      (node (ref R21) (pin 2))
      (node (ref IC2) (pin 7))
      (node (ref J8) (pin 1)))
    (net (code 3) (name V_BCKP)
      (node (ref BT1) (pin 1))
      (node (ref C2) (pin 1))
      (node (ref IC1) (pin 8)))
    (net (code 4) (name PB13)
      (node (ref IC2) (pin 34))
      (node (ref TP7) (pin 1)))
    (net (code 5) (name PB11)
      (node (ref TP6) (pin 1))
      (node (ref IC2) (pin 54)))
    (net (code 6) (name PB10)
      (node (ref TP5) (pin 1))
      (node (ref IC2) (pin 29)))
    (net (code 7) (name PB5)
      (node (ref IC2) (pin 57))
      (node (ref TP3) (pin 1)))
    (net (code 8) (name PB3)
      (node (ref TP1) (pin 1))
      (node (ref IC2) (pin 55)))
    (net (code 9) (name PB4)
      (node (ref TP2) (pin 1))
      (node (ref IC2) (pin 56)))
    (net (code 10) (name PA15)
      (node (ref TP13) (pin 1))
      (node (ref IC2) (pin 50)))
    (net (code 11) (name PA8)
      (node (ref IC2) (pin 41))
      (node (ref TP11) (pin 1)))
    (net (code 12) (name PA12)
      (node (ref TP12) (pin 1))
      (node (ref IC2) (pin 45)))
    (net (code 13) (name PH1-OSC-OUT)
      (node (ref TP9) (pin 1))
      (node (ref IC2) (pin 6)))
    (net (code 14) (name PC2)
      (node (ref IC2) (pin 10))
      (node (ref TP16) (pin 1)))
    (net (code 15) (name PC9)
      (node (ref TP18) (pin 1))
      (node (ref IC2) (pin 40)))
    (net (code 16) (name PC3)
      (node (ref IC2) (pin 11))
      (node (ref TP17) (pin 1)))
    (net (code 17) (name PC10)
      (node (ref IC2) (pin 51))
      (node (ref TP19) (pin 1)))
    (net (code 18) (name PC12)
      (node (ref IC2) (pin 53))
      (node (ref TP20) (pin 1)))
    (net (code 19) (name PC13)
      (node (ref IC2) (pin 2))
      (node (ref TP21) (pin 1)))
    (net (code 20) (name PB14)
      (node (ref TP8) (pin 1))
      (node (ref IC2) (pin 35)))
    (net (code 21) (name "Net-(J7-Pad9)")
      (node (ref J7) (pin 9)))
    (net (code 22) (name "Net-(J7-Pad3)")
      (node (ref J7) (pin 3)))
    (net (code 23) (name "Net-(J7-Pad4)")
      (node (ref J7) (pin 4)))
    (net (code 24) (name "Net-(J7-Pad6)")
      (node (ref J7) (pin 6)))
    (net (code 25) (name "Net-(J7-Pad5)")
      (node (ref J7) (pin 5)))
    (net (code 26) (name "Net-(J7-Pad7)")
      (node (ref J7) (pin 7)))
    (net (code 27) (name "Net-(J7-Pad8)")
      (node (ref J7) (pin 8)))
    (net (code 28) (name "Net-(J7-Pad10)")
      (node (ref J7) (pin 10)))
    (net (code 29) (name "Net-(J7-Pad2)")
      (node (ref J7) (pin 2)))
    (net (code 30) (name PC0)
      (node (ref IC2) (pin 8))
      (node (ref TP14) (pin 1)))
    (net (code 31) (name "Net-(J7-Pad1)")
      (node (ref J7) (pin 1)))
    (net (code 32) (name "Net-(C17-Pad1)")
      (node (ref IC2) (pin 3))
      (node (ref C17) (pin 1))
      (node (ref Y1) (pin 1)))
    (net (code 33) (name "Net-(IC1-Pad7)")
      (node (ref IC1) (pin 7))
      (node (ref TP27) (pin 1)))
    (net (code 34) (name "Net-(IC1-Pad28)")
      (node (ref IC1) (pin 28)))
    (net (code 35) (name "Net-(IC1-Pad2)")
      (node (ref IC1) (pin 2)))
    (net (code 36) (name "Net-(IC1-Pad24)")
      (node (ref IC1) (pin 24)))
    (net (code 37) (name TX_GNSS)
      (node (ref J10) (pin 2))
      (node (ref FB2) (pin 1))
      (node (ref IC2) (pin 16)))
    (net (code 38) (name RX_GNSS)
      (node (ref FB3) (pin 1))
      (node (ref IC2) (pin 17))
      (node (ref J10) (pin 1)))
    (net (code 39) (name PC1)
      (node (ref IC2) (pin 9))
      (node (ref TP15) (pin 1)))
    (net (code 40) (name PWM_ESCR_5)
      (node (ref R4) (pin 1))
      (node (ref J1) (pin 3))
      (node (ref Q2) (pin 3)))
    (net (code 41) (name +5V)
      (node (ref J3) (pin 1))
      (node (ref R4) (pin 2))
      (node (ref R1) (pin 2))
      (node (ref TP26) (pin 1))
      (node (ref R5) (pin 2)))
    (net (code 42) (name PWM_SERVO_5)
      (node (ref J1) (pin 2))
      (node (ref R1) (pin 1))
      (node (ref Q1) (pin 3)))
    (net (code 43) (name PWM_ESCL_5)
      (node (ref R5) (pin 1))
      (node (ref J1) (pin 1))
      (node (ref Q3) (pin 3)))
    (net (code 44) (name PH0-OSC-IN)
      (node (ref TP10) (pin 1))
      (node (ref IC2) (pin 5)))
    (net (code 45) (name ALERT)
      (node (ref IC2) (pin 27))
      (node (ref J5) (pin 1))
      (node (ref TP37) (pin 1)))
    (net (code 46) (name ADC_INPUT)
      (node (ref J5) (pin 3))
      (node (ref TP36) (pin 1))
      (node (ref IC2) (pin 26)))
    (net (code 47) (name SC_RESET)
      (node (ref TP35) (pin 1))
      (node (ref IC2) (pin 25))
      (node (ref J5) (pin 2)))
    (net (code 48) (name "Net-(IC1-Pad20)")
      (node (ref IC1) (pin 20))
      (node (ref R24) (pin 2)))
    (net (code 49) (name LED1)
      (node (ref IC2) (pin 36))
      (node (ref D2) (pin 2)))
    (net (code 50) (name LED0)
      (node (ref D1) (pin 2))
      (node (ref IC2) (pin 33)))
    (net (code 51) (name GND)
      (node (ref R27) (pin 2))
      (node (ref U1) (pin 15))
      (node (ref U1) (pin 14))
      (node (ref U1) (pin 20))
      (node (ref U1) (pin 19))
      (node (ref U1) (pin 18))
      (node (ref U1) (pin 17))
      (node (ref U1) (pin 16))
      (node (ref BT1) (pin 2))
      (node (ref C3) (pin 2))
      (node (ref TP41) (pin 1))
      (node (ref R22) (pin 1))
      (node (ref R20) (pin 1))
      (node (ref R13) (pin 2))
      (node (ref R26) (pin 1))
      (node (ref R15) (pin 2))
      (node (ref R14) (pin 2))
      (node (ref C17) (pin 2))
      (node (ref C19) (pin 2))
      (node (ref TP33) (pin 1))
      (node (ref TP43) (pin 1))
      (node (ref C4) (pin 2))
      (node (ref TP42) (pin 1))
      (node (ref TP44) (pin 1))
      (node (ref C18) (pin 2))
      (node (ref C14) (pin 2))
      (node (ref C16) (pin 2))
      (node (ref C11) (pin 2))
      (node (ref C13) (pin 2))
      (node (ref R19) (pin 1))
      (node (ref IC1) (pin 22))
      (node (ref IC1) (pin 21))
      (node (ref SW1) (pin 2))
      (node (ref C1) (pin 2))
      (node (ref J9) (pin 2))
      (node (ref J6) (pin 2))
      (node (ref C2) (pin 2))
      (node (ref IC1) (pin 12))
      (node (ref C5) (pin 2))
      (node (ref IC1) (pin 19))
      (node (ref IC1) (pin 18))
      (node (ref IC1) (pin 15))
      (node (ref IC1) (pin 14))
      (node (ref IC1) (pin 13))
      (node (ref IC1) (pin 11))
      (node (ref IC1) (pin 10))
      (node (ref IC1) (pin 4))
      (node (ref IC1) (pin 5))
      (node (ref IC1) (pin 31))
      (node (ref IC1) (pin 27))
      (node (ref C21) (pin 2))
      (node (ref IC2) (pin 18))
      (node (ref IC2) (pin 12))
      (node (ref TP46) (pin 1))
      (node (ref C20) (pin 2))
      (node (ref C15) (pin 2))
      (node (ref IC2) (pin 47))
      (node (ref IC2) (pin 31))
      (node (ref J8) (pin 4))
      (node (ref J8) (pin 3))
      (node (ref U2) (pin 1))
      (node (ref U2) (pin 10))
      (node (ref R17) (pin 2))
      (node (ref C12) (pin 2))
      (node (ref J3) (pin 3))
      (node (ref C9) (pin 2))
      (node (ref J2) (pin 3))
      (node (ref C6) (pin 2))
      (node (ref C7) (pin 2))
      (node (ref C10) (pin 2))
      (node (ref TP45) (pin 1))
      (node (ref J4) (pin 4))
      (node (ref C8) (pin 2))
      (node (ref IC2) (pin 63))
      (node (ref C23) (pin 2))
      (node (ref R16) (pin 2))
      (node (ref R23) (pin 2))
      (node (ref U2) (pin 8))
      (node (ref C22) (pin 2)))
    (net (code 52) (name "Net-(IC2-Pad28)")
      (node (ref IC2) (pin 28))
      (node (ref R20) (pin 2)))
    (net (code 53) (name SWCLK)
      (node (ref J8) (pin 6))
      (node (ref IC2) (pin 49)))
    (net (code 54) (name LED2)
      (node (ref IC2) (pin 39))
      (node (ref D3) (pin 2)))
    (net (code 55) (name "Net-(C21-Pad1)")
      (node (ref C21) (pin 1))
      (node (ref J3) (pin 2))
      (node (ref FB1) (pin 1)))
    (net (code 56) (name 3V3)
      (node (ref R9) (pin 2))
      (node (ref C5) (pin 1))
      (node (ref J2) (pin 1))
      (node (ref J4) (pin 1))
      (node (ref R3) (pin 2))
      (node (ref Q3) (pin 1))
      (node (ref J8) (pin 8))
      (node (ref Q2) (pin 1))
      (node (ref IC1) (pin 1))
      (node (ref Q1) (pin 1))
      (node (ref R12) (pin 1))
      (node (ref C1) (pin 1))
      (node (ref R18) (pin 2))
      (node (ref R11) (pin 1))
      (node (ref R2) (pin 1))
      (node (ref J8) (pin 7))
      (node (ref R24) (pin 1))
      (node (ref IC1) (pin 9))
      (node (ref R10) (pin 2))
      (node (ref C22) (pin 1))
      (node (ref IC2) (pin 64))
      (node (ref C23) (pin 1))
      (node (ref U2) (pin 13))
      (node (ref IC2) (pin 1))
      (node (ref IC2) (pin 13))
      (node (ref TP29) (pin 1))
      (node (ref TP28) (pin 1))
      (node (ref TP32) (pin 1))
      (node (ref IC2) (pin 19))
      (node (ref R25) (pin 1))
      (node (ref C8) (pin 1))
      (node (ref C12) (pin 1))
      (node (ref C9) (pin 1))
      (node (ref C10) (pin 1))
      (node (ref C7) (pin 1))
      (node (ref C15) (pin 1))
      (node (ref C20) (pin 1))
      (node (ref IC2) (pin 48))
      (node (ref IC2) (pin 32))
      (node (ref C6) (pin 1))
      (node (ref U1) (pin 7))
      (node (ref U1) (pin 8))
      (node (ref U1) (pin 1))
      (node (ref U1) (pin 22))
      (node (ref R21) (pin 1))
      (node (ref U1) (pin 23))
      (node (ref U1) (pin 3))
      (node (ref C16) (pin 1))
      (node (ref C14) (pin 1))
      (node (ref FB1) (pin 2)))
    (net (code 57) (name PWM_ESCL_33)
      (node (ref IC2) (pin 15))
      (node (ref Q3) (pin 2))
      (node (ref R10) (pin 1)))
    (net (code 58) (name PWM_ESCR_33)
      (node (ref IC2) (pin 14))
      (node (ref Q2) (pin 2))
      (node (ref R9) (pin 1)))
    (net (code 59) (name PWM_SERVO_33)
      (node (ref R3) (pin 1))
      (node (ref Q1) (pin 2))
      (node (ref IC2) (pin 52)))
    (net (code 60) (name "Net-(TP50-Pad1)")
      (node (ref U2) (pin 15))
      (node (ref TP50) (pin 1)))
    (net (code 61) (name "Net-(TP51-Pad1)")
      (node (ref U2) (pin 14))
      (node (ref TP51) (pin 1)))
    (net (code 62) (name "Net-(TP47-Pad1)")
      (node (ref TP47) (pin 1))
      (node (ref U2) (pin 12)))
    (net (code 63) (name "Net-(TP48-Pad1)")
      (node (ref U2) (pin 11))
      (node (ref TP48) (pin 1)))
    (net (code 64) (name "Net-(TP49-Pad1)")
      (node (ref U2) (pin 16))
      (node (ref TP49) (pin 1)))
    (net (code 65) (name "Net-(J9-Pad1)")
      (node (ref J9) (pin 1))
      (node (ref U2) (pin 9)))
    (net (code 66) (name "Net-(TP40-Pad1)")
      (node (ref TP40) (pin 1))
      (node (ref U2) (pin 7)))
    (net (code 67) (name "Net-(IC2-Pad60)")
      (node (ref R22) (pin 2))
      (node (ref IC2) (pin 60)))
    (net (code 68) (name TIMEPULSE)
      (node (ref IC1) (pin 29))
      (node (ref D5) (pin 2)))
    (net (code 69) (name "Net-(D5-Pad1)")
      (node (ref D5) (pin 1))
      (node (ref R23) (pin 1)))
    (net (code 70) (name LED3)
      (node (ref D4) (pin 2))
      (node (ref IC2) (pin 44)))
    (net (code 71) (name "Net-(D4-Pad1)")
      (node (ref D4) (pin 1))
      (node (ref R16) (pin 1)))
    (net (code 72) (name RESET_LORA)
      (node (ref IC2) (pin 24))
      (node (ref U2) (pin 6))
      (node (ref J13) (pin 5)))
    (net (code 73) (name NSS_LORA)
      (node (ref U2) (pin 5))
      (node (ref J13) (pin 4))
      (node (ref IC2) (pin 20)))
    (net (code 74) (name SWDIO)
      (node (ref J8) (pin 2))
      (node (ref D6) (pin 2))
      (node (ref IC2) (pin 46)))
    (net (code 75) (name DEBUG_RX)
      (node (ref IC2) (pin 38))
      (node (ref J12) (pin 2)))
    (net (code 76) (name DEBUG_TX)
      (node (ref IC2) (pin 37))
      (node (ref J12) (pin 1)))
    (net (code 77) (name "Net-(D6-Pad1)")
      (node (ref R27) (pin 1))
      (node (ref D6) (pin 1)))
    (net (code 78) (name SCK_LORA)
      (node (ref J13) (pin 3))
      (node (ref U2) (pin 4))
      (node (ref IC2) (pin 21)))
    (net (code 79) (name MOSI_LORA)
      (node (ref IC2) (pin 23))
      (node (ref J13) (pin 2))
      (node (ref U2) (pin 3)))
    (net (code 80) (name MISO_LORA)
      (node (ref J13) (pin 1))
      (node (ref IC2) (pin 22))
      (node (ref U2) (pin 2)))
    (net (code 81) (name tempData)
      (node (ref J2) (pin 2))
      (node (ref R2) (pin 2))
      (node (ref J11) (pin 1))
      (node (ref IC2) (pin 62)))
    (net (code 82) (name "Net-(R18-Pad1)")
      (node (ref R18) (pin 1))
      (node (ref U1) (pin 13)))
    (net (code 83) (name "Net-(TP23-Pad1)")
      (node (ref U1) (pin 12))
      (node (ref TP23) (pin 1)))
    (net (code 84) (name "Net-(TP22-Pad1)")
      (node (ref TP22) (pin 1))
      (node (ref U1) (pin 11)))
    (net (code 85) (name "Net-(TP25-Pad1)")
      (node (ref U1) (pin 10))
      (node (ref TP25) (pin 1)))
    (net (code 86) (name "Net-(TP24-Pad1)")
      (node (ref U1) (pin 9))
      (node (ref TP24) (pin 1)))
    (net (code 87) (name "Net-(R19-Pad2)")
      (node (ref U1) (pin 6))
      (node (ref R19) (pin 2)))
    (net (code 88) (name "Net-(R17-Pad1)")
      (node (ref U1) (pin 5))
      (node (ref R17) (pin 1)))
    (net (code 89) (name "Net-(C11-Pad1)")
      (node (ref C11) (pin 1))
      (node (ref U1) (pin 21)))
    (net (code 90) (name "Net-(C13-Pad1)")
      (node (ref C13) (pin 1))
      (node (ref U1) (pin 24)))
    (net (code 91) (name "Net-(C3-Pad1)")
      (node (ref C3) (pin 1))
      (node (ref R8) (pin 2))
      (node (ref IC1) (pin 17))
      (node (ref IC1) (pin 16)))
    (net (code 92) (name RESET_GNSS)
      (node (ref IC1) (pin 23)))
    (net (code 93) (name "Net-(FB3-Pad2)")
      (node (ref FB3) (pin 2))
      (node (ref R7) (pin 1)))
    (net (code 94) (name "Net-(IC1-Pad25)")
      (node (ref IC1) (pin 25))
      (node (ref R6) (pin 2)))
    (net (code 95) (name "Net-(FB2-Pad2)")
      (node (ref R6) (pin 1))
      (node (ref FB2) (pin 2)))
    (net (code 96) (name I2C_SCL)
      (node (ref U1) (pin 2))
      (node (ref J11) (pin 3))
      (node (ref IC2) (pin 58))
      (node (ref R12) (pin 2))
      (node (ref IC1) (pin 6)))
    (net (code 97) (name LNA_EN)
      (node (ref IC1) (pin 30))
      (node (ref R26) (pin 2))
      (node (ref R25) (pin 2)))
    (net (code 98) (name I2C_SDA)
      (node (ref J11) (pin 2))
      (node (ref U1) (pin 4))
      (node (ref IC2) (pin 59))
      (node (ref IC1) (pin 3))
      (node (ref R11) (pin 2)))
    (net (code 99) (name "Net-(IC1-Pad26)")
      (node (ref R7) (pin 2))
      (node (ref IC1) (pin 26)))
    (net (code 100) (name "Net-(C4-Pad1)")
      (node (ref C4) (pin 1))
      (node (ref R8) (pin 1))
      (node (ref J6) (pin 1)))
    (net (code 101) (name "Net-(C19-Pad1)")
      (node (ref Y1) (pin 2))
      (node (ref C19) (pin 1))
      (node (ref IC2) (pin 4)))
    (net (code 102) (name "Net-(C18-Pad1)")
      (node (ref C18) (pin 1))
      (node (ref IC2) (pin 30)))
    (net (code 103) (name "Net-(D3-Pad1)")
      (node (ref D3) (pin 1))
      (node (ref R15) (pin 1)))
    (net (code 104) (name "Net-(D1-Pad1)")
      (node (ref R13) (pin 1))
      (node (ref D1) (pin 1)))
    (net (code 105) (name "Net-(D2-Pad1)")
      (node (ref R14) (pin 1))
      (node (ref D2) (pin 1)))
    (net (code 106) (name "Net-(J8-Pad5)")
      (node (ref J8) (pin 5)))
    (net (code 107) (name "Net-(J8-Pad10)")
      (node (ref J8) (pin 10)))
    (net (code 108) (name "Net-(J8-Pad9)")
      (node (ref J8) (pin 9)))
    (net (code 109) (name ECHO)
      (node (ref J4) (pin 3))
      (node (ref TP30) (pin 1))
      (node (ref IC2) (pin 42)))
    (net (code 110) (name TRIGGER)
      (node (ref J4) (pin 2))
      (node (ref TP31) (pin 1))
      (node (ref IC2) (pin 43)))))