stm32f4xx_hal_msp.c:66:6:HAL_MspInit	16	static
stm32f4xx_hal_msp.c:88:6:HAL_TIM_Base_MspInit	24	static
stm32f4xx_hal_msp.c:104:6:HAL_TIM_MspPostInit	48	static
stm32f4xx_hal_msp.c:146:6:HAL_TIM_Base_MspDeInit	16	static
stm32f4xx_hal_msp.c:168:6:HAL_UART_MspInit	48	static
stm32f4xx_hal_msp.c:204:6:HAL_UART_MspDeInit	16	static
