(module SON127P800X600X80-9N (layer F.Cu) (tedit 5D2370DA)
  (attr smd)
  (fp_text reference SON127P800X600X80-9N (at -2.57849 -4.13708) (layer F.Fab)
    (effects (font (size 1 1) (thickness 0.1)))
  )
  (fp_text value U** (at -3.95 -4) (layer F.SilkS)
    (effects (font (size 0.8 0.8) (thickness 0.1)))
  )
  (fp_line (start -4 -3) (end 4 -3) (layer Eco2.User) (width 0.2))
  (fp_line (start 4 -3) (end 4 3) (layer Eco2.User) (width 0.2))
  (fp_line (start 4 3) (end -4 3) (layer Eco2.User) (width 0.2))
  (fp_line (start -4 3) (end -4 -3) (layer Eco2.User) (width 0.2))
  (fp_line (start -4 -2.5) (end -4 -3) (layer F.SilkS) (width 0.2))
  (fp_line (start -4 -3) (end 4 -3) (layer F.SilkS) (width 0.2))
  (fp_line (start 4 -3) (end 4 -2.5) (layer F.SilkS) (width 0.2))
  (fp_line (start -4 2.5) (end -4 3) (layer F.SilkS) (width 0.2))
  (fp_line (start -4 3) (end 4 3) (layer F.SilkS) (width 0.2))
  (fp_line (start 4 3) (end 4 2.5) (layer F.SilkS) (width 0.2))
  (fp_circle (center -4.5 -2.75) (end -4.4 -2.75) (layer F.SilkS) (width 0.2))
  (fp_line (start -4.75 -3.25) (end 4.75 -3.25) (layer F.CrtYd) (width 0.05))
  (fp_line (start 4.75 -3.25) (end 4.75 3.25) (layer F.CrtYd) (width 0.05))
  (fp_line (start 4.75 3.25) (end -4.75 3.25) (layer F.CrtYd) (width 0.05))
  (fp_line (start -4.75 3.25) (end -4.75 -3.25) (layer F.CrtYd) (width 0.05))
  (fp_poly (pts (xy -1.335 -0.185) (xy -1.335 -1.785) (xy -0.185 -1.785) (xy -0.185 -0.185)) (layer F.Paste) (width 0))
  (fp_poly (pts (xy -1.335 1.785) (xy -1.335 0.185) (xy -0.185 0.185) (xy -0.185 1.785)) (layer F.Paste) (width 0))
  (fp_poly (pts (xy 1.335 -1.785) (xy 1.335 -0.185) (xy 0.185 -0.185) (xy 0.185 -1.785)) (layer F.Paste) (width 0))
  (fp_poly (pts (xy 1.335 0.185) (xy 1.335 1.785) (xy 0.185 1.785) (xy 0.185 0.185)) (layer F.Paste) (width 0))
  (pad 2 smd rect (at -3.895 -0.635) (size 0.94 0.44) (layers F.Cu F.Paste F.Mask))
  (pad 3 smd rect (at -3.895 0.635) (size 0.94 0.44) (layers F.Cu F.Paste F.Mask))
  (pad 4 smd rect (at -3.895 1.905) (size 0.94 0.44) (layers F.Cu F.Paste F.Mask))
  (pad 1 smd rect (at -3.895 -1.905) (size 0.94 0.44) (layers F.Cu F.Paste F.Mask))
  (pad 7 smd rect (at 3.895 -0.635) (size 0.94 0.44) (layers F.Cu F.Paste F.Mask))
  (pad 6 smd rect (at 3.895 0.635) (size 0.94 0.44) (layers F.Cu F.Paste F.Mask))
  (pad 5 smd rect (at 3.895 1.905) (size 0.94 0.44) (layers F.Cu F.Paste F.Mask))
  (pad 8 smd rect (at 3.895 -1.905) (size 0.94 0.44) (layers F.Cu F.Paste F.Mask))
  (pad 9 smd rect (at 0 0) (size 3.4 4.3) (layers F.Cu F.Paste F.Mask))
  (model "${KISYS3DMOD}/E-GPS/W25Q256JVEIQ TR--3DModel-STEP-1.STEP"
    (at (xyz 0 0 0))
    (scale (xyz 1 1 1))
    (rotate (xyz -90 0 90))
  )
)
